Place,Name,Equipment,Event,Sex,BirthYear,Country,BodyweightKg,Squat1Kg,Squat2Kg,Squat3Kg,Best3SquatKg,Bench1Kg,Bench2Kg,Bench3Kg,Best3BenchKg,Deadlift1Kg,Deadlift2Kg,Deadlift3Kg,Best3DeadliftKg,TotalKg,WeightClassKg,Division
1,Alexander Kolbin,Raw,SBD,M,1987,Russia,58.9,200,210,-215,210,135,-140,140,140,230,240,-250,240,590,59,Open
2,Dariusz Wszoła,Raw,SBD,M,1978,Poland,58.6,200,210,215,215,140,147.5,-152.5,147.5,190,200,205,205,567.5,59,Open
3,Slawomir Sledz,Raw,SBD,M,1976,Poland,58.1,170,180,-185,180,140,145,-147.5,145,190,200,-205,200,525,59,Open
4,Andrejs Silo,Raw,SBD,M,1990,Latvia,57.65,130,-140,-140,130,75,-82.5,82.5,82.5,192.5,-202.5,202.5,202.5,415,59,Open
5,Dean Barton,Raw,SBD,M,1984,UK,57.6,135,-140,-140,135,80,82.5,85,85,170,177.5,185,185,405,59,Open
1,Antti Savolainen,Raw,SBD,M,1978,Finland,65.6,200,-210,-210,200,142.5,147.5,152.5,152.5,255,267.5,-278.5,267.5,620,66,Open
2,Thomas Louet,Raw,SBD,M,1991,France,65.5,177.5,185,-190,185,125,130,135,135,242.5,255,-267.5,255,575,66,Open
3,Ryhor Tsiareshchanka,Raw,SBD,M,1989,Belarus,65.05,190,-200,202.5,202.5,115,122.5,-127.5,122.5,225,235,237.5,237.5,562.5,66,Open
4,Sarunas Tolvaisa,Raw,SBD,M,1990,Lithuania,65.6,175,182.5,192.5,192.5,130,135,-137.5,135,212.5,225,235,235,562.5,66,Open
5,Mariusz Grotkowski,Raw,SBD,M,1989,Poland,65.1,190,-200,-200,190,140,-145,-145,140,215,222.5,-232.5,222.5,552.5,66,Open
6,David Pascau,Raw,SBD,M,1990,France,65.15,195,-202.5,-202.5,195,125,-130,-130,125,210,217.5,227.5,227.5,547.5,66,Open
7,Jaba Gobnelishvili,Raw,SBD,M,1982,Georgia,65.05,160,170,177.5,177.5,115,-122.5,122.5,122.5,230,245,-247.5,245,545,66,Open
8,Andrew Dawes,Raw,SBD,M,1991,UK,64.75,187.5,197.5,202.5,202.5,120,125,-127.5,125,195,207.5,210,210,537.5,66,Open
1,Sami Nieminen,Raw,SBD,M,1975,Finland,73.05,-220,225,-232.5,225,145,150,-152.5,150,280,292.5,297.5,297.5,672.5,74,Open
2,Anton Karachentsev,Raw,SBD,M,1983,Ukraine,73.8,212.5,225,232.5,232.5,147.5,157.5,160,160,265,280,-290,280,672.5,74,Open
3,Adrien Poinson,Raw,SBD,M,1991,France,72.3,215,225,-227.5,225,195,200,,200,245,-252.5,-252.5,245,670,74,Open
4,Oleksandr Makhov,Raw,SBD,M,1990,Ukraine,73.15,227.5,237.5,245,245,135,142.5,-145,142.5,255,280,-285,280,667.5,74,Open
5,Piotr Jakimiuk,Raw,SBD,M,1987,Poland,73.6,230,242.5,-250,242.5,157.5,-162.5,-162.5,157.5,250,257.5,-272.5,257.5,657.5,74,Open
6,Aliaksandr Varabyou,Raw,SBD,M,1990,Belarus,73.4,215,222.5,225,225,155,160,162.5,162.5,250,265,-282.5,265,652.5,74,Open
7,Pasi Sipiläinen,Raw,SBD,M,1978,Finland,73.8,200,207.5,210,210,152.5,160,-162.5,160,260,272.5,282.5,282.5,652.5,74,Open
8,James Duff,Raw,SBD,M,1992,UK,73.4,-227.5,227.5,235,235,127.5,132.5,-137.5,132.5,250,262.5,267.5,267.5,635,74,Open
9,Jimmie Karlsson,Raw,SBD,M,1989,Sweden,73.75,195,205,210,210,145,152.5,155,155,260,270,-275,270,635,74,Open
10,Aimar Kuusnömm,Raw,SBD,M,1990,Estonia,72.85,200,212.5,-217.5,212.5,150,-160,-160,150,245,-260,,245,607.5,74,Open
11,Jakob Škarabot,Raw,SBD,M,1991,Slovenia,73.15,210,220,225,225,117.5,122.5,-127.5,122.5,245,255,260,260,607.5,74,Open
12,Terence Peterson,Raw,SBD,M,1991,Netherlands,73.85,180,-190,190,190,122.5,127.5,-130,127.5,250,272.5,-280,272.5,590,74,Open
13,Davide Giannini,Raw,SBD,M,1987,Italy,70.4,190,200,-212.5,200,130,137.5,-142.5,137.5,230,237.5,242.5,242.5,580,74,Open
14,Luke Rogers,Raw,SBD,M,1988,UK,73.7,-210,210,-215,210,115,120,125,125,245,-255,,245,580,74,Open
15,Emanuele Tiofilo,Raw,SBD,M,1986,Italy,71.85,-180,180,-190,180,130,135,-137.5,135,230,240,250,250,565,74,Open
16,Levon Kocharyan,Raw,SBD,M,1985,Armenia,73.4,170,180,190,190,-157.5,-157.5,157.5,157.5,180,190,-200,190,537.5,74,Open
1,Alexey Kuzmin,Raw,SBD,M,1982,Russia,82,260,270.5,-273,270.5,175,180,-182.5,180,282.5,295,305,305,755.5,83,Open
2,Owen Hubbard,Raw,SBD,M,1992,UK,81.6,260,-270.5,271,271,-200,200,-206.5,200,255,270,277.5,277.5,748.5,83,Open
3,Jacek Spychała,Raw,SBD,M,1978,Poland,82.5,240,247.5,252.5,252.5,165,170,175,175,290,300,-322.5,300,727.5,83,Open
4,Romain Picot-Guéraud,Raw,SBD,M,1987,France,82,250,260,265,265,157.5,165,170,170,270,285,-295,285,720,83,Open
5,Mikko Ronkainen,Raw,SBD,M,1987,Finland,82.45,-240,240,-247.5,240,160,165,-170,165,290,300,302.5,302.5,707.5,83,Open
6,Gilles Pinheiro,Raw,SBD,M,1987,France,82.75,240,-245,245,245,160,-162.5,,160,287.5,-292.5,-292.5,287.5,692.5,83,Open
7,Yauheni Kautsevich,Raw,SBD,M,1988,Belarus,82.25,240,-250,-250,240,160,-165,-165,160,265,272.5,-280,272.5,672.5,83,Open
8,Denis Jevdokimov,Raw,SBD,M,1981,Lithuania,82.4,235,-242.5,-242.5,235,172.5,180,-185,180,245,255,-262.5,255,670,83,Open
9,Jure Rus,Raw,SBD,M,1991,Slovenia,81.1,240,250,-260,250,145,150,-155,150,265,-280,-280,265,665,83,Open
10,Peter Hornyak,Raw,SBD,M,1979,Hungary,81.7,207.5,217.5,225,225,157.5,-162.5,162.5,162.5,245,255,260,260,647.5,83,Open
11,Robert Mihailov,Raw,SBD,M,1977,Bulgaria,82.3,175,-205,225,225,135,142.5,147.5,147.5,275,-305,,275,647.5,83,Open
12,Gianluca Martino,Raw,SBD,M,1991,Italy,82.1,207.5,217.5,-222.5,217.5,140,145,-150,145,260,275,-280,275,637.5,83,Open
13,Aldreyson Ortega,Raw,SBD,M,1992,Netherlands,82.55,205,215,222.5,222.5,130,135,-137.5,135,272.5,-287.5,-287.5,272.5,630,83,Open
14,Jurgis Zalans,Raw,SBD,M,1975,Latvia,82.35,-200,200,207.5,207.5,100,105,110,110,210,220,,220,537.5,83,Open
DQ,Surab Dzamukashvili,Raw,SBD,M,1979,Georgia,81.45,,,,,,,,,,,,,,83,Open
DQ,Kristian Sewén,Raw,SBD,M,1982,Sweden,82.7,225,232.5,237.5,237.5,-160,-160,-160,,275,295,-300,295,,83,Open
1,Borislav Adov,Raw,SBD,M,1987,Bulgaria,92.25,275,280,285,285,200,-205,-205,200,300,307.5,315,315,800,93,Open
2,Jakub Sedláček,Raw,SBD,M,1988,Czechia,90.45,275,290,-300.5,290,207.5,215,220,220,250,275,287.5,287.5,797.5,93,Open
3,Ali Ben Hadj Ali,Raw,SBD,M,1989,France,92.2,250,265,280,280,160,170,175,175,320,335,-347.5,335,790,93,Open
4,Viacheslav Shutenko,Raw,SBD,M,1986,Ukraine,92.75,-275,275,287.5,287.5,150,160,-162.5,160,300,320,-345,320,767.5,93,Open
5,Emil Johansson,Raw,SBD,M,1986,Sweden,91.55,230,250,-257.5,250,180,192.5,197.5,197.5,280,300,-320,300,747.5,93,Open
6,Mats Smulter,Raw,SBD,M,1985,Finland,92.45,255,270,275,275,167.5,172.5,-175,172.5,270,290,-300,290,737.5,93,Open
7,Lauris Danilevic,Raw,SBD,M,1980,Latvia,88.25,265,275,-280,275,160,165,-170,165,295,-302.5,-310,295,735,93,Open
8,Fabrizio Posca,Raw,SBD,M,1991,Italy,92.05,245,260,-270,260,162.5,170,-175,170,280,305,-310,305,735,93,Open
9,Pierre Shillingford,Raw,SBD,M,1988,UK,91.85,-232.5,232.5,-245,232.5,160,170,-177.5,170,280,292.5,302.5,302.5,705,93,Open
10,Siim Sammalkivi,Raw,SBD,M,1987,Estonia,90.75,240,255,-262.5,255,160,170,-177.5,170,260,270,-280,270,695,93,Open
11,Giuseppe Manca,Raw,SBD,M,1990,Italy,88.65,235,255,270,270,145,157.5,-170,157.5,235,255,262.5,262.5,690,93,Open
12,Peter Horvath,Raw,SBD,M,1991,Hungary,91.4,-240,240,-255,240,160,-167.5,170,170,262.5,275,-290,275,685,93,Open
13,Nicki Lentz Nielsen,Raw,SBD,M,1992,Denmark,90.8,-250,250,265,265,150,160,-165,160,240,-250,250,250,675,93,Open
14,Dogan Tekin,Raw,SBD,M,1984,Netherlands,90.35,235,250,257.5,257.5,135,-140,-140,135,262.5,270,-282.5,270,662.5,93,Open
15,Erik Koszas,Raw,SBD,M,1990,Hungary,91.35,215,225,230,230,150,160,167.5,167.5,245,-265,-272.5,245,642.5,93,Open
DQ,Margus Silbaum,Raw,SBD,M,1976,Estonia,92.45,-255,-262.5,-270,,-165,-172.5,-172.5,,-310,-322.5,-337.5,,,93,Open
1,Alex-Edward Raus,Raw,SBD,M,1992,Estonia,101.85,300,312.5,320,320,190,197.5,202.5,202.5,290,300,307.5,307.5,830,105,Open
2,Marcin Golen,Raw,SBD,M,1983,Poland,103.85,265,275,-285,275,180,187.5,-190,187.5,310,322.5,330,330,792.5,105,Open
3,Mateusz Grzesik,Raw,SBD,M,1989,Poland,104.3,260,270,280,280,190,195,-197.5,195,300,310,317.5,317.5,792.5,105,Open
4,Markus Suomela,Raw,SBD,M,1992,Finland,104.7,240,255,-262.5,255,165,172.5,180,180,300,328,345,345,780,105,Open
5,Adam Loutonen,Raw,SBD,M,1986,Sweden,103.85,-260,260,270,270,190,200,205,205,275,285,292.5,292.5,767.5,105,Open
6,Mikael Gullander,Raw,SBD,M,1983,Sweden,104.2,260,272.5,277.5,277.5,170,180,-187.5,180,-302.5,302.5,310,310,767.5,105,Open
7,Francesco Virzi,Raw,SBD,M,1983,Germany,102.75,270,280,285,285,190,-200,-200,190,270,290,-295,290,765,105,Open
8,Sami Pullinen,Raw,SBD,M,1983,Finland,104.75,225,237.5,-245,237.5,205,-222,222,222,200,230,302.5,302.5,762,105,Open
9,Archili Shasurashvili,Raw,SBD,M,1989,Georgia,104,280,-290,290,290,180,-200,-200,180,260,280,-305,280,750,105,Open
10,Rene Brunner,Raw,SBD,M,1976,Austria,102.25,270,282.5,285,285,180,185,190,190,260,270,-275,270,745,105,Open
11,Arturs Paikis,Raw,SBD,M,1990,Latvia,104.35,240,250,-255,250,160,-165,-165,160,280,290,-300,290,700,105,Open
12,Christian Klotz,Raw,SBD,M,1977,Austria,97.8,215,222.5,230,230,200,-207.5,-207.5,200,240,255,260,260,690,105,Open
13,Balazs Dr Budai,Raw,SBD,M,1979,Hungary,99,180,-190,190,190,130,140,145,145,220,232.5,-240,232.5,567.5,105,Open
DQ,Marko Mumm,Raw,SBD,M,1988,Estonia,103.3,245,255,-260,255,190,-197.5,-197.5,190,-255,,,,,105,Open
1,Viktor Marynenko,Raw,SBD,M,1987,Ukraine,118.35,300,315,320,320,195,200,-202.5,200,322.5,342.5,350,350,870,120,Open
2,Māris Juzups,Raw,SBD,M,1988,Latvia,119.25,290,310,320,320,222.5,-230,-230,222.5,280,295,305,305,847.5,120,Open
3,Pavol Demčák,Raw,SBD,M,1977,Czechia,119.5,265,275,-287.5,275,215,220,-225,220,265,280,295,295,790,120,Open
4,Marek Vahi,Raw,SBD,M,1977,Estonia,116.75,-282.5,-282.5,282.5,282.5,195,-200,-200,195,300,310,-317.5,310,787.5,120,Open
5,Michael Schrems,Raw,SBD,M,1984,Austria,118.6,265,280,-285,280,205,212.5,215,215,-280,280,-295,280,775,120,Open
6,Elar Kraav,Raw,SBD,M,1987,Estonia,115,-250,255,265,265,195,200,-205,200,290,305,-327.5,305,770,120,Open
7,Saulius Skikas,Raw,SBD,M,1988,Lithuania,112,237.5,247.5,252.5,252.5,180,190,195,195,262.5,272.5,275,275,722.5,120,Open
8,Giovanpaolo Sandalini,Raw,SBD,M,1979,Italy,113.3,215,230,240,240,142.5,150,-155,150,285,-302.5,,285,675,120,Open
9,Alexander Pürzel,Raw,SBD,M,1983,Austria,118.05,175,,,175,150,,,150,320,327.5,-342.5,327.5,652.5,120,Open
DD,Ivaylo Hristov,Raw,SBD,M,1979,Bulgaria,119.6,-315,-330,-343,,-205,-212.5,,,-330,-350,-363,,,120,Open
1,Martins Kruze,Raw,SBD,M,1988,Latvia,157.3,365,380,390.5,390.5,215,225,230,230,320,330,340,340,960.5,120+,Open
2,Siim Rast,Raw,SBD,M,1988,Estonia,183.35,327.5,337.5,342.5,342.5,220,225,-230,225,322.5,330,-345,330,897.5,120+,Open
3,Martin Borgland Rønning,Raw,SBD,M,1984,Norway,165,315,325,-332.5,325,237.5,245,-250,245,300,320,-330,320,890,120+,Open
4,Antti Tommila,Raw,SBD,M,1989,Finland,141.95,290,-305,-305,290,-215,215,220,220,300,320,-325,320,830,120+,Open
5,Steve Ringoot,Raw,SBD,M,1989,Belgium,136.65,290,307.5,312.5,312.5,190,200,-207.5,200,300,315,-322.5,315,827.5,120+,Open
6,Christophe Rebreyend,Raw,SBD,M,1988,Netherlands,151.9,290,300,307.5,307.5,180,187.5,-190,187.5,320,332.5,-342.5,332.5,827.5,120+,Open
7,Tadas Gecas,Raw,SBD,M,1977,Lithuania,128.7,260,270,280,280,185,195,200,200,310,-325,-325,310,790,120+,Open
8,Dzmitry Dorakhau,Raw,SBD,M,1990,Belarus,146.75,285,-295,-295,285,205,-212.5,-212.5,205,280,292.5,-302.5,292.5,782.5,120+,Open
1,Egidijus Valčiukas,Raw,SBD,M,1998,Lithuania,52.3,-180,180,190.5,190.5,110,115.5,120,120,130,140,-145,140,450.5,53,Sub-Juniors
2,Vadym Gutnik,Raw,SBD,M,1999,Ukraine,52.85,115,125,130,130,75,82.5,87.5,87.5,155,170,-177.5,170,387.5,53,Sub-Juniors
3,Dovydas Dargevicius,Raw,SBD,M,1998,Lithuania,51.7,100,110,112.5,112.5,65,-70,-70,65,130,140,-147.5,140,317.5,53,Sub-Juniors
4,Albert Stankevich,Raw,SBD,M,2002,Belarus,50.35,100,105,-110,105,50,55,-57.5,55,100,-107.5,-107.5,100,260,53,Sub-Juniors
1,Artsiom Savelyeu,Raw,SBD,M,1998,Belarus,57.45,175,185,-193,185,90,95,100,100,187.5,198,200,200,485,59,Sub-Juniors
2,Michal Anuszek,Raw,SBD,M,1998,Poland,57.55,150,160,165,165,85,90,92.5,92.5,160,170,175,175,432.5,59,Sub-Juniors
3,Pawel Wiacek,Raw,SBD,M,2000,Poland,58.3,130,142.5,150,150,70,75,77.5,77.5,135,147.5,155,155,382.5,59,Sub-Juniors
4,Jere Kirkanen,Raw,SBD,M,2000,Finland,57.45,127.5,135,140,140,72.5,77.5,80,80,140,150,-162.5,150,370,59,Sub-Juniors
5,Kanstantsin Shabunevich,Raw,SBD,M,2001,Belarus,57.7,125,135,-145,135,70,75,-80,75,150,160,-172.5,160,370,59,Sub-Juniors
6,Luis Corbo,Raw,SBD,M,2000,UK,56.45,90,-100,-100,90,50,52.5,-55,52.5,125,130,132.5,132.5,275,59,Sub-Juniors
1,Ruslan Ruzimuradov,Raw,SBD,M,1998,Ukraine,64.95,-152.5,152.5,-165,152.5,135,142.5,-147.5,142.5,192.5,-200,205,205,500,66,Sub-Juniors
2,Edgars Jurkans,Raw,SBD,M,1998,Latvia,65.25,152.5,160,167.5,167.5,110,117.5,125,125,190,197.5,-210,197.5,490,66,Sub-Juniors
3,Declan Zimmerman,Raw,SBD,M,1998,UK,63.6,150,157.5,-165,157.5,80,85,90,90,180,190,192.5,192.5,440,66,Sub-Juniors
4,Kermo Parn,Raw,SBD,M,1998,Estonia,64.45,135,142.5,-147.5,142.5,85,90,92.5,92.5,170,-182.5,-185,170,405,66,Sub-Juniors
5,Sander Pohjala,Raw,SBD,M,1998,Estonia,62.8,-140,-140,140,140,80,87.5,-90,87.5,150,160,-165,160,387.5,66,Sub-Juniors
1,Andreas Nilsson,Raw,SBD,M,1998,Sweden,71.35,180,190,200,200,120,-130,130,130,190,220,225,225,555,74,Sub-Juniors
2,Bartlomiej Kiersikowski,Raw,SBD,M,1998,Poland,72.45,165,175,177.5,177.5,112.5,117.5,-120,117.5,205,215,220,220,515,74,Sub-Juniors
3,Michal Skonieczny,Raw,SBD,M,1998,Poland,69.3,160,165,167.5,167.5,120,125,-127.5,125,200,210,217.5,217.5,510,74,Sub-Juniors
4,Adam Paczuk,Raw,SBD,M,1998,Hungary,68.25,150,160,-170,160,105,110,-117.5,110,170,180,195,195,465,74,Sub-Juniors
5,Yury Shakun,Raw,SBD,M,2000,Belarus,71.55,155,-165,-165,155,97.5,102.5,105,105,192.5,200,-212.5,200,460,74,Sub-Juniors
6,Mark Kihu,Raw,SBD,M,2000,Estonia,72.75,140,150,-155,150,72.5,77.5,-80,77.5,-185,187.5,-200,187.5,415,74,Sub-Juniors
1,Patryk Zaniewski,Raw,SBD,M,1998,Poland,82,217.5,222.5,227.5,227.5,142.5,-147.5,147.5,147.5,215,225,230,230,605,83,Sub-Juniors
2,Andriy Bilyk,Raw,SBD,M,1998,Ukraine,80.95,200,-205,-205,200,140,147.5,150,150,202.5,210,225,225,575,83,Sub-Juniors
3,Eric Kulaviir Andri,Raw,SBD,M,1998,Estonia,82.45,220,225,-230.5,225,-125,130,135,135,215,-225,-227.5,215,575,83,Sub-Juniors
4,Kilian Hellenstainer,Raw,SBD,M,1998,Austria,82.1,202.5,215,217.5,217.5,102.5,112.5,117.5,117.5,200,210,-220,210,545,83,Sub-Juniors
5,Vladislavs Groms,Raw,SBD,M,1998,Latvia,81.15,-185,185,-192.5,185,117.5,125,-127.5,125,200,210,215,215,525,83,Sub-Juniors
6,Tautvydas Sutkus,Raw,SBD,M,1998,Lithuania,81.8,160,170,-185,170,115,122.5,-125,122.5,200,215,227.5,227.5,520,83,Sub-Juniors
7,Riku Kangasniemi,Raw,SBD,M,1998,Finland,79.85,180,190,-200,190,85,95,-102.5,95,180,190,200,200,485,83,Sub-Juniors
1,Wojciech Grupiński,Raw,SBD,M,1999,Poland,92.6,200,210,215,215,120,130,-132.5,130,230,240,245,245,590,93,Sub-Juniors
2,Sebastian Kolasa,Raw,SBD,M,1998,Poland,87.3,200,210,215,215,127.5,132.5,-137.5,132.5,225,235,240,240,587.5,93,Sub-Juniors
3,Guillermo Martínez González,Raw,SBD,M,1998,Spain,86.2,170,180,185,185,-140,140,150,150,210,220,222.5,222.5,557.5,93,Sub-Juniors
4,Antons Putnis,Raw,SBD,M,2000,Latvia,86.85,190,202.5,-210,202.5,130,135,140,140,190,200,215,215,557.5,93,Sub-Juniors
5,Mihaly Szimcsina,Raw,SBD,M,1999,Hungary,91.4,170,177.5,182.5,182.5,90,97.5,-105,97.5,227.5,-232.5,,227.5,507.5,93,Sub-Juniors
DQ,Farris Collins,Raw,SBD,M,1998,UK,89.5,195,-207.5,-207.5,195,127.5,132.5,-137.5,132.5,-217.5,-217.5,-217.5,,,93,Sub-Juniors
1,Uladzislau Papelski,Raw,SBD,M,1999,Belarus,99.75,200,210,217.5,217.5,145,157.5,167.5,167.5,240,255,270,270,655,105,Sub-Juniors
2,Yuri Karoglanyan,Raw,SBD,M,1999,Armenia,98.85,-205,-205,210,210,150,157.5,167.5,167.5,200,215,222.5,222.5,600,105,Sub-Juniors
3,Charlie Bolton,Raw,SBD,M,1998,UK,102.4,200,210,215,215,110,117.5,122.5,122.5,210,225,240,240,577.5,105,Sub-Juniors
4,Reinis Kaudzitis,Raw,SBD,M,1998,Latvia,97.95,170,180,-190,180,-150,150,157.5,157.5,200,215,-225,215,552.5,105,Sub-Juniors
1,Jack Johnson,Raw,SBD,M,1998,UK,118.5,210,-222.5,222.5,222.5,167.5,177.5,185,185,230,250,270,270,677.5,120,Sub-Juniors
2,Andrzej Wozniak,Raw,SBD,M,1998,Poland,116.4,220,235,-240,235,125,130,135,135,210,220,230,230,600,120,Sub-Juniors
3,Mihkel Ruut,Raw,SBD,M,1999,Estonia,110.45,190,200,205,205,115,120,127.5,127.5,200,220,-230,220,552.5,120,Sub-Juniors
4,Marco Lang,Raw,SBD,M,1998,Austria,105.35,180,190,-202.5,190,95,100,-105,100,200,215,-222.5,215,505,120,Sub-Juniors
5,Ross Cartwright,Raw,SBD,M,1998,UK,110.2,180,192.5,-200,192.5,110,120,-125,120,-160,160,172.5,172.5,485,120,Sub-Juniors
1,Martin Tretyn,Raw,SBD,M,1999,Poland,135.15,165,175,-180,175,135,145,-150,145,-185,185,210,210,530,120+,Sub-Juniors
2,Ihor Orobets,Raw,SBD,M,2000,Ukraine,120.15,120,130,140,140,100,107.5,110,110,115,127.5,-135,127.5,377.5,120+,Sub-Juniors
1,Vladyslav Yermishyn,Raw,SBD,M,1994,Ukraine,58.05,152.5,162.5,-167.5,162.5,115,122.5,127.5,127.5,192.5,200,-222.5,200,490,59,Juniors
2,Sergey Chizhikov,Raw,SBD,M,1997,Russia,58.55,180,190,-195,190,97.5,102.5,-105,102.5,190,-197.5,-200,190,482.5,59,Juniors
3,Jason Nativel,Raw,SBD,M,1995,France,58.15,155,162.5,167.5,167.5,120,125,-130,125,175,-182.5,-182.5,175,467.5,59,Juniors
DQ,Kevin Rodríguez Ríos,Raw,SBD,M,1993,Spain,59,-160,-160,-160,,85,-95,-95,85,180,185,-202.5,185,,59,Juniors
1,Eddie Berglund,Raw,SBD,M,1995,Sweden,63.5,200,-207.5,207.5,207.5,172.5,180,185.5,185.5,200,205,-210,205,598,66,Juniors
2,Matti Christensen,Raw,SBD,M,1995,Denmark,65.95,200,-207.5,-207.5,200,165,170,172.5,172.5,207.5,212.5,217.5,217.5,590,66,Juniors
3,Frédéric Mannequin,Raw,SBD,M,1994,France,65.1,195,202.5,207.5,207.5,125,130,135,135,215,225,230,230,572.5,66,Juniors
4,Volodymyr Fedchenko,Raw,SBD,M,1993,Ukraine,65.35,175,182.5,-187.5,182.5,125,130,135,135,235,242.5,-255.5,242.5,560,66,Juniors
5,Pawel Mazij,Raw,SBD,M,1994,Poland,65.55,170,180,185,185,135,140,-142.5,140,205,215,227.5,227.5,552.5,66,Juniors
6,Jordan Lam,Raw,SBD,M,1993,UK,65.2,175,-185,185,185,120,-125,125,125,215,225,232.5,232.5,542.5,66,Juniors
7,Roberto Baquedano Briones,Raw,SBD,M,1993,Spain,65.2,180,182.5,-192.5,182.5,117.5,122.5,-127.5,122.5,205,217.5,225,225,530,66,Juniors
8,Siim Jurgenstein,Raw,SBD,M,1993,Estonia,65.15,170,-180,182.5,182.5,120,127.5,-130,127.5,200,210,217.5,217.5,527.5,66,Juniors
9,Nate Wiesendancer Shaw,Raw,SBD,M,1993,UK,65.05,175,185,-190,185,105,110,112.5,112.5,212.5,222.5,-232.5,222.5,520,66,Juniors
10,Ivo Liepins,Raw,SBD,M,1993,Latvia,64.9,140,160,165,165,95,-100,100,100,225,235,-243,235,500,66,Juniors
11,Ilkka Ala-Luopa,Raw,SBD,M,1993,Finland,65,175,-180,180,180,110,115,-117.5,115,-200,200,-210,200,495,66,Juniors
12,Ivars Maurins,Raw,SBD,M,1993,Latvia,64.75,160,167.5,175,175,100,107.5,-112.5,107.5,185,197.5,210,210,492.5,66,Juniors
13,Yauheni Prakapuk,Raw,SBD,M,1994,Belarus,65.7,130,140,-150,140,140,145,-150,145,170,185,200,200,485,66,Juniors
14,Marius Lemming,Raw,SBD,M,1995,Estonia,64.15,80,,,80,80,,,80,80,,,80,240,66,Juniors
1,Bastien Poyet,Raw,SBD,M,1995,France,71.05,210,217.5,-222.5,217.5,180.5,-185,185,185,225,-240,240,240,642.5,74,Juniors
2,Salman Khan,Raw,SBD,M,1995,UK,73.65,202.5,-212.5,212.5,212.5,137.5,142.5,147.5,147.5,255,265,-270.5,265,625,74,Juniors
3,Vichet Duong,Raw,SBD,M,1993,France,72.95,215,230,-237.5,230,130,140,150,150,215,230,240,240,620,74,Juniors
4,Daniel Ilczyszyn,Raw,SBD,M,1994,Poland,73.45,195,205,210,210,140,-150,-150,140,240,250,-271,250,600,74,Juniors
5,Adil Khan,Raw,SBD,M,1993,UK,72.95,190,202.5,207.5,207.5,137.5,142.5,-145,142.5,235,245,-252.5,245,595,74,Juniors
6,Paulius Pupinis,Raw,SBD,M,1994,Lithuania,72.65,200,207.5,-212.5,207.5,140,-145,-145,140,230,245,-252.5,245,592.5,74,Juniors
7,Urban Mur,Raw,SBD,M,1993,Slovenia,73,202.5,210,-217.5,210,127.5,135,-140,135,217.5,232.5,-240,232.5,577.5,74,Juniors
8,Jan More,Raw,SBD,M,1993,Czechia,69.95,175,185,-192.5,185,120,127.5,-132.5,127.5,220,235,240,240,552.5,74,Juniors
9,Ladislav Přibilík,Raw,SBD,M,1993,Czechia,73.95,187.5,197.5,-205,197.5,115,120,125,125,230,-240,-240,230,552.5,74,Juniors
10,Jaakko Raudaskoski,Raw,SBD,M,1994,Finland,72.5,-175,185,192.5,192.5,115,-122.5,122.5,122.5,215,232.5,-245,232.5,547.5,74,Juniors
11,Jesper Jacobsen,Raw,SBD,M,1995,Denmark,73.55,192.5,197.5,-202.5,197.5,122.5,127.5,130,130,207.5,215,-220,215,542.5,74,Juniors
12,Martin Hofseth Ole,Raw,SBD,M,1993,Norway,71.8,185,192.5,195,195,135,140,-142.5,140,185,195,-200,195,530,74,Juniors
13,Hannu Surakka,Raw,SBD,M,1994,Finland,70.2,170,177.5,-185,177.5,132.5,-135,-135,132.5,200,210,-220,210,520,74,Juniors
14,Albertas Motiecius,Raw,SBD,M,1994,Lithuania,72.15,160,-175,-180,160,142.5,147.5,-150,147.5,170,185,195,195,502.5,74,Juniors
15,Marvin Ziegler,Raw,SBD,M,1993,Austria,72.25,170,172.5,-180,172.5,115,-120,-120,115,190,-200,-200,190,477.5,74,Juniors
16,Agris Reppo,Raw,SBD,M,1996,Estonia,72.85,130,-140,140,140,110,117.5,-122.5,117.5,180,195,210,210,467.5,74,Juniors
17,Michael Valk Karl,Raw,SBD,M,1994,Estonia,72.4,-155,155,-165,155,-110,110,-115,110,180,190,200,200,465,74,Juniors
1,Daniel Worsley,Raw,SBD,M,1993,UK,80.95,220,230,235,235,150,155,157.5,157.5,270,280,285,285,677.5,83,Juniors
2,Martin Engquist,Raw,SBD,M,1996,Sweden,82.45,235,240,245,245,130,137.5,142.5,142.5,272.5,-288,-290.5,272.5,660,83,Juniors
3,Stanislav Zdrobylko,Raw,SBD,M,1995,Ukraine,82.2,225,232.5,237.5,237.5,165,170,-172.5,170,235,240,245,245,652.5,83,Juniors
4,Teemu Hällfors,Raw,SBD,M,1995,Finland,80.9,-220,222.5,-232.5,222.5,167.5,175,180,180,222.5,235,245,245,647.5,83,Juniors
5,Radomil Vašík,Raw,SBD,M,1994,Czechia,81.9,-230,230,235,235,135,137.5,-140,137.5,252.5,260,267.5,267.5,640,83,Juniors
6,Joey Ma,Raw,SBD,M,1993,Netherlands,81.35,205,-220,220,220,132.5,140,-142.5,140,250,265,267.5,267.5,627.5,83,Juniors
7,Kostiantyn Musiienko,Raw,SBD,M,1997,Ukraine,82,200,212.5,-220,212.5,160,170,-172.5,170,237.5,245,-252.5,245,627.5,83,Juniors
8,Fredrik Vaage Hovland,Raw,SBD,M,1993,Norway,83,200,210,215,215,132.5,140,,140,240,255,265,265,620,83,Juniors
9,Christian Horn,Raw,SBD,M,1993,Germany,82.55,210,220,230,230,120,127.5,-130,127.5,242.5,255,-265,255,612.5,83,Juniors
10,Arpad Szabo,Raw,SBD,M,1993,Hungary,82,210,-215,,210,125,130,135,135,240,-255,-267.5,240,585,83,Juniors
11,Rainar Metsalu,Raw,SBD,M,1994,Estonia,82.55,155,-165,-165,155,-125,125,-130,125,190,205,-222.5,205,485,83,Juniors
1,Mateusz Czechyra,Raw,SBD,M,1993,Poland,91.5,250,260,-267.5,260,160,167.5,-170,167.5,270,290,-300,290,717.5,93,Juniors
2,Jarkko Perttula,Raw,SBD,M,1993,Finland,92.95,-255,260,-265,260,152.5,160,162.5,162.5,265,275,282.5,282.5,705,93,Juniors
3,Rocco Grillo,Raw,SBD,M,1994,Italy,90.9,235,247.5,260,260,155,162.5,-165,162.5,250,270,277.5,277.5,700,93,Juniors
4,Ronalds Kiploks Uldis,Raw,SBD,M,1997,Latvia,92.45,240,252.5,-260,252.5,145,150,152.5,152.5,280,295,-300,295,700,93,Juniors
5,David Kulcsar,Raw,SBD,M,1996,Hungary,86.6,-235,240,247.5,247.5,160,-167.5,-167.5,160,280,290,-302.5,290,697.5,93,Juniors
6,Maxim Schutan,Raw,SBD,M,1994,Germany,91.85,240,252.5,260,260,167.5,-172.5,-172.5,167.5,-245,-245,245,245,672.5,93,Juniors
7,Olli Lehti,Raw,SBD,M,1994,Finland,91.95,240,252.5,260,260,140,147.5,-152.5,147.5,250,-260,260,260,667.5,93,Juniors
8,Kristo Krolov,Raw,SBD,M,1995,Estonia,92,-220,225,232.5,232.5,162.5,-170,-170,162.5,240,247.5,265,265,660,93,Juniors
9,Vito Minheere,Raw,SBD,M,1993,Netherlands,91.75,222.5,-232.5,-232.5,222.5,130,-135,-135,130,280,295,302.5,302.5,655,93,Juniors
10,Tarald Knudsen Oevrebo,Raw,SBD,M,1995,Norway,91,225,240,-252.5,240,142.5,150,-152.5,150,230,250,-265,250,640,93,Juniors
11,Vadym Bilyk,Raw,SBD,M,1994,Ukraine,90.35,220,230,-237.5,230,155,160,-167.5,160,235,247.5,-255,247.5,637.5,93,Juniors
DQ,Antonio Vuković,Raw,SBD,M,1995,Croatia,91.25,-250,-250,-250,,-125,-125,-125,,230,260,-275,260,,93,Juniors
1,Daniel Saber,Raw,SBD,M,1997,Sweden,101.65,260,270,277.5,277.5,165,172.5,-180,172.5,280,-295,295,295,745,105,Juniors
2,Alexander Vermetten,Raw,SBD,M,1994,Netherlands,98.3,225,232.5,-237.5,232.5,160,170,-175,170,310,320,-328.5,320,722.5,105,Juniors
3,Sergii Kovalenko,Raw,SBD,M,1994,Ukraine,104.45,255,-265,-265,255,160,167.5,175,175,275,285,290,290,720,105,Juniors
4,Marks Riekstins,Raw,SBD,M,1993,Latvia,100.4,245,255,-262.5,255,185,190,192.5,192.5,260,270,-275,270,717.5,105,Juniors
5,Adam Porteš,Raw,SBD,M,1995,Czechia,101.35,240,-250,250,250,150,-160,-162.5,150,285,300,307.5,307.5,707.5,105,Juniors
6,Gergo Opra,Raw,SBD,M,1994,Hungary,100.1,235,245,250,250,175,-180,-180,175,-275,-275,280,280,705,105,Juniors
7,Charlie Wade,Raw,SBD,M,1993,UK,101.95,240,252.5,-265,252.5,160,165,170,170,260,-275,275,275,697.5,105,Juniors
8,Jokubas Stasiulis,Raw,SBD,M,1995,Lithuania,100.45,225,235,-240,235,182.5,187.5,-192.5,187.5,255,272.5,-297.5,272.5,695,105,Juniors
9,Gilbertas Tamulevicius,Raw,SBD,M,1996,Lithuania,104,245,255,265,265,165,-172.5,-172.5,165,260,-272.5,-290,260,690,105,Juniors
10,Antti Kemppainen,Raw,SBD,M,1994,Finland,103.8,230,240,247.5,247.5,155,-165,165,165,250,262.5,-270,262.5,675,105,Juniors
11,Siim Salin,Raw,SBD,M,1995,Estonia,97,225,235,-242.5,235,140,145,150,150,252.5,262.5,270,270,655,105,Juniors
DQ,Balazs Feher,Raw,SBD,M,1995,Hungary,100.15,230,237.5,-242.5,237.5,-180,-180,-180,,280,-290,-292.5,280,,105,Juniors
1,Piotr Sadowski,Raw,SBD,M,1993,Poland,118.85,-320.5,320.5,-340,320.5,200,207.5,-212.5,207.5,300,-315,-315,300,828,120,Juniors
2,Mark Macqueen,Raw,SBD,M,1994,UK,118.75,-290,290,310,310,165,175,-182.5,175,300,310,-315,310,795,120,Juniors
3,Nedas Rindeikis,Raw,SBD,M,1994,Lithuania,119.5,200,215,227.5,227.5,115,122.5,-130,122.5,215,225,235,235,585,120,Juniors
4,Aivar Siska,Raw,SBD,M,1997,Estonia,107.2,180,200,-207.5,200,120,-130,-130,120,230,245,-265,245,565,120,Juniors
1,Jordan McLaughlin,Raw,SBD,M,1993,UK,132.75,300,312.5,-317.5,312.5,210,-220,-220,210,280,295,-300,295,817.5,120+,Juniors
2,Mehmet Kaya,Raw,SBD,M,1996,Sweden,120.5,295,-315,315,315,170,180,185,185,300,310,-317.5,310,810,120+,Juniors
3,Egor Rezepov,Raw,SBD,M,1995,Russia,137.5,250,265,272.5,272.5,170,177.5,182.5,182.5,300,312.5,320,320,775,120+,Juniors
1,Hanna Rantala,Raw,SBD,F,1982,Finland,46.5,105,-110,110,110,87.5,92,-93,92,127.5,135,140,140,342,47,Open
2,Marina Lopatnikova,Raw,SBD,F,1983,Russia,46.95,110,115,117.5,117.5,67.5,-70,70,70,120,130,137.5,137.5,325,47,Open
3,Stéphanie Legard,Raw,SBD,F,1981,France,46,107.5,112.5,117.5,117.5,60,65,67.5,67.5,120,127.5,132.5,132.5,317.5,47,Open
4,Sophia Waldemarson,Raw,SBD,F,1988,Sweden,46.55,-97.5,-97.5,97.5,97.5,62.5,67.5,72.5,72.5,127.5,132.5,-137.5,132.5,302.5,47,Open
5,Rebecca Heath,Raw,SBD,F,1977,UK,45.25,95,100,105,105,60,62.5,65,65,107.5,117.5,-120,117.5,287.5,47,Open
6,Alexandra Churkina,Raw,SBD,F,1992,Russia,46.9,97.5,102.5,-105,102.5,55,60,-62.5,60,115,125,-135,125,287.5,47,Open
7,Natallia Yakimuk,Raw,SBD,F,1990,Belarus,45.4,100,-107.5,-107.5,100,50,52.5,-55,52.5,125,130,-135,130,282.5,47,Open
8,Larisa Cirule,Raw,SBD,F,1982,Latvia,46.4,67.5,-72.5,-72.5,67.5,40,45,47.5,47.5,95,100,-102.5,100,215,47,Open
1,Sofia Loft,Raw,SBD,F,1990,Sweden,51.65,140,148,-152,148,85,90,92.5,92.5,160,170,-172.5,170,410.5,52,Open
2,Joy Nnamani,Raw,SBD,F,1992,UK,50,130,-135,-135,130,60,65,67.5,67.5,165,175.5,180,180,377.5,52,Open
3,Magdolna Petróczki,Raw,SBD,F,1968,Hungary,51.3,130,-135,-135,130,75,-80,-80,75,150,157.5,160,160,365,52,Open
4,Daria Kuzmina,Raw,SBD,F,1992,Ukraine,51.7,105,112.5,120,120,65,70,75,75,145,-152.5,-162.5,145,340,52,Open
5,Marcela Sandvik,Raw,SBD,F,1974,Finland,51.3,102.5,107.5,-110,107.5,80,82.5,85,85,130,135,137.5,137.5,330,52,Open
6,Johanna Forsström,Raw,SBD,F,1988,Finland,51.05,-100,100,-105,100,70,75,-77.5,75,-140,140,-152.5,140,315,52,Open
DQ,Emma Goodwin,Raw,SBD,F,1987,UK,50.75,-107.5,-107.5,-107.5,,62.5,-67.5,-67.5,62.5,150,157.5,160,160,,52,Open
DQ,Liisi Kreen,Raw,SBD,F,1987,Estonia,51.9,-110,-110,-110,,62.5,67.5,-70,67.5,135,-147.5,-147.5,135,,52,Open
1,Elena Shcherbakova,Raw,SBD,F,1985,Russia,55.45,130,135,137.5,137.5,80,85,90,90,155,162.5,-165,162.5,390,57,Open
2,Landish Gavina,Raw,SBD,F,1980,Russia,56.8,125,132.5,-137.5,132.5,87.5,92.5,95,95,155,-160,160,160,387.5,57,Open
3,Daiva Zaroviene,Raw,SBD,F,1965,Lithuania,55.95,105,112.5,117.5,117.5,100,-103,-103,100,145,155,-170,155,372.5,57,Open
4,Louise Murray,Raw,SBD,F,1988,UK,56.7,132.5,137.5,-140,137.5,80,85,87.5,87.5,142.5,-147.5,-150,142.5,367.5,57,Open
5,Mélodie Anthouard,Raw,SBD,F,1988,France,56.45,125,132.5,137.5,137.5,90,95,-97.5,95,115,-127.5,-127.5,115,347.5,57,Open
6,Ragnheiður Kr. Sigurðardóttir,Raw,SBD,F,1981,Iceland,55.55,107.5,112.5,115,115,67.5,70,72.5,72.5,140,145,150,150,337.5,57,Open
7,Milijana De Mori,Raw,SBD,F,1984,Croatia,56.4,115,117.5,125,125,67.5,75,-80,75,125,135,-145,135,335,57,Open
8,Marjaana Vähäsantanen,Raw,SBD,F,1976,Finland,56.9,122.5,-127.5,-127.5,122.5,70,72.5,-75,72.5,132.5,-137.5,-137.5,132.5,327.5,57,Open
9,Tinna Rut Traustadóttir,Raw,SBD,F,1987,Iceland,56.15,-95,-97.5,97.5,97.5,-72.5,72.5,-75,72.5,140,145,150,150,320,57,Open
8,Marjaana Vähäsantanen,Raw,SBD,F,1976,Finland,56.9,122.5,-127.5,-127.5,122.5,70,72.5,-75,72.5,132.5,-137.5,-137.5,132.5,327.5,57,Open
9,Tinna Rut Traustadóttir,Raw,SBD,F,1987,Iceland,56.15,-95,-97.5,97.5,97.5,-72.5,72.5,-75,72.5,140,145,150,150,320,57,Open
10,Marianna Bogdanova,Raw,SBD,F,1983,Estonia,55.7,115,-122.5,-122.5,115,55,57.5,-60,57.5,127.5,-135,-135,127.5,300,57,Open
1,Jenny Adolfsson,Raw,SBD,F,1982,Sweden,62.65,145,152.5,155,155,105,110,112.5,112.5,165,175,182.5,182.5,450,63,Open
2,Ivana Horná,Raw,SBD,F,1990,Slovakia,62.2,150,155,160,160,82.5,87.5,-90,87.5,180,190,197.5,197.5,445,63,Open
3,Tamara Thomsen,Raw,SBD,F,1982,Germany,62,150,157.5,160,160,80,85,-87.5,85,160,172.5,-182.5,172.5,417.5,63,Open
4,Stina Lindell,Raw,SBD,F,1988,Finland,61.85,130,137.5,142.5,142.5,72.5,77.5,-80,77.5,170,180,-190,180,400,63,Open
5,Caroline Sune,Raw,SBD,F,1985,France,62,140,145,-150,145,75,80,-82.5,80,152.5,157.5,-162.5,157.5,382.5,63,Open
6,Kelly Paszkowski,Raw,SBD,F,1989,France,60.6,-135,135,137.5,137.5,67.5,72.5,-75,72.5,162.5,170,-177.5,170,380,63,Open
7,Tanja Stenholdt Olsen,Raw,SBD,F,1990,Denmark,60.6,125,130,135,135,67.5,72.5,75,75,150,-165,167.5,167.5,377.5,63,Open
8,Lara Lichtnecker,Raw,SBD,F,1992,Austria,61.6,127.5,-135,-135,127.5,70,75,80,80,150,162.5,-167.5,162.5,370,63,Open
9,Marlinde Gras,Raw,SBD,F,1987,Netherlands,62.35,122.5,127.5,130,130,65,-70,-70,65,150,157.5,162.5,162.5,357.5,63,Open
10,Kseniya Prokhorova,Raw,SBD,F,1983,Ukraine,62.5,125,-130,-130,125,87.5,92.5,-95,92.5,140,-147.5,-147.5,140,357.5,63,Open
11,Emilia Sobiech,Raw,SBD,F,1988,Poland,62.35,130,-135,135,135,65,70,-72.5,70,140,-150,-150,140,345,63,Open
12,Ariane Schmelzenbart,Raw,SBD,F,1990,Austria,62.1,110,-115,115,115,65,70,72.5,72.5,125,130,137.5,137.5,325,63,Open
1,Isabella von Weissenberg,Raw,SBD,F,1989,Sweden,70.95,172.5,181,187.5,187.5,90,95,97.5,97.5,170,185,195,195,480,72,Open
2,Johanna Kankus,Raw,SBD,F,1984,Finland,71,-172.5,172.5,181.5,181.5,100,-105,105,105,165,172.5,-185,172.5,459,72,Open
3,Ankie Timmers,Raw,SBD,F,1986,Netherlands,71.65,137.5,145,-150,145,95,100,102.5,102.5,170,182.5,195,195,442.5,72,Open
4,Sara Mazzantini,Raw,SBD,F,1990,Italy,69.8,130,140,150,150,90,95,100,100,170,180,190,190,440,72,Open
5,Maria Volkova,Raw,SBD,F,1972,Russia,70.5,-152.5,-152.5,152.5,152.5,100,105,107.5,107.5,150,160,-172.5,160,420,72,Open
6,Annette Pedersen,Raw,SBD,F,1968,Denmark,70.95,-120,-120,120,120,97.5,102.5,-105,102.5,180,190,-197.5,190,412.5,72,Open
7,Louise Richardson,Raw,SBD,F,1977,UK,70.35,147.5,155,160,160,70,75,-80,75,160,170,-177.5,170,405,72,Open
8,Soledad Campostrini,Raw,SBD,F,1987,Italy,67.3,120,130,135,135,92.5,97.5,105,105,140,152.5,160,160,400,72,Open
9,Blagovesta Ivanova,Raw,SBD,F,1987,Bulgaria,71.25,140,150,-155,150,70,77.5,82.5,82.5,155,167.5,-182.5,167.5,400,72,Open
10,Liisi Himma,Raw,SBD,F,1986,Estonia,71.25,112.5,120,122.5,122.5,65,70,72.5,72.5,160,170,175,175,370,72,Open
11,Birgit Rós Becker,Raw,SBD,F,1989,Iceland,70.7,-147.5,147.5,-155,147.5,70,-75,,70,145,150,-155,150,367.5,72,Open
12,Gwen Mostert,Raw,SBD,F,1985,Netherlands,69.6,115,-120,120,120,80,82.5,-85,82.5,145,152.5,160,160,362.5,72,Open
1,Ielja Strik,Raw,SBD,F,1973,Netherlands,83.65,-185,185,-195,185,130,136.5,-140.5,136.5,180,185,190,190,511.5,84,Open
2,Sniazhana Zubko,Raw,SBD,F,1991,Belarus,79.65,180,187.5,195,195,90,92.5,95,95,190,200,210,210,500,84,Open
3,Clara Fridén,Raw,SBD,F,1992,Sweden,82.1,150,160,162.5,162.5,100,105,107.5,107.5,172.5,185,190,190,460,84,Open
4,Kamila Kasperska,Raw,SBD,F,1992,Poland,82.4,170,-175,-175,170,77.5,-82.5,-82.5,77.5,170,-175,-175,170,417.5,84,Open
5,Ievina Ligere,Raw,SBD,F,1981,Latvia,72.7,130,137.5,142.5,142.5,80,85,87.5,87.5,160,170,-177.5,170,400,84,Open
6,Eliise Peterson,Raw,SBD,F,1992,Estonia,83.25,145,-152.5,-152.5,145,75,80,-85,80,150,160,170,170,395,84,Open
7,Karoliina Kase,Raw,SBD,F,1992,Estonia,82.9,130,140,-150,140,67.5,72.5,-75,72.5,162.5,172.5,-185,172.5,385,84,Open
1,Emelie Pettersson,Raw,SBD,F,1980,Sweden,110.85,200,-210,210,210,120,125,-130,125,200,210,-217.5,210,545,84+,Open
2,Ágnes Szabó,Raw,SBD,F,1988,Hungary,111.55,185,192.5,197.5,197.5,135,142.5,-145,142.5,175,185,-190,185,525,84+,Open
3,Camille Holland,Raw,SBD,F,1988,UK,115.2,165,182.5,200,200,90,100,107.5,107.5,165,182.5,-187.5,182.5,490,84+,Open
4,Anna Macnab,Raw,SBD,F,1984,UK,108.8,175,-185,185,185,82.5,87.5,-90,87.5,175,185,197.5,197.5,470,84+,Open
5,Zuzana Bitterová,Raw,SBD,F,1984,Czechia,110.9,125,135,-142.5,135,70,-80,80,80,125,135,-145,135,350,84+,Open
1,Alina Chashchyna,Raw,SBD,F,2001,Belarus,42.35,85,92.5,-95,92.5,45,-47.5,-47.5,45,90,-105,105,105,242.5,43,Sub-Juniors
2,Anhelina Kyiakh,Raw,SBD,F,2002,Ukraine,41.8,60,65,70,70,32.5,37.5,40,40,80,87.5,-92.5,87.5,197.5,43,Sub-Juniors
3,Jamila Digankar,Raw,SBD,F,1998,UK,40.3,57.5,-62.5,-62.5,57.5,-25,25,-27.5,25,62.5,67.5,-70,67.5,150,43,Sub-Juniors
1,Tatsiana Damashyna,Raw,SBD,F,1998,Belarus,45.95,105,-110,-110,105,50,55,-60,55,110,115,120,120,280,47,Sub-Juniors
2,Fanny Lamminen,Raw,SBD,F,2002,Finland,46.25,95,100,-105.5,100,-52.5,52.5,57.5,57.5,107.5,112.5,-120,112.5,270,47,Sub-Juniors
1,Daria Lazebna,Raw,SBD,F,1998,Ukraine,51.2,112.5,117.5,120.5,120.5,72.5,77.5,-80.5,77.5,125,137.5,142.5,142.5,340.5,52,Sub-Juniors
2,Sofia Sobolevskaia,Raw,SBD,F,1998,Russia,50.3,102.5,-110,110,110,55,57.5,60,60,120,127.5,130,130,300,52,Sub-Juniors
3,Anette Kirkanen,Raw,SBD,F,2000,Finland,50.8,105,112.5,-118,112.5,70,73,-75,73,-110,110,112.5,112.5,298,52,Sub-Juniors
4,Paula Helena Kuklane,Raw,SBD,F,1999,Estonia,50.9,70,-77.5,77.5,77.5,50,-52.5,-52.5,50,100,-112.5,115,115,242.5,52,Sub-Juniors
5,Ornella Mundi,Raw,SBD,F,2000,Estonia,50.3,75,80,-82.5,80,47.5,-52.5,-52.5,47.5,90,-95,-95,90,217.5,52,Sub-Juniors
1,Heini Lipponen,Raw,SBD,F,2000,Finland,56.5,122.5,130.5,-132.5,130.5,70,72.5,75,75,120,125,127.5,127.5,333,57,Sub-Juniors
2,Dakota Reich,Raw,SBD,F,1998,Austria,55.3,85,-95,-95,85,55,60,-65,60,120,130,140,140,285,57,Sub-Juniors
3,Krystsina Shlykovich,Raw,SBD,F,1998,Belarus,55.7,-100,100,105,105,55,-60,-60,55,115,125,-132.5,125,285,57,Sub-Juniors
4,Kateryna Tkachuk,Raw,SBD,F,2000,Ukraine,56.15,92.5,100,-102.5,100,62.5,-70,-70,62.5,105,110,-117.5,110,272.5,57,Sub-Juniors
5,Veera Mäkelä,Raw,SBD,F,1998,Finland,56.15,87.5,-92.5,-92.5,87.5,50,-52.5,52.5,52.5,100,105,110,110,250,57,Sub-Juniors
6,Celine Hein,Raw,SBD,F,2000,Germany,54.65,80,85,90,90,47.5,50,52.5,52.5,90,102.5,-110,102.5,245,57,Sub-Juniors
7,Viktorija Bandziulyte,Raw,SBD,F,1998,Lithuania,56.05,60,-70,-70,60,35,40,-42.5,40,80,90,-100,90,190,57,Sub-Juniors
1,Aliaksandra Burykina,Raw,SBD,F,1999,Belarus,59.6,136,-138,-138,136,67.5,-70,70,70,140,145,147.5,147.5,353.5,63,Sub-Juniors
2,Magdalena Malcherek,Raw,SBD,F,1998,Poland,61.35,110,120,-125,120,60,62.5,-65,62.5,135,145,-154,145,327.5,63,Sub-Juniors
3,Anastasiya Derevyanko,Raw,SBD,F,1998,Russia,61.6,100,105,-110,105,70,72.5,75,75,125,135,145,145,325,63,Sub-Juniors
4,Alison Horne,Raw,SBD,F,1998,UK,59.75,90,-95,-95,90,60,-65,-65,60,130,135,142.5,142.5,292.5,63,Sub-Juniors
1,Sonja Stefanie Krüger,Raw,SBD,F,1999,Germany,63.05,122.5,130,-132.5,130,72.5,77.5,80,80,137.5,145,-150,145,355,72,Sub-Juniors
2,Alona Borshchevska,Raw,SBD,F,1999,Ukraine,69.95,117.5,125,-132.5,125,65,70,-75,70,135,142.5,147.5,147.5,342.5,72,Sub-Juniors
3,Tatjana Tokareva,Raw,SBD,F,1998,Latvia,64,107.5,110,-115,110,67.5,72.5,75,75,130,140,147.5,147.5,332.5,72,Sub-Juniors
4,Maria Konkola,Raw,SBD,F,2000,Finland,63.6,105,110,-115,110,62.5,65,-67.5,65,142.5,-150,-150,142.5,317.5,72,Sub-Juniors
5,Danielle Broom,Raw,SBD,F,1998,UK,66.15,95,102.5,110,110,47.5,50,52.5,52.5,115,122.5,130,130,292.5,72,Sub-Juniors
6,Joe-Anne Kammer,Raw,SBD,F,2000,Germany,66.4,100,110,-117.5,110,52.5,57.5,60,60,105,112.5,117.5,117.5,287.5,72,Sub-Juniors
DQ,Nana Mäkynen,Raw,SBD,F,1999,Finland,63.75,90,95,-100,95,47.5,50,52.5,52.5,-110,-110,-110,,,72,Sub-Juniors
1,Susanna Törrönen,Raw,SBD,F,1998,Finland,75.45,130,135,140,140,106.5,109,-111,109,165,170,177.5,177.5,426.5,84,Sub-Juniors
2,Henna Kaasalainen,Raw,SBD,F,1999,Finland,80.4,147.5,155,160,160,75,77.5,-80,77.5,165,170,172.5,172.5,410,84,Sub-Juniors
3,Abigail McLean,Raw,SBD,F,1998,UK,77.7,125,132.5,142.5,142.5,65,72.5,-75,72.5,170,180,-185,180,395,84,Sub-Juniors
4,Emma Pettersson,Raw,SBD,F,1998,Sweden,82.95,137.5,145,-150,145,70,75,77.5,77.5,-150,150,157.5,157.5,380,84,Sub-Juniors
5,Nikola Spica,Raw,SBD,F,2001,Poland,72.5,90,100,105,105,50,55,57.5,57.5,115,122.5,127.5,127.5,290,84,Sub-Juniors
1,Iuliia Pavlova,Raw,SBD,F,1999,Russia,90.5,90,100,-110,100,50,55,-60,55,120,130,140,140,295,84+,Sub-Juniors
1,Marina Shostachuk,Raw,SBD,F,1993,Belarus,41.65,95,100,102.5,102.5,65,70,-72.5,70,100,107.5,110,110,282.5,43,Juniors
2,Vialeta Kudrevich,Raw,SBD,F,1995,Belarus,42.55,70,80,90,90,50,55,-57.5,55,-90,90,-100,90,235,43,Juniors
1,Maria Burova,Raw,SBD,F,1995,Russia,46.2,90,95,97.5,97.5,60,62.5,65,65,110,115,-122.5,115,277.5,47,Juniors
2,Volha Yermalitskaya,Raw,SBD,F,1997,Belarus,45.5,85,87.5,-92.5,87.5,50,52.5,-55,52.5,115,120,125,125,265,47,Juniors
3,Emily Przeslak,Raw,SBD,F,1993,UK,45.7,70,77.5,82.5,82.5,45,50,-52.5,50,110,117.5,120,120,252.5,47,Juniors
1,Victoria Jeppsson,Raw,SBD,F,1993,Sweden,50.95,115,120,-122.5,120,70,-75,-75,70,150,155,-162.5,155,345,52,Juniors
2,Catherine Smith,Raw,SBD,F,1995,UK,50.85,105,112.5,117.5,117.5,52.5,57.5,60,60,150,157.5,162.5,162.5,340,52,Juniors
3,Krista Määttä,Raw,SBD,F,1995,Finland,51.15,100,105,110,110,62.5,67.5,-70,67.5,132.5,140,145,145,322.5,52,Juniors
4,Alena Malova,Raw,SBD,F,1993,Russia,51.45,100,105,110,110,62.5,67.5,-72.5,67.5,135,140,145,145,322.5,52,Juniors
5,Klaudia Rusztyn,Raw,SBD,F,1993,Poland,51.7,105,110,-112.5,110,57.5,60,-62.5,60,145,-150,-155,145,315,52,Juniors
6,Andréa Durand,Raw,SBD,F,1994,France,51.6,110,117.5,-122.5,117.5,67.5,-72.5,-72.5,67.5,125,-132.5,-135,125,310,52,Juniors
7,Hanna Seppä,Raw,SBD,F,1993,Finland,50.6,100,102.5,-107.5,102.5,-52.5,52.5,-57.5,52.5,140,145,-150,145,300,52,Juniors
8,Audrey Mingot,Raw,SBD,F,1993,France,50.65,85,92.5,-97.5,92.5,72.5,77.5,-80,77.5,110,117.5,-125,117.5,287.5,52,Juniors
1,Lena Sjøl,Raw,SBD,F,1997,Norway,56.2,130,135,-140,135,80,85,-90,85,152.5,-157.5,157.5,157.5,377.5,57,Juniors
2,Satu Sakko,Raw,SBD,F,1994,Finland,55.45,115,117.5,122.5,122.5,75,77.5,-80,77.5,155,-172.5,-177.5,155,355,57,Juniors
3,Alice Hogg,Raw,SBD,F,1994,UK,55.7,110,115,120,120,57.5,60,65,65,135,142.5,147.5,147.5,332.5,57,Juniors
4,Hanna Kliuyeva,Raw,SBD,F,1993,Belarus,56.1,110,-115,115,115,55,60,62.5,62.5,135,142.5,-157.5,142.5,320,57,Juniors
5,Milda Bruvere,Raw,SBD,F,1994,Lithuania,56.35,120,-125,-125,120,60,67.5,-70,67.5,120,127.5,-135,127.5,315,57,Juniors
6,Miia Ylikopsa,Raw,SBD,F,1994,Finland,56.4,110,-115,-115,110,62.5,-67.5,67.5,67.5,130,-135,135,135,312.5,57,Juniors
1,Carola Garra,Raw,SBD,F,1994,Italy,61.15,120,130,137.5,137.5,120.5,128,-130.5,128,140,155,160,160,425.5,63,Juniors
2,Petra Olsson,Raw,SBD,F,1994,Sweden,61.95,125,132.5,135,135,70,75,-77.5,75,145,152.5,157.5,157.5,367.5,63,Juniors
3,Zoia Safarova,Raw,SBD,F,1995,Russia,61.9,140,-145,145,145,65,-70,-70,65,130,137.5,142.5,142.5,352.5,63,Juniors
4,Lisett Lepp Laura,Raw,SBD,F,1993,Estonia,61.7,107.5,112.5,-115,112.5,82.5,87.5,-90,87.5,127.5,132.5,137.5,137.5,337.5,63,Juniors
5,Vasylysa Onishchenko,Raw,SBD,F,1993,Ukraine,62.3,-122.5,122.5,-127.5,122.5,-70,-72.5,72.5,72.5,142.5,-157.5,-160,142.5,337.5,63,Juniors
6,Melisa Heinonen,Raw,SBD,F,1995,Finland,61.85,105,-112.5,-112.5,105,60,62.5,65,65,140,150,-157.5,150,320,63,Juniors
7,Arja Rydin,Raw,SBD,F,1995,Netherlands,61.7,100,-105,-105,100,47.5,50,52.5,52.5,115,-120,120,120,272.5,63,Juniors
8,Ave Tuur,Raw,SBD,F,1996,Estonia,61.4,95,-102.5,102.5,102.5,60,62.5,-65,62.5,105,-112.5,-112.5,105,270,63,Juniors
1,Viktoryia Makarevich,Raw,SBD,F,1995,Belarus,68.4,-140,140,-147.5,140,80,82.5,87.5,87.5,170,175,180,180,407.5,72,Juniors
2,Alina Davletshina,Raw,SBD,F,1996,Russia,70.8,137.5,-142.5,-142.5,137.5,82.5,87.5,90,90,145,152.5,155,155,382.5,72,Juniors
3,Tuulia Lohivuo,Raw,SBD,F,1997,Finland,68.45,125,130,135,135,80,82.5,-85,82.5,145,152.5,-155,152.5,370,72,Juniors
4,Salla Koskinen,Raw,SBD,F,1993,Finland,70.4,127.5,132.5,135,135,65,70,-72.5,70,-150,160,-167.5,160,365,72,Juniors
5,Amy Spencer,Raw,SBD,F,1993,UK,69,122.5,-127.5,-132.5,122.5,67.5,72.5,-75,72.5,127.5,135,137.5,137.5,332.5,72,Juniors
6,Lucy Rayner,Raw,SBD,F,1997,UK,69.15,112.5,120,122.5,122.5,75,82.5,-87.5,82.5,115,120,127.5,127.5,332.5,72,Juniors
7,Rebeka Pečjak,Raw,SBD,F,1996,Slovenia,70.25,107.5,115,-122.5,115,55,57.5,-60,57.5,135,145,-152.5,145,317.5,72,Juniors
8,Yvonne Kortsmit,Raw,SBD,F,1993,Netherlands,66.9,100,105,-107.5,105,62.5,67.5,-70,67.5,110,117.5,120,120,292.5,72,Juniors
9,Gertina Simenson,Raw,SBD,F,1997,Estonia,67.15,82.5,90,95,95,47.5,52.5,-57.5,52.5,115,122.5,127.5,127.5,275,72,Juniors
1,Charlie Chester,Raw,SBD,F,1996,UK,82.15,140,147.5,-152.5,147.5,67.5,75,-80,75,150,160,170,170,392.5,84,Juniors
2,Mirka Valo,Raw,SBD,F,1997,Finland,75.15,-100,-100,100,100,60,65,67.5,67.5,150,157.5,167.5,167.5,335,84,Juniors
3,Maaike De Vries,Raw,SBD,F,1994,Netherlands,72.45,115,122.5,127.5,127.5,77.5,80,-82.5,80,120,-125,125,125,332.5,84,Juniors
4,Anna Bystrova,Raw,SBD,F,1994,Russia,74.05,115,125,132.5,132.5,72.5,77.5,80,80,110,120,-125,120,332.5,84,Juniors
5,Megan Davies,Raw,SBD,F,1996,UK,72.75,105,110,112.5,112.5,60,65,67.5,67.5,125,135,140,140,320,84,Juniors
6,Kateřina Skudříková,Raw,SBD,F,1997,Czechia,81.5,-105,110,-115,110,60,65,67.5,67.5,120,130,135,135,312.5,84,Juniors
7,Alexandra Lutsch,Raw,SBD,F,1994,Austria,75.55,105,-115,-115,105,60,65,-67.5,65,125,132.5,137.5,137.5,307.5,84,Juniors
8,Kamila Wrobel,Raw,SBD,F,1997,Poland,72.25,90,-100,100,100,55,60,-62.5,60,110,125,-135,125,285,84,Juniors
1,Leigh Wetheridge,Raw,SBD,F,1994,UK,94.9,150,160,170,170,85,90,92.5,92.5,180,190,197.5,197.5,460,84+,Juniors
2,Monika Lovas,Raw,SBD,F,1994,Hungary,111.05,155,162.5,-172.5,162.5,107.5,-112.5,-112.5,107.5,160,170,190,190,460,84+,Juniors
3,Kristel Loorits,Raw,SBD,F,1997,Estonia,96.25,100,-115,115,115,65,75,-77.5,75,150,160,170,170,360,84+,Juniors
