Division,WeightClassKg,Place,Name,Team,BodyweightKg,Best3SquatKg,Best3BenchKg,Best3DeadliftKg,TotalKg,Equipment,Event,Sex
Boys,56,1,Kolten Mueller,Moody,55.79,106.59,79.38,124.74,310.71,Single-ply,SBD,M
Boys,56,2,Joe Guerra,Robinson,54.61,99.79,,,99.79,Single-ply,S,M
Boys,60,1,Philip Sharp,Robinson,57.42,129.27,86.18,181.44,396.89,Single-ply,SBD,M
Boys,60,2,Ian Howard,Robinson,56.34,106.59,56.7,108.86,272.16,Single-ply,SBD,M
Boys,67.5,1,Isaiah Houston,Robinson,66.5,158.76,86.18,142.88,387.82,Single-ply,SBD,M
Boys,67.5,2,Josh Turner,McGregor,65.95,147.42,83.91,145.15,376.48,Single-ply,SBD,M
Boys,67.5,3,Jose Hinojosa,Moody,61.05,136.08,86.18,147.42,369.68,Single-ply,SBD,M
Boys,67.5,4,Tristan Hewitt,Robinson,64.5,97.52,70.31,117.93,285.76,Single-ply,SBD,M
Boys,67.5,5,Dalton Stith,Moody,60.51,115.67,61.23,102.06,278.96,Single-ply,SBD,M
Boys,75,1,Andy Cox,Robinson,69.58,104.33,79.38,136.08,319.78,Single-ply,SBD,M
Boys,75,2,Noah Jenkins,McGregor,71.67,111.13,70.31,136.08,317.51,Single-ply,SBD,M
Boys,75,3,Ronnie Macedo,McGregor,73.48,102.06,74.84,124.74,301.64,Single-ply,SBD,M
Boys,75,4,Mark Riddle,Robinson,74.57,104.33,77.11,120.2,301.64,Single-ply,SBD,M
Boys,75,5,Caleb Browder,McGregor,68.13,97.52,49.9,111.13,258.55,Single-ply,SBD,M
Boys,75,6,Drew Hargrove,Moody,68.67,81.65,70.31,104.33,256.28,Single-ply,SBD,M
Boys,75,7,Armani Johnson,Robinson,69.58,124.74,,,124.74,Single-ply,S,M
Boys,82.5,1,Fernando Fernandez,Chilton,80.38,165.56,106.59,188.24,460.4,Single-ply,SBD,M
Boys,82.5,2,Dane Mace,McGregor,81.1,147.42,108.86,154.22,410.5,Single-ply,SBD,M
Boys,82.5,3,Jacob Bernal,McGregor,80.83,124.74,90.72,142.88,358.34,Single-ply,SBD,M
Boys,82.5,4,Austin Williams,Robinson,79.74,122.47,90.72,131.54,344.73,Single-ply,SBD,M
Boys,82.5,5,Cooper Wagenschein,Robinson,79.74,120.2,74.84,136.08,331.12,Single-ply,SBD,M
Boys,90,1,Hernan Arroyo,Moody,83.28,167.83,104.33,172.37,444.52,Single-ply,SBD,M
Boys,90,2,Tristan Fletcher,Moody,84.46,138.35,102.06,158.76,399.16,Single-ply,SBD,M
Boys,90,3,Brady King,Robinson,83.37,145.15,97.52,147.42,390.09,Single-ply,SBD,M
Boys,90,4,Aaron Benitez,McGregor,87,149.69,90.72,138.35,378.75,Single-ply,SBD,M
Boys,90,5,Teel Mesmer,Moody,83.82,133.81,72.57,136.08,342.46,Single-ply,SBD,M
Boys,90,6,Juan Flores,Chilton,89.63,111.13,92.99,136.08,340.19,Single-ply,SBD,M
Boys,90,7,Gustavo Aguilar,Moody,87,113.4,74.84,149.69,337.93,Single-ply,SBD,M
Boys,90,8,Randy Sandavol,McGregor,86.82,115.67,65.77,151.95,333.39,Single-ply,SBD,M
Boys,100,1,Alex Parsons,McGregor,91.17,235.87,129.27,224.53,589.67,Single-ply,SBD,M
Boys,100,2,Isaac Weathers,Chilton,98.43,158.76,92.99,185.97,437.72,Single-ply,SBD,M
Boys,100,3,Zach Karnowski,Moody,98.34,158.76,102.06,145.15,405.97,Single-ply,SBD,M
Boys,100,4,Nathan Red Elk,Robinson,94.62,156.49,108.86,124.74,390.09,Single-ply,SBD,M
Boys,100,5,Rodrigo Calzada,Chilton,99.79,147.42,92.99,147.42,387.82,Single-ply,SBD,M
Boys,100,6,Dawson Brown,McGregor,96.8,113.4,88.45,158.76,360.61,Single-ply,SBD,M
Boys,110,1,Daniel Wilde-Berry,Robinson,108.86,156.49,83.91,147.42,387.82,Single-ply,SBD,M
Boys,110,2,Isaac Contreras,Moody,100.52,136.08,72.57,149.69,358.34,Single-ply,SBD,M
Boys,110,3,Trace Snyder,Robinson,107.68,120.2,65.77,111.13,297.1,Single-ply,SBD,M
Boys,110,DQ,Saul Fernandez,Chilton,107.41,,,,,Single-ply,SBD,M
Boys,125,1,Jeran Gallimore,Robinson,114.21,226.8,127.01,181.44,535.24,Single-ply,SBD,M
Boys,125,2,Andrew Toledo,Robinson,119.48,149.69,97.52,204.12,451.32,Single-ply,SBD,M
Boys,125,3,Crispin Salinas,Chilton,122.56,136.08,83.91,183.7,403.7,Single-ply,SBD,M
Boys,125,4,Hunter Straten,Moody,114.21,142.88,90.72,142.88,376.48,Single-ply,SBD,M
Boys,125+,1,Skylar Sanders,McGregor,156.94,183.7,74.84,170.1,428.64,Single-ply,SBD,M
