Name,CyrillicName,Division,Age,Sex,WeightClassKg,BodyweightKg,Country,Squat1Kg,Squat2Kg,Squat3Kg,Best3SquatKg,Squat4Kg,Bench1Kg,Bench2Kg,Bench3Kg,Best3BenchKg,Bench4Kg,Deadlift1Kg,Deadlift2Kg,Deadlift3Kg,Best3DeadliftKg,Deadlift4Kg,TotalKg,Equipment,Event,Place
Irina Belousova,Ирина Белоусова,Open,39,F,44,43.8,Russia,80,-85,90,90,,40,42.5,-45,42.5,,100,105,110,110,,242.5,Wraps,SBD,1
Anastasia Gavrichenko,Анастасия Гавриченко,Junior,23,F,48,47.3,Russia,70,85,-92.5,85,,47.5,-52.5,-52.5,47.5,,80,90,-100,90,,222.5,Wraps,SBD,1
Kseniya Boytsova,Ксения Бойцова,Open,27,F,48,46.3,Belarus,75,80,-85,80,,42.5,-45,45,45,,110,115,-120,115,,240,Wraps,SBD,1
Tatyana Budkina,Татьяна Будкина,Open,37,F,48,47.5,Russia,-70,70,-80,70,,37.5,-42.5,-42.5,37.5,,-90,90,100,100,,207.5,Wraps,SBD,2
Svetlana Zapolskikh,Светлана Запольских,Sub Junior 14-16,16,F,52,51.1,Russia,-85,-90,-90,,,,,,,,-70,,,,,,Wraps,SBD,DQ
Yuliya Peyu,Юлия Пею,Junior,20,F,52,50.6,Russia,70,-77.5,-77.5,70,,40,42.5,-45,42.5,,110,115,117.5,117.5,,230,Wraps,SBD,1
Yuliya Nenartovich,Юлия Ненартович,Open,28,F,52,50.2,Russia,75,85,90,90,,50,-55,-55,50,,105,-110,110,110,,250,Wraps,SBD,1
Yuliya Peyu,Юлия Пею,Open,20,F,52,50.6,Russia,70,-77.5,-77.5,70,,40,42.5,-45,42.5,,110,115,117.5,117.5,,230,Wraps,SBD,2
Polina Marinova,Полина Маринова,Junior,20,F,56,55.3,Russia,70,-75,-75,70,,-47.5,-50,-50,,,-95,,,,,,Wraps,SBD,DQ
Kristina Dobrya,Кристина Добря,Open,27,F,56,55.6,Russia,105,110,-115,110,,52.5,55,-57.5,55,,135,140,-145,140,,305,Wraps,SBD,1
Alena Kosorukova,Алена Косорукова,Open,24,F,56,55.2,Russia,-110,-110,110,110,,45,-50,-50,45,,130,140,147.5,147.5,,302.5,Wraps,SBD,2
Olga Pozdnyak,Ольга Позняк,Open,29,F,56,55,Belarus,100,-105,-105,100,,-47.5,-47.5,-47.5,,,-115,,,,,,Wraps,SBD,DQ
Anna Radyuk,Анна Радюк,Junior,23,F,60,59.9,Russia,140,150,-160,150,,80,-85,85,85,,140,150,-160,150,,385,Wraps,SBD,1
Linara Farkhutdinova,Линара Фархутдинова,Junior,20,F,60,59,Russia,70,75,80,80,,35,37.5,-40,37.5,,75,80,-85,80,,197.5,Wraps,SBD,2
Lyudmila Ryamaeva,Людмила Рямаева,Open,36,F,60,59.8,Russia,90,-102.5,102.5,102.5,,60,62.5,-65,62.5,,135,-147.5,-147.5,135,,300,Wraps,SBD,1
Elena Emelyova,Елена Емелёва,Master 40-49,40,F,60,59.1,Russia,95,105,-110,105,,50,52.5,55,55,,120,127.5,-130,127.5,,287.5,Wraps,SBD,1
Elena Dzhun,Елена Джунь,Master 40-49,46,F,60,57.8,Kazakhstan,105,-110,110,110,,57.5,-60,60,60,,100,105,-117.5,105,,275,Wraps,SBD,2
Ekaterina Obvintseva,Екатерина Обвинцева,Sub Junior 14-16,15,F,67.5,64.6,Russia,115,122.5,130,130,,45,-52.5,-52.5,45,,115,122.5,125,125,,300,Wraps,SBD,1
Mariya Kadushnikova,Мария Кадушникова,Junior,21,F,67.5,66.8,Russia,-100,-100,-105,,,-50,,,,,-110,,,,,,Wraps,SBD,DQ
Irina Medvedeva,Ирина Медведева,Open,29,F,67.5,65.3,Kazakhstan,-135,-142.5,142.5,142.5,,60,-65,-65,60,,120,-130,-130,120,,322.5,Wraps,SBD,1
Marina Klimova,Марина Климова,Open,38,F,67.5,64.4,Russia,-100,100,-110,100,,-45,45,-50,45,,110,120,125,125,,270,Wraps,SBD,2
Elena Evtushenko,Елена Евтушенко,Open,30,F,67.5,64.7,Russia,-85,85,90,90,,-57.5,57.5,-60,57.5,,85,92.5,95,95,,242.5,Wraps,SBD,3
Irina Medvedeva,Ирина Медведева,Open,29,F,67.5,66.5,Kazakhstan,-135,,,,,-60,,,,,-120,,,,,,Wraps,SBD,DQ
Ekaterina Pogula,Екатерина Погула,Master 40-49,44,F,67.5,66.5,Russia,65,70,-75,70,,32.5,37.5,-40,37.5,,70,-77.5,-77.5,70,,177.5,Wraps,SBD,1
Natalya Larina,Наталья Ларина,Master 50-59,52,F,67.5,67.4,Russia,-90,-95,-95,,,-45,,,,,-90,,,,,,Wraps,SBD,DQ
Galina Parfyonova,Галина Парфёнова,Sub Junior 17-19,17,F,75,73.8,Kazakhstan,110,115,120,120,,60,-62.5,-62.5,60,,115,120,125,125,,305,Wraps,SBD,1
Anastasia Zamashnyuk,Анастасия Замашнюк,Junior,20,F,75,74.6,Russia,125,-132.5,132.5,132.5,,-62.5,-65,-65,,,-125,,,,,,Wraps,SBD,DQ
Vladimir Burnashov,Владимир Бурнашов,Sub Junior 14-16,14,M,56,55.2,Russia,142.5,150,155,155,,75,77.5,80,80,,170,175,-180,175,,410,Wraps,SBD,1
Dinislam Gataev,Динислам Гатаев,Junior,20,M,56,56,Russia,-140,,,,,100,110,-120,110,,175,-185,-190,175,,,Wraps,SBD,DQ
Dinislam Gataev,Динислам Гатаев,Open,20,M,56,56,Russia,-140,,,,,100,110,-120,110,,175,-185,-190,175,,,Wraps,SBD,DQ
Nikolai Grachev,Николай Грачев,Master 60-69,60,M,56,51,Russia,90,100,107.5,107.5,110,70,75,77.5,77.5,,120,127.5,132.5,132.5,,317.5,Wraps,SBD,1
Danil Tararuev,Данил Тараруев,Sub Junior 14-16,16,M,60,58.3,Russia,135,-145,-145,135,,-80,-80,80,80,,165,-175,175,175,,390,Wraps,SBD,1
Moisey Ivanov,Моисей Иванов,Sub Junior 17-19,19,M,60,60,Russia,-150,,,,,-75,,,,,-150,,,,,,Wraps,SBD,DQ
Pavel Meshkov,Павел Мешков,Junior,23,M,67.5,66,Russia,160,-170,175,175,,100,110,-120,110,,200,215,-220,215,,500,Wraps,SBD,1
Semyon Tkachyov,Семён Ткачёв,Junior,22,M,67.5,65.1,Russia,195,-202.5,-202.5,195,,95,-97.5,,95,,175,-185,-185,175,,465,Wraps,SBD,2
Pavel Tebenkov,Павел Тебеньков,Junior,23,M,67.5,62.9,Russia,160,-170,-170,160,,100,105,110,110,,170,175,-180,175,,445,Wraps,SBD,3
Andrey Kim,Андрей Ким,Open,30,M,67.5,61.7,Kazakhstan,180,200,-210,200,,132.5,140,147.5,147.5,,210,232.5,,232.5,,580,Wraps,SBD,1
Exal García Carrillo,,Open,32,M,67.5,66.6,Chile,170,180,195,195,,135,140,145,145,,180,195,-205,195,,535,Wraps,SBD,2
Pavel Meshkov,Павел Мешков,Open,23,M,67.5,66,Russia,160,-170,175,175,,100,110,-120,110,,200,215,-220,215,,500,Wraps,SBD,3
Evgeniy Karpov,Евгений Карпов,Open,37,M,67.5,66.8,Russia,162.5,175,180,180,,-125,125,-127.5,125,,172.5,-180,-180,172.5,,477.5,Wraps,SBD,4
Evgeniy Vnukov,Евгений Внуков,Open,27,M,67.5,66.5,Russia,-175,-175,175,175,,105,110,115,115,,155,170,180,180,,470,Wraps,SBD,5
Konstantin Kuznetsov,Константин Кузнецов,Open,35,M,75,74.5,Russia,-202.5,202.5,212.5,212.5,,132.5,137.5,-142.5,137.5,,-197.5,197.5,212.5,212.5,,562.5,Wraps,SBD,1
Oleg Stepanov,Олег Степанов,Open,26,M,75,74.8,Russia,175,185,200,200,,105,-110,110,110,,212.5,225,-242.5,225,,535,Wraps,SBD,2
Aleksey German,Алексей Герман,Open,27,M,75,73.8,Russia,180,-200,200,200,,110,120,-122.5,120,,190,-207.5,207.5,207.5,,527.5,Wraps,SBD,3
Mark Popov,Марк Попов,Open,20,M,75,75,Russia,,,,,,,,,,,,,,,,,Wraps,SBD,DQ
Sergey Alampiev,Сергей Алампиев,Master 50-59,59,M,75,72.4,Russia,160,180,-190,180,,90,95,100,100,,180,210,-220,210,,490,Wraps,SBD,1
Vladimir Sukhinin,Владимир Сухинин,Master 60-69,65,M,75,74.1,Russia,150,155,-157.5,155,,80,85,87.5,87.5,,185,195,-200,195,,437.5,Wraps,SBD,1
Evgeniy Pedurets,Евгений Пэдурец,Sub Junior 17-19,17,M,82.5,79.6,Russia,-175,-175,175,175,,95,100,,100,,190,200,-205,200,,475,Wraps,SBD,1
Artyom Bespalov,Артём Беспалов,Junior,23,M,82.5,82.3,Russia,230,-245,-245,230,,117.5,122.5,-125,122.5,,230,240,250,250,,602.5,Wraps,SBD,1
Luvsandanzan Myanganbaatar,,Junior,23,M,82.5,82.3,Mongolia,180,195,-210,195,,100,110,115,115,,180,192.5,-200,192.5,,502.5,Wraps,SBD,2
Vasiliy Perov,Василий Перов,Open,37,M,82.5,82.1,Russia,240,250,260,260,,157.5,165,-167.5,165,,247.5,-260,-260,247.5,,672.5,Wraps,SBD,1
Dmitriy Pleskach,Дмитрий Плескач,Open,28,M,82.5,80.7,Belarus,215,227.5,-235,227.5,,125,130,132.5,132.5,,220,230,240,240,,600,Wraps,SBD,2
Mikhail Antoch,Михаил Анточ,Open,24,M,82.5,79.1,Russia,200,210,220,220,,100,105,110,110,,260,-280,-280,260,,590,Wraps,SBD,3
Ivan Shipov,Иван Шипов,Open,29,M,82.5,81.7,Russia,-200,200,-205,200,,-115,-115,-120,,,-215,,,,,,Wraps,SBD,DQ
Ruslan Dzhaborov,Руслан Джаборов,Open,31,M,82.5,81.8,Russia,-260,,,,,-180,,,,,-280,,,,,,Wraps,SBD,DQ
Sergey Kandaurov,Сергей Кандауров,Master 40-49,42,M,82.5,82,Russia,-190,,,,,-150,,,,,-190,,,,,,Wraps,SBD,DQ
Aleksey Tushin,Алексей Тушин,Master 50-59,52,M,82.5,82.5,Russia,-160,160,-180,160,,120,-127.5,-127.5,120,,150,175,-185,175,,455,Wraps,SBD,1
Denis Goncharov,Денис Гончаров,Sub Junior 17-19,19,M,90,89.3,Russia,240,,,240,,120,-130,-130,120,,220,232.5,242.5,242.5,,602.5,Wraps,SBD,1
Igor Shapovalov,Игорь Шаповалов,Sub Junior 17-19,18,M,90,87.3,Russia,210,,,210,,120,127.5,130,130,,210,217.5,220,220,,560,Wraps,SBD,2
Fedor Milashin,Федор Милашин,Sub Junior 17-19,19,M,90,89.2,Russia,215,,,215,,122.5,130,137.5,137.5,,175,190,205,205,,557.5,Wraps,SBD,3
Saveliy Bokarev,Савелий Бокарев,Sub Junior 17-19,18,M,90,89.7,Russia,210,,,210,,-125,130,-135,130,,205,215,-225,215,,555,Wraps,SBD,4
Oleg Fedorets,Олег Федорец,Junior,23,M,90,89.9,Russia,230,,,230,,160,170,175,175,,235,245,255,255,,660,Wraps,SBD,1
Kirill Kuzin,Кирилл Кузин,Junior,20,M,90,88.3,Russia,245,,,245,,-140,140,145,145,,215,227.5,240,240,,630,Wraps,SBD,2
Aleksey Svirin,Алексей Свирин,Junior,22,M,90,86.2,Russia,185,,,185,,130,-140,-150,130,,225,-235,-235,225,,540,Wraps,SBD,3
Bakhit Kudaybergenov,Бахыт Кудайбергенов,Open,25,M,90,90,Kazakhstan,255,,,255,,175,185,192.5,192.5,,250,265,275,275,,722.5,Wraps,SBD,1
Ivan Stegaresku,Иван Стегареску,Open,31,M,90,89.6,Russia,260,,,260,,165,175,-180,175,,250,265,270,270,,705,Wraps,SBD,2
Ariunbaatar Sharavdorj,,Open,34,M,90,88.8,Mongolia,260,,,260,,160,167.5,-170,167.5,,240,250,255,255,,682.5,Wraps,SBD,3
Amarzaya Taivantumur,,Open,29,M,90,89.3,Mongolia,260,,,260,,170,-177.5,177.5,177.5,,220,235,245,245,,682.5,Wraps,SBD,4
Dmitriy Sobtsov,Дмитрий Собцов,Open,25,M,90,89.4,Russia,215,,,215,,160,170,-175,170,,210,220,235,235,,620,Wraps,SBD,5
Evgeniy Vladimirov,Евгений Владимиров,Open,52,M,90,88.7,Russia,230,,,230,,135,-140,140,140,,220,230,235,235,,605,Wraps,SBD,6
Georgiy Avetisyan,Георгий Аветисян,Open,26,M,90,85.7,Russia,190,,,190,,140,145,-152.5,145,,-210,210,-222.5,210,,545,Wraps,SBD,7
Vladimir Chumichev,Владимир Чумичев,Open,24,M,90,88.1,Russia,170,,,170,,125,-130,-130,125,,190,200,-205,200,,495,Wraps,SBD,8
Artyom Petrov,Артем Петров,Open,28,M,90,87.7,Russia,-205,,,,,-135,,,,,-230,,,,,,Wraps,SBD,DQ
Andrey Bizov,Андрей Бызов,Open,34,M,90,88.6,Russia,-220,,,,,-130,,,,,-230,,,,,,Wraps,SBD,DQ
Aleksandr Shavkovich,Александр Шавкович,Open,21,M,90,90,Russia,,,,,,,,,,,,,,,,,Wraps,SBD,DQ
Denis Bondik,Денис Бондик,Open,42,M,90,90,Kazakhstan,,,,,,,,,,,,,,,,,Wraps,SBD,DQ
Evgeniy Vladimirov,Евгений Владимиров,Master 50-59,52,M,90,88.7,Russia,230,,,230,,135,-140,140,140,,220,230,235,235,,605,Wraps,SBD,1
Aleksandr Pogalev,Александр Рогалев,Master 50-59,59,M,90,84.8,Russia,170,,,170,,90,100,105,105,,170,-185,200,200,,475,Wraps,SBD,2
Nikita Bolobuev,Никита Волобуев,Sub Junior 17-19,17,M,100,91.3,Russia,-210,-210,-210,,,-125,,,,,-210,,,,,,Wraps,SBD,DQ
Vadim Loyko,Вадим Лойко,Junior,22,M,100,90.1,Belarus,-210,-220,220,220,,145,155,162.5,162.5,,265,-280,-280,265,,647.5,Wraps,SBD,1
Ivan Vostrikov,Иван Востриков,Junior,21,M,100,96.9,Russia,-190,190,210,210,,120,127.5,135,135,,230,245,255,255,,600,Wraps,SBD,2
Vadim Loyko,Вадим Лойко,Junior,22,M,100,90.1,Belarus,-255,,,,,-145,,,,,-270,,,,,,Wraps,SBD,DQ
Ilya Karmishin,Илья Кармишин,Open,32,M,100,99.9,Russia,-275,280,-290,280,,175,185,-190,185,,270,287.5,292.5,292.5,,757.5,Wraps,SBD,1
Altanbagana Sharavdorj,,Open,26,M,100,95.9,Mongolia,-280,280,300,300,,175,197.5,,197.5,,242.5,252.5,257.5,257.5,,755,Wraps,SBD,2
Andrey Kachan,Андрей Качан,Open,31,M,100,91.7,Russia,210,230,250,250,,150,155,160,160,,240,255,265,265,,675,Wraps,SBD,3
Kuanish Nukishev,Куаныш Нукишев,Open,42,M,100,96.8,Kazakhstan,-230,230,250,250,,140,150,-160,150,,230,250,260,260,,660,Wraps,SBD,4
Vadim Loyko,Вадим Лойко,Open,22,M,100,90.1,Belarus,-210,-220,220,220,,145,155,162.5,162.5,,265,-280,-280,265,,647.5,Wraps,SBD,5
Vitaliy Komarchuk,Виталий Комарчук,Open,39,M,100,100,Russia,-230,230,240,240,,-150,150,160,160,,210,230,235,235,,635,Wraps,SBD,6
Pavel Popandopulo,Павел Попандопуло,Open,31,M,100,96.1,Russia,-200,-210,210,210,,140,-145,-145,140,,260,-270,275,275,,625,Wraps,SBD,8
Ruslan Yakimov,Руслан Якимов,Open,32,M,100,98.1,Russia,250,-270,-270,250,,130,137.5,-142.5,137.5,,220,240,-245,240,,627.5,Wraps,SBD,7
Dmitriy Zhukov,Дмитрий Жуков,Open,39,M,100,95.1,Russia,220,230,237.5,237.5,,145,150,155,155,,220,230,-240,230,,622.5,Wraps,SBD,9
Zundui Munkh-Erdene,,Open,39,M,100,94.4,Mongolia,-200,200,-230,200,,155,165,-170,165,,190,210,230,230,,595,Wraps,SBD,10
Sergey Kazubskiy,Сергей Казубский,Open,36,M,100,97.1,Estonia,130,140,150,150,,120,125,-130,125,,170,180,195,195,,470,Wraps,SBD,11
Nikolai Bredikhin,Николай Бредихин,Open,24,M,100,98.4,Russia,-170,-170,170,170,,100,-115,-115,100,,-180,180,-200,180,,450,Wraps,SBD,12
Artyom Medvedev,Артём Медведев,Open,34,M,100,98.9,Kazakhstan,-185,-185,-185,,,-130,,,,,-210,,,,,,Wraps,SBD,DQ
Umar Iniev,Умар Иниев,Open,30,M,100,100,Russia,-310,,,,,-190,,,,,-285,,,,,,Wraps,SBD,DQ
Kuanish Nukishev,Куаныш Нукишев,Master 40-49,42,M,100,96.8,Kazakhstan,-230,230,250,250,,140,150,-160,150,,230,250,260,260,,660,Wraps,SBD,1
Mikhail Tolmachev,Михаил Толмачев,Master 40-49,41,M,100,100,Russia,-235,235,250,250,,140,147.5,152.5,152.5,,240,252.5,-260,252.5,,655,Wraps,SBD,2
Martin Zupka,Мартин Зупка,Master 40-49,40,M,100,98.5,Russia,-190,-190,190,190,,120,-127.5,127.5,127.5,,180,192.5,-200,192.5,,510,Wraps,SBD,3
Kuanish Nukishev,Куаныш Нукишев,Master 40-49,42,M,100,96.8,Kazakhstan,-230,230,250,250,,140,150,-160,150,,,,,,,,Wraps,SBD,DQ
Murat Dzhaytabarov,Мурат Джайтабаров,Master 50-59,52,M,100,99.8,Kazakhstan,-160,180,190,190,,150,155,,155,,180,190,200,200,,545,Wraps,SBD,1
Sergey Strakhalis,Сергей Страхалис,Master 50-59,53,M,100,96.8,Russia,170,180,185,185,,140,145,-155,145,,180,190,200,200,,530,Wraps,SBD,2
Mukhtar Imanbaev,Мухтар Иманбаев,Master 50-59,52,M,100,99.2,Kazakhstan,120,-140,140,140,,155,162.5,-172.5,162.5,,130,150,160,160,,462.5,Wraps,SBD,3
Valeriy Bistrov,Валерий Быстров,Master 70-79,75,M,100,94.7,Russia,170,-190,-200,170,,100,105,-110,105,,200,210,217.5,217.5,,492.5,Wraps,SBD,1
Nikita Romov,Никита Ромов,Sub Junior 14-16,15,M,110,107.6,Estonia,220,-230,-235,220,,130,140,150,150,-157.5,210,-220,220,220,-240.5,590,Wraps,SBD,1
Artyom Reshetnikov,Артём Решетников,Open,27,M,110,106.8,Russia,-285,285,295,295,,180,190,-197.5,190,,280,-290,-290,280,,765,Wraps,SBD,1
Boris Apanasevich,Борис Апанасевич,Open,34,M,110,103.1,Russia,250,-262.5,262.5,262.5,,-190,195,202.5,202.5,,230,240,245,245,,710,Wraps,SBD,2
Andrey Cheremnov,Андрей Черемнов,Open,28,M,110,108.3,Russia,230,245,255,255,,-155,155,-165,155,,260,-280,-280,260,,670,Wraps,SBD,3
Zhaslan Zhumanyazov,Жаслан Жуманьязов,Open,29,M,110,106.8,Russia,220,-235,235,235,,145,157.5,-165,157.5,,220,235,240,240,,632.5,Wraps,SBD,4
David Sichinava,Давид Сичинава,Open,25,M,110,105.5,Russia,190,200,-210,200,,140,155,-162.5,155,,225,235,-247.5,235,,590,Wraps,SBD,5
Andrey Gerun,Андрей Герун,Master 40-49,45,M,110,100.8,Russia,150,170,190,190,,130,137.5,142.5,142.5,,180,210,225,225,,557.5,Wraps,SBD,1
Rustem Nigmatullin,Рустем Нигматуллин,Master 40-49,41,M,110,100.2,Russia,140,170,-187.5,170,,100,115,125,125,,182.5,210,-227.5,210,,505,Wraps,SBD,2
Andrey Shishkin,Андрей Шишкин,Master 50-59,54,M,110,109.3,Russia,190,225,235,235,,127.5,,,127.5,,215,250,262.5,262.5,,625,Wraps,SBD,1
Ričards Bužinskis,,Sub Junior 17-19,19,M,125,117,Latvia,-200,200,-210,200,,135,140,-145,140,,210,-220,,210,,550,Wraps,SBD,1
Vladimir Sosyuk,Владимир Сосюк,Open,34,M,125,123.3,Ukraine,-300,315,-325,315,,165,180,-190,180,,280,-300,305,305,,800,Wraps,SBD,1
Pavel Matskul,Павел Мацкул,Open,26,M,125,122.9,Russia,255,270,285,285,,150,160,172.5,172.5,,240,257.5,265,265,,722.5,Wraps,SBD,2
Levon Trdatyan,Левон Трдатьян,Open,35,M,125,120.5,Russia,-275,-275,275,275,,-170,170,-172.5,170,,250,260,-270,260,,705,Wraps,SBD,3
Dmitriy Nenartovich,Дмитрий Ненартович,Open,28,M,125,110.4,Russia,235,-250,-250,235,,180,190,-192.5,190,,250,-260,260,260,,685,Wraps,SBD,4
Denis Trofimov,Денис Трофимов,Open,24,M,125,114.5,Russia,-240,-240,-250,,,-140,,,,,-220,,,,,,Wraps,SBD,DQ
Georgiy Bebiashvili,Георгий Бебиашвили,Open,19,M,125,125,Russia,,,,,,,,,,,,,,,,,Wraps,SBD,DQ
Artyom Borontsov,Артем Воронцов,Master 40-49,40,M,125,113.5,Russia,180,210,240,240,,200,205,210,210,,-250,250,-270,250,,700,Wraps,SBD,1
Vladimir Polivanov,Владимир Поливанов,Master 50-59,53,M,125,122.5,Russia,185,-200,205,205,,145,155,162.5,162.5,,240,257.5,-262.5,257.5,,625,Wraps,SBD,1
Sergey Sventitskiy,Сергей Свентицкий,Junior,22,M,140,137.9,Russia,-255,255,-270,255,,190,-197.5,-197.5,190,,275,292.5,-305.5,292.5,,737.5,Wraps,SBD,1
Aleksey Kotov,Алексей Котов,Open,36,M,140,133.6,Russia,295,305,310,310,,190,197.5,200,200,,280,-300,-300,280,,790,Wraps,SBD,1
Dmitriy Dluzhnevskiy,Дмитрий Длужневский,Open,33,M,140,130.3,Russia,250,-270,270,270,,-150,150,160,160,,250,-270,,250,,680,Wraps,SBD,2
Vasiliy Sitnik,Василий Сытник,Open,29,M,140,130.9,Russia,200,-220,220,220,,160,170,-180,170,,230,-250,-250,230,,620,Wraps,SBD,3
Mikhail Kondratenko,Михаил Кондратенко,Open,29,M,140+,152.8,Russia,280,295,305,305,,185,-192.5,-192.5,185,,290,-305,-305,290,,780,Wraps,SBD,1
Anastasia Gavrichenko,Анастасия Гавриченко,Junior,23,F,48,47.3,Russia,,,,,,47.5,50,-52.5,50,,,,,,,50,Raw,B,1
Anastasia Vinogradova,Анастасия Виноградова,Open,25,F,48,47.4,Russia,,,,,,-55,-55,55,55,,,,,,,55,Raw,B,1
Olesya Yureva,Олеся Юрьева,Open,36,F,48,47.5,Russia,,,,,,-45,-45,45,45,,,,,,,45,Raw,B,2
Svetlana Zapolskikh,Светлана Запольских,Sub Junior 14-16,16,F,52,51.1,Russia,,,,,,40,45,50,50,,,,,,,50,Raw,B,1
Irina Bizyaeva,Ирина Бизяева,Junior,20,F,52,49.6,Russia,,,,,,50,-55,-55,50,,,,,,,50,Raw,B,1
Valentina Tarasova,Валентина Тарасова,Open,41,F,52,50.2,Kazakhstan,,,,,,75,-77.5,77.5,77.5,,,,,,,77.5,Raw,B,1
Varvara Kukina,Варвара Кукина,Open,25,F,52,51.7,Russia,,,,,,50,-52.5,-52.5,50,,,,,,,50,Raw,B,2
Anastasia Dzyuba,Анастасия Дзюба,Sub Junior 14-16,13,F,56,54.2,Russia,,,,,,62.5,67.5,-72.5,67.5,,,,,,,67.5,Raw,B,1
Yuliya Kupriyanova,Юлия Куприянова,Junior,23,F,56,56,Russia,,,,,,52.5,55,-57.5,55,,,,,,,55,Raw,B,1
Natalya Vytnova,Наталья Вытнова,Open,37,F,56,53.9,Kazakhstan,,,,,,72.5,-77.5,-77.5,72.5,,,,,,,72.5,Raw,B,1
Irina Morozova,Ирина Морозова,Open,29,F,56,54.9,Russia,,,,,,72.5,-75,-75,72.5,,,,,,,72.5,Raw,B,2
Tatyana Pantyukhova,Татьяна Пантюхова,Open,24,F,56,54.7,Russia,,,,,,-55,-55,-55,,,,,,,,,Raw,B,DQ
Paisa Sharueva,Раиса Шаруева,Open,33,F,60,59.6,Russia,,,,,,-67.5,70,72.5,72.5,,,,,,,72.5,Raw,B,1
Tatyana Volkova,Татьяна Волкова,Open,36,F,60,59.3,Kazakhstan,,,,,,-80,-80,-80,,,,,,,,,Raw,B,DQ
Elena Emelyova,Елена Емелёва,Master 40-49,40,F,60,59.1,Russia,,,,,,55,,,55,,,,,,,55,Raw,B,1
Alina Panasenko,Алина Панасенко,Sub Junior 17-19,18,F,67.5,65.9,Russia,,,,,,75,-80,-80,75,,,,,,,75,Raw,B,1
Anastasia Zakhovaeva,Анастасия Заховаева,Junior,21,F,67.5,62.4,Russia,,,,,,-72.5,72.5,75,75,,,,,,,75,Raw,B,1
Svetlana Maletskaya,Светлана Малецкая,Open,33,F,67.5,67,Russia,,,,,,80,85,87.5,87.5,,,,,,,87.5,Raw,B,1
Tatyana Zhemerya,Татьяна Жемеря,Open,41,F,67.5,65.9,Russia,,,,,,-80,80,-85,80,,,,,,,80,Raw,B,2
Anastasia Zakhovaeva,Анастасия Заховаева,Open,21,F,67.5,62.4,Russia,,,,,,-72.5,72.5,75,75,,,,,,,75,Raw,B,3
Tatyana Zhemerya,Татьяна Жемеря,Master 40-49,41,F,67.5,65.9,Russia,,,,,,-80,80,-85,80,,,,,,,80,Raw,B,1
Galina Savina,Галина Савина,Master 40-49,41,F,67.5,64.6,Russia,,,,,,60,-65,-65,60,,,,,,,60,Raw,B,2
Natalya Larina,Наталья Ларина,Master 50-59,52,F,67.5,67.5,Russia,,,,,,45,55,-60,55,,,,,,,55,Raw,B,1
Elena Prokopova,Елена Прокопова,Master 50-59,50,F,67.5,65.8,Russia,,,,,,45,47.5,-50,47.5,,,,,,,47.5,Raw,B,2
Mariya Layzan,Мария Лайзан,Open,26,F,75,74,Russia,,,,,,90,97.5,100,100,,,,,,,100,Raw,B,1
Lyudmila Dokuchaeva,Людмила Докучаева,Open,39,F,75,71.6,Russia,,,,,,90,95,97.5,97.5,,,,,,,97.5,Raw,B,2
Svetlana Poletaeva,Светлана Полетаева,Open,39,F,90+,105.5,Russia,,,,,,70,75,-80,75,,,,,,,75,Raw,B,1
Grigoriy Dubrovin,Григорий Дубровин,Sub Junior 14-16,14,M,56,51,Russia,,,,,,75,83,-85,83,,,,,,,82.5,Raw,B,1
Dinislam Gataev,Динислам Гатаев,Junior,20,M,56,56,Russia,,,,,,110,,,110,,,,,,,110,Raw,B,1
Dinislam Gataev,Динислам Гатаев,Open,20,M,56,56,Russia,,,,,,110,,,110,,,,,,,110,Raw,B,1
Anatoliy Tumasyants,Анатолий Тумасянц,Sub Junior 14-16,16,M,67.5,66.5,Russia,,,,,,-90,90,-100,90,,,,,,,90,Raw,B,1
Maksim Polyakov,Максим Поляков,Sub Junior 14-16,16,M,67.5,67,Russia,,,,,,70,80,-90,80,,,,,,,80,Raw,B,2
Ayk Andriasyan,Айк Андриасян,Sub Junior 14-16,15,M,67.5,66,Russia,,,,,,-100,-100,-100,,,,,,,,,Raw,B,DQ
Vladislav Dobrodeev,Владислав Добродеев,Sub Junior 17-19,17,M,67.5,67.5,,,,,,,120,125,-127.5,125,,,,,,,125,Raw,B,1
Evgeniy Nechaev,Евгений Нечаев,Junior,23,M,67.5,65.9,Russia,,,,,,125,130,-137.5,130,,,,,,,130,Raw,B,1
Chermen Savlokhov,Чермен Савлохов,Junior,22,M,67.5,64.2,Russia,,,,,,120,125,-127.5,125,,,,,,,125,Raw,B,2
Andrey Kim,Андрей Ким,Open,30,M,67.5,61.7,Kazakhstan,,,,,,147.5,,,147.5,,,,,,,147.5,Raw,B,1
Exal García Carrillo,,Open,32,M,67.5,66,Chile,,,,,,145,,,145,,,,,,,145,Raw,B,2
Nikita Samokhvalov,Никита Самохвалов,Open,28,M,67.5,66.5,Russia,,,,,,135,142.5,-147.5,142.5,,,,,,,142.5,Raw,B,3
Ivan Luchenkov,Иван Лученков,Open,25,M,67.5,67.5,Russia,,,,,,127.5,-137.5,-137.5,127.5,,,,,,,127.5,Raw,B,4
Aleksandr Nikolaev,Александр Николаев,Open,28,M,67.5,67.1,Russia,,,,,,120,125,-130,125,,,,,,,125,Raw,B,5
Leonid Sumtsov,Леонид Сумцов,Open,47,M,67.5,66.4,Russia,,,,,,115,-125,-125,115,,,,,,,115,Raw,B,6
Evgeniy Karpov,Евгений Карпов,Open,37,M,67.5,66.8,Russia,,,,,,-127.5,-127.5,-127.5,,,,,,,,,Raw,B,DQ
Leonid Sumtsov,Леонид Сумцов,Master 40-49,47,M,67.5,66.4,Russia,,,,,,115,-125,-125,115,,,,,,,115,Raw,B,1
Viktor Misyutinskiy,Виктор Мисютинский,Sub Junior 17-19,17,M,75,73.8,Ukraine,,,,,,125,-130,-130,125,,,,,,,125,Raw,B,1
Roman Kurbanbaev,Роман Курбанбаев,Sub Junior 17-19,18,M,75,71.3,Russia,,,,,,105,117.5,-122.5,117.5,,,,,,,117.5,Raw,B,2
Sergey Chugurov,Сергей Чугуров,Junior,23,M,75,74,Russia,,,,,,150,157.5,-162.5,157.5,,,,,,,157.5,Raw,B,1
Andrey Popov,Андрей Попов,Junior,23,M,75,75,Russia,,,,,,140,150,155,155,,,,,,,155,Raw,B,2
Mikhail Bronnikov,Михаил Бронников,Junior,23,M,75,74.9,Russia,,,,,,142.5,-147.5,-147.5,142.5,,,,,,,142.5,Raw,B,3
Yaroslav Oveshnikov,Ярослав Овешников,Junior,23,M,75,73.2,Russia,,,,,,135,-140,-140,135,,,,,,,135,Raw,B,4
Maksim Bogdanov,Максим Богданов,Open,24,M,75,72.7,Russia,,,,,,180,190,-200,190,,,,,,,190,Raw,B,1
Denis Sokov,Денис Соков,Open,30,M,75,74.8,Russia,,,,,,170,-175,-175,170,,,,,,,170,Raw,B,2
Timofey Chernyavskiy,Тимофей Чернявский,Open,31,M,75,74.5,Russia,,,,,,165,-175,-175,165,,,,,,,165,Raw,B,3
Andrey Smurov,Андрей Смуров,Open,26,M,75,74.1,Russia,,,,,,140,-150,-150,140,,,,,,,140,Raw,B,4
Artur Minasyan,Артур Минасян,Open,28,M,75,74.9,Russia,,,,,,140,-147.5,-147.5,140,,,,,,,140,Raw,B,5
Aleksandr Aleksandrov,Александр Александров,Open,37,M,75,73.4,Russia,,,,,,-180,-180,-180,,,,,,,,,Raw,B,DQ
Aleksey Lepekhov,Алексей Лепехов,Open,33,M,75,73.7,Russia,,,,,,-120,-120,-125,,,,,,,,,Raw,B,DQ
Igor Amelin,Игорь Амелин,Master 40-49,41,M,75,74.1,Russia,,,,,,135,140,-145,140,,,,,,,140,Raw,B,1
Sergey Rudichev,Сергей Рудычев,Master 40-49,42,M,75,71,Russia,,,,,,117.5,125,-127.5,125,,,,,,,125,Raw,B,2
Andrey Sachkov,Андрей Сачков,Master 40-49,40,M,75,73.4,Russia,,,,,,95,-105,110,110,,,,,,,110,Raw,B,3
Oleg Vinokurov,Олег Винокуров,Master 50-59,50,M,75,74.4,Russia,,,,,,115,117.5,-120,117.5,,,,,,,117.5,Raw,B,1
Aleksandr Tatarkin,Александр Татаркин,Master 60-69,61,M,75,75,Russia,,,,,,120,130,135,135,,,,,,,135,Raw,B,1
Sergey Samodurov,Сергей Самодуров,Sub Junior 14-16,16,M,82.5,77.7,Russia,,,,,,-100,105,-107.5,105,,,,,,,105,Raw,B,1
Georgiy Dubrovin,Георгий Дубровин,Sub Junior 17-19,19,M,82.5,77.9,Russia,,,,,,145,150,155,155,,,,,,,155,Raw,B,1
Oleg Kulakov,Олег Кулаков,Junior,22,M,82.5,80.3,Russia,,,,,,155,162.5,167.5,167.5,,,,,,,167.5,Raw,B,1
Vyacheslav Tsoy,Вячеслав Цой,Open,32,M,82.5,82.4,Kazakhstan,,,,,,190,197.5,202.5,202.5,,,,,,,202.5,Raw,B,1
Akhmed Mereshkov,Ахмед Мерешков,Open,27,M,82.5,81.3,,,,,,,190,-197.5,-197.5,190,,,,,,,190,Raw,B,2
Denis Lyapunov,Денис Ляпунов,Open,30,M,82.5,81,,,,,,,170,177.5,-180,177.5,,,,,,,177.5,Raw,B,3
Yuriy Litvinenko,Юрий Литвиненко,Open,27,M,82.5,80.2,,,,,,,-150,155,160,160,,,,,,,160,Raw,B,4
Masimzhan Ismanilov,Масимжан Исмаилов,Open,46,M,82.5,79.1,Kazakhstan,,,,,,147.5,152.5,-155,152.5,,,,,,,152.5,Raw,B,5
Artyom Tserunyan,Артем Церунян,Open,32,M,82.5,79.9,Russia,,,,,,145,150,-155,150,,,,,,,150,Raw,B,6
Oleg Shilkin,Олег Шилкин,Open,29,M,82.5,80.6,Russia,,,,,,145,150,-152.5,150,,,,,,,150,Raw,B,7
Stanislav Krupin,Станислав Крупин,Open,30,M,82.5,76,Russia,,,,,,127.5,140,145,145,,,,,,,145,Raw,B,8
Maksim Valuevich,Максим Валуевич,Open,34,M,82.5,81.4,Russia,,,,,,140,145,-152.5,145,,,,,,,145,Raw,B,9
Ivan Orekhov,Иван Орехов,Open,29,M,82.5,81.2,Russia,,,,,,130,-135,-135,130,,,,,,,130,Raw,B,10
Yaroslav Gorkovenko,Ярослав Горковенко,Open,32,M,82.5,80.4,Russia,,,,,,112.5,-127.5,-127.5,112.5,,,,,,,112.5,Raw,B,11
Kirill Kikakhin,Кирилл Кикахин,Open,28,M,82.5,79,Russia,,,,,,-135,-135,-135,,,,,,,,,Raw,B,DQ
Pavel Shamanaev,Павел Шаманаев,Open,28,M,82.5,79,Russia,,,,,,-125,-127.5,-127.5,,,,,,,,,Raw,B,DQ
Andrey Tirtishniy,Андрей Тыртышный,Open,34,M,82.5,81.7,Russia,,,,,,-150,,,,,,,,,,,Raw,B,DQ
Dmitriy Krivyakin,Дмитрий Кривякин,Open,34,M,82.5,81.8,Russia,,,,,,-175,-175,-175,,,,,,,,,Raw,B,DQ
Eduard Sotnikov,Эдуард Сотников,Master 40-49,49,M,82.5,82.4,Russia,,,,,,155,-160,-160,155,,,,,,,155,Raw,B,1
Masimzhan Ismanilov,Масимжан Исмаилов,Master 40-49,46,M,82.5,79.1,Kazakhstan,,,,,,147.5,152.5,-155,152.5,,,,,,,152.5,Raw,B,2
Aleksandr Sitnik,Александр Сытник,Master 40-49,40,M,82.5,80.6,Russia,,,,,,122.5,127.5,-132.5,127.5,,,,,,,127.5,Raw,B,3
Igor Kovalev,Игорь Ковалев,Master 50-59,59,M,82.5,78.3,Russia,,,,,,132.5,140,-145,140,,,,,,,140,Raw,B,1
Aleksey Tushin,Алексей Тушин,Master 50-59,52,M,82.5,82.5,Russia,,,,,,120,,,120,,,,,,,120,Raw,B,2
Viktor Fedotov,Виктор Федотов,Sub Junior 14-16,14,M,90,87.8,Russia,,,,,,92.5,100,-105,100,,,,,,,100,Raw,B,1
Aleksey Shashkov,Алексей Шашков,Sub Junior 17-19,19,M,90,89,Russia,,,,,,-165,-165,-165,,,,,,,,,Raw,B,DQ
Oleg Fedorets,Олег Федорец,Junior,23,M,90,89.9,Russia,,,,,,175,,,175,,,,,,,175,Raw,B,1
Aleksey Yevteev,Алексей Евтеев,Junior,22,M,90,87.6,Russia,,,,,,160,170,-175,170,,,,,,,170,Raw,B,2
Aleksandr Yevstigneev,Александр Евстигнеев,Junior,21,M,90,88.2,Russia,,,,,,127.5,132.5,-137.5,132.5,,,,,,,132.5,Raw,B,3
Andrey Svidin,Андрей Свидин,Open,36,M,90,88.8,Russia,,,,,,180,190,195.5,195.5,,,,,,,195,Raw,B,1
Dmitriy Petrov,Дмитрий Петров,Open,30,M,90,90,Russia,,,,,,190,-195,-195.5,190,,,,,,,190,Raw,B,2
Denis Romanovich,Денис Романович,Open,28,M,90,89,Russia,,,,,,185,-190,-190,185,,,,,,,185,Raw,B,3
Oleg Trunov,Олег Трунов,Open,28,M,90,88.9,Russia,,,,,,170,175,180,180,,,,,,,180,Raw,B,4
Taivantumur Amarzaya,,Open,29,M,90,89.3,Mongolia,,,,,,177.5,-180,-180,177.5,,,,,,,177.5,Raw,B,5
Aleksandr Shuralev,Александр Шуралев,Open,41,M,90,90,Russia,,,,,,175,-180,-180,175,,,,,,,175,Raw,B,6
Dmitriy Guselnikov,Дмитрий Гусельников,Open,28,M,90,87.4,Russia,,,,,,165,-175,-175,165,,,,,,,165,Raw,B,7
Evgeniy Shvetsov,Евгений Швецов,Open,41,M,90,89.7,Russia,,,,,,150,162.5,165,165,,,,,,,165,Raw,B,8
Arkadiy Litvin,Аркадий Литвин,Open,31,M,90,88.9,Russia,,,,,,155,-160,-160,155,,,,,,,155,Raw,B,9
Maksim Shabanov,Максим Шабанов,Open,30,M,90,86.9,Russia,,,,,,152.5,-157.5,-157.5,152.5,,,,,,,152.5,Raw,B,10
Sergey Ushakov,Сергей Ушаков,Open,27,M,90,88.1,Russia,,,,,,145,152.5,-157.5,152.5,,,,,,,152.5,Raw,B,11
Dmitriy Grazhdantsev,Дмитрий Гражданцев,Open,29,M,90,89.7,Russia,,,,,,120,132.5,-135,132.5,,,,,,,132.5,Raw,B,12
Nikita Sokolov,Никита Соколов,Open,31,M,90,88.8,Russia,,,,,,125,-132.5,-132.5,125,,,,,,,125,Raw,B,13
Aleksandr Davidov,Александр Давыдов,Open,26,M,90,84.3,Russia,,,,,,-137.5,-137.5,-137.5,,,,,,,,,Raw,B,DQ
Andrey Skolovskiy,Андрей Соколовский,Open,26,M,90,88.5,Russia,,,,,,-142.5,-142.5,-142.5,,,,,,,,,Raw,B,DQ
Denis Bondik,Денис Бондик,Open,42,M,90,90,Kazakhstan,,,,,,,,,,,,,,,,,Raw,B,DQ
Evgeniy Shvetsov,Евгений Швецов,Master 40-49,41,M,90,89.7,Russia,,,,,,150,162.5,165,165,,,,,,,165,Raw,B,1
Dmitriy Timofeev,Дмитрий Тимофеев,Master 40-49,40,M,90,89.8,Russia,,,,,,160,165,-167.5,165,,,,,,,165,Raw,B,2
Yuriy Kruchinin,Юрий Кручинин,Master 40-49,45,M,90,86.2,Russia,,,,,,-135,137.5,142.5,142.5,,,,,,,142.5,Raw,B,3
Aleksandr Kuznetsov,Александр Кузнецов,Sub Junior 17-19,19,M,100,93.7,Russia,,,,,,165,172.5,-177.5,172.5,,,,,,,172.5,Raw,B,1
Vladislav Karmanov,Владислав Карманов,Sub Junior 17-19,18,M,100,99.2,Russia,,,,,,-145,-145,145,145,,,,,,,145,Raw,B,2
Evgeniy Milovanov,Евгений Милованов,Junior,23,M,100,96.8,Russia,,,,,,177.5,185,190,190,,,,,,,190,Raw,B,1
Aleksandr Kalyagin,Александр Калягин,Open,33,M,100,99.2,Russia,,,,,,190,197.5,202.5,202.5,,,,,,,202.5,Raw,B,1
Evgeniy Voloshin,Евгений Волошин,Open,34,M,100,98.7,Russia,,,,,,-195,195,200,200,,,,,,,200,Raw,B,2
Sharavdorj Altanbagana,,Open,26,M,100,95.9,Mongolia,,,,,,175,192.5,197.5,197.5,,,,,,,197.5,Raw,B,3
Evgeniy Shalaev,Евгений Шалаев,Open,30,M,100,97.8,Russia,,,,,,180,190,-192.5,190,,,,,,,190,Raw,B,4
Petr Ulzutuev,Петр Ульзутуев,Open,29,M,100,97.5,Russia,,,,,,162.5,-167.5,167.5,167.5,,,,,,,167.5,Raw,B,5
Maksim Shevaldin,Максим Шевалдин,Open,31,M,100,99.2,Russia,,,,,,162.5,165,-170,165,,,,,,,165,Raw,B,6
Zundui Munkh-Erdene,,Open,39,M,100,94.4,Mongolia,,,,,,152.5,-162.5,162.5,162.5,,,,,,,162.5,Raw,B,7
Aleksey Kolenko,Алексей Коленько,Open,25,M,100,96.8,Russia,,,,,,155,162.5,-165,162.5,,,,,,,162.5,Raw,B,8
Ivan Rodionov,Иван Родионов,Open,30,M,100,97.4,Russia,,,,,,140,150,160,160,,,,,,,160,Raw,B,9
Oleg Sinchugov,Олег Синчугов,Open,27,M,100,99.5,Russia,,,,,,157.5,-162.5,-162.5,157.5,,,,,,,157.5,Raw,B,10
Maksim Prokopenko,Максим Прокопенко,Open,28,M,100,96,Russia,,,,,,130,140,-145,140,,,,,,,140,Raw,B,11
Evgeniy Mikhalenko,Евгений Михаленко,Open,32,M,100,99.3,Kazakhstan,,,,,,-162.5,-162.5,-162.5,,,,,,,,,Raw,B,DQ
Ivan Evdokimov,Иван Евдокимов,Open,52,M,100,100,Russia,,,,,,,,,,,,,,,,,Raw,B,DQ
Andrey Grigoryev,Андрей Григорьев,Master 40-49,41,M,100,100,Russia,,,,,,185,190,-195,190,,,,,,,190,Raw,B,1
Aleksandr Bit-Yukhan,Александр Бит-Юхан,Master 40-49,47,M,100,99.1,Russia,,,,,,150,160,-170,160,,,,,,,160,Raw,B,2
Sergey Ladchenko,Сергей Ладченко,Master 40-49,43,M,100,94.9,Russia,,,,,,140,145,-150,145,,,,,,,145,Raw,B,3
Vladimir Alekseev,Владимир Алексеев,Master 50-59,53,M,100,98,Russia,,,,,,160,165,170,170,,,,,,,170,Raw,B,1
Mukhtar Imanbaev,Мухтар Иманбаев,Master 50-59,52,M,100,99.2,Kazakhstan,,,,,,162.5,,,162.5,,,,,,,162.5,Raw,B,2
Murat Dzhaytabarov,Мурат Джайтабаров,Master 50-59,52,M,100,99.8,Kazakhstan,,,,,,150,155,-160,155,,,,,,,155,Raw,B,3
Valeriy Akentyev,Валерий Акентьев,Master 50-59,58,M,100,99.1,Russia,,,,,,150,-155,-155,150,,,,,,,150,Raw,B,4
Nikolai Bugaenko,Николай Бугаенко,Sub Junior 17-19,19,M,110,100.4,Russia,,,,,,155,167.5,175,175,,,,,,,175,Raw,B,1
Aleksandr Bukharin,Александр Бухарин,Sub Junior 17-19,17,M,110,105,Russia,,,,,,175,-177.5,-177.5,175,,,,,,,175,Raw,B,2
Arseniy Fedorov,Арсений Федоров,Sub Junior 17-19,19,M,110,100.7,Russia,,,,,,150,160,170,170,,,,,,,170,Raw,B,3
Mikhail Artemov,Михаил Артемов,Sub Junior 17-19,18,M,110,107.5,Russia,,,,,,-160,-160,160,160,,,,,,,,Raw,B,DQ
Ibrahim Khamkhoev,Ибрагим Хамхоев,Open,31,M,110,104,Russia,,,,,,232.5,240,-242.5,240,,,,,,,240,Raw,B,1
Akhmed Musaev,Ахмед Мусаев,Open,36,M,110,105.4,Russia,,,,,,190,197.5,-202.5,197.5,,,,,,,197.5,Raw,B,2
Andris Kibilds,Андрис Кибилдс,Open,33,M,110,105.5,Russia,,,,,,190,-200,-200,190,,,,,,,190,Raw,B,3
Aleksey Stolyarov,Алексей Столяров,Open,30,M,110,106.5,Russia,,,,,,190,-200,-205,190,,,,,,,190,Raw,B,4
Dmitriy Kuzmin,Дмитрий Кузьмин,Open,32,M,110,106.8,Russia,,,,,,185,-192.5,-192.5,185,,,,,,,185,Raw,B,5
Dmitriy Tarasov,Дмитрий Тарасов,Open,30,M,110,110,Russia,,,,,,180,-190,-190,180,,,,,,,180,Raw,B,6
Sergey Agarkov,Сергей Агарков,Open,35,M,110,103.6,Russia,,,,,,165,170,-175,170,,,,,,,170,Raw,B,7
Artyom Yakovlyev,Артем Яковлев,Open,36,M,110,108.8,Russia,,,,,,147.5,167.5,-170,167.5,,,,,,,167.5,Raw,B,8
Aleksandr Nesterenko,Александр Нестеренко,Open,32,M,110,104.2,Russia,,,,,,147.5,-155,155,155,,,,,,,155,Raw,B,9
David Sichinava,Давид Сичинава,Open,25,M,110,105.5,Russia,,,,,,155,,,155,,,,,,,155,Raw,B,10
Andrey Kazakov,Андрей Казаков,Open,30,M,110,107.8,Russia,,,,,,150,-160,-167.5,150,,,,,,,150,Raw,B,11
Pavel Tyazhev,Павел Тяжев,Open,31,M,110,107.2,Russia,,,,,,-160,-160,-160,,,,,,,,,Raw,B,DQ
Gennadiy Krechin,Геннадий Кречин,Master 40-49,42,M,110,105.1,Russia,,,,,,192.5,197.5,-205,197.5,,,,,,,197.5,Raw,B,1
Ruslan Kataev,Руслан Катаев,Master 40-49,47,M,110,105.5,Russia,,,,,,-165,165,-167.5,165,,,,,,,165,Raw,B,2
Andrey Lukyanov,Андрей Лукьянов,Master 40-49,47,M,110,108,Russia,,,,,,160,-165,-170,160,,,,,,,160,Raw,B,3
Aleksandr Romanov,Александр Романов,Master 40-49,43,M,110,106.9,Russia,,,,,,150,-155,155,155,,,,,,,155,Raw,B,4
Igor Kurotchenko,Игорь Куротченко,Master 50-59,54,M,110,109.1,Russia,,,,,,140,147.5,152.5,152.5,,,,,,,152.5,Raw,B,1
Andrey Shishkin,Андрей Шишкин,Master 50-59,54,M,110,109.3,Russia,,,,,,105,120,127.5,127.5,,,,,,,127.5,Raw,B,2
Marat Dzhaylaubaev,Марат Джайлаубаев,Master 60-69,60,M,110,101.9,Kazakhstan,,,,,,-130,135,140,140,,,,,,,140,Raw,B,1
Boris Grabovoy,Борис Грабовой,Master 60-69,60,M,110,103.5,Russia,,,,,,125,130,132.5,132.5,,,,,,,132.5,Raw,B,2
Ričards Bužinskis,,Sub Junior 17-19,19,M,125,117,Latvia,,,,,,140,,,140,,,,,,,140,Raw,B,1
Ergash Khaziev,Эргаш Хазиев,Open,25,M,125,121,Russia,,,,,,227.5,235,-237.5,235,,,,,,,235,Raw,B,1
Evgeniy Antukh,Евгений Антух,Open,44,M,125,118,Russia,,,,,,177.5,185,-190,185,,,,,,,185,Raw,B,2
Evgeniy Avdulov,Евгений Авдулов,Open,33,M,125,118.3,Russia,,,,,,185,-195,-195,185,,,,,,,185,Raw,B,3
Otabek Dzhuraev,Отабек Джураев,Open,31,M,125,112.4,Kazakhstan,,,,,,-175,180,-185,180,,,,,,,180,Raw,B,4
Artyom Bogdanov,Артём Богданов,Open,29,M,125,119.3,Russia,,,,,,170,-177.5,-177.5,170,,,,,,,170,Raw,B,5
Artyom Vorontsov,Артем Воронцов,Master 40-49,40,M,125,113.5,Russia,,,,,,210,,,210,,,,,,,210,Raw,B,1
Evgeniy Antukh,Евгений Антух,Master 40-49,44,M,125,118,Russia,,,,,,177.5,185,-190,185,,,,,,,185,Raw,B,2
Aleksandr Vasilchenko,Александр Васильченко,Master 50-59,50,M,125,112.8,Russia,,,,,,175,-182.5,-182.5,175,,,,,,,175,Raw,B,1
Vladimir Chubarov,Владимир Чубаров,Master 50-59,52,M,125,120.5,Russia,,,,,,165,-172.5,-175,165,,,,,,,165,Raw,B,2
Evgeniy Zuykov,Евгений Зуйков,Junior,22,M,140,131.3,Russia,,,,,,-190,190,-200,190,,,,,,,190,Raw,B,1
Andrey Khramtsov,Андрей Храмцов,Open,32,M,140,128.4,Russia,,,,,,210,225,-232.5,225,,,,,,,225,Raw,B,1
Sergey Filonenko,Сергей Филоненко,Open,51,M,140,125.7,Russia,,,,,,190,200,205,205,,,,,,,205,Raw,B,2
Aleksey Shoniya,Алексей Шония,Master 40-49,46,M,140,129.4,Russia,,,,,,160,167.5,172.5,172.5,,,,,,,172.5,Raw,B,1
Sergey Filonenko,Сергей Филоненко,Master 50-59,51,M,140,125.7,Russia,,,,,,190,200,205,205,,,,,,,205,Raw,B,1
Denis Zverev,Денис Зверев,Open,29,M,140+,164,Russia,,,,,,-180,-180,-180,,,,,,,,,Raw,B,DQ
Diana Khakhulina,Диана Хахулина,Open,28,F,44,43.25,Russia,,,,,,,,,,,120,-130,-130,120,,120,Raw,D,1
Kseniya Boytsova,Ксения Бойцова,Open,27,F,48,46.3,Belarus,,,,,,,,,,,115,,,115,,115,Raw,D,1
Yuliya Peyu,Юлия Пею,Junior,20,F,52,50.6,Russia,,,,,,,,,,,117.5,,,117.5,,117.5,Raw,D,1
Veronika Tyuleneva,Вероника Тюленева,Junior,23,F,52,50.9,Russia,,,,,,,,,,,97.5,105,107.5,107.5,,107.5,Raw,D,2
Anastasia Dzyuba,Анастасия Дзюба,Sub Junior 14-16,13,F,56,54.2,Russia,,,,,,,,,,,110,115,120,120,,120,Raw,D,1
Polina Marinova,Полина Маринова,Junior,20,F,56,55.3,Russia,,,,,,,,,,,95,100,105,105,,105,Raw,D,1
Alena Kosorukova,Алена Косорукова,Open,24,F,56,55.2,Russia,,,,,,,,,,,147.5,,,147.5,,147.5,Raw,D,1
Kristina Podolskaya,Кристина Подольская,Open,26,F,56,55.1,Russia,,,,,,,,,,,117.5,122.5,-127.5,122.5,,122.5,Raw,D,2
Olga Poznyak,Ольга Позняк,Open,29,F,56,55.2,Belarus,,,,,,,,,,,110,115,-122.5,115,,115,Raw,D,3
Olga Poznyak,Ольга Позняк,Open,29,F,56,55.2,Belarus,,,,,,,,,,,110,115,-122.5,115,,115,Raw,D,4
Tatyana Tikhonova,Татьяна Тихонова,Sub Junior 17-19,19,F,60,59,Russia,,,,,,,,,,,-115,120,-127.5,120,,120,Raw,D,1
Viktoriya Markina,Виктория Маркина,Sub Junior 17-19,18,F,60,59.9,Russia,,,,,,,,,,,-100,,,,,,Raw,D,DQ
Linara Farkhutdinova,Линара Фархутдинова,Junior,20,F,60,59,Russia,,,,,,,,,,,80,,,80,,80,Raw,D,1
Elena Emelyova,Елена Емелёва,Master 40-49,40,F,60,59,Russia,,,,,,,,,,,127.5,,,127.5,,127.5,Raw,D,1
Anastasiya Shiryaeva,Анастасия Ширяева,Sub Junior 17-19,18,F,67.5,66.7,Russia,,,,,,,,,,,100,110,117.5,117.5,,117.5,Raw,D,1
Viktoriya Markina,Виктория Маркина,Sub Junior 17-19,18,F,67.5,67.5,Russia,,,,,,,,,,,-100,105,107.5,107.5,,107.5,Raw,D,2
Yuliya Nefedova,Юлия Нефедова,Open,31,F,67.5,66.3,Russia,,,,,,,,,,,137.5,140,142.5,142.5,,142.5,Raw,D,1
Irina Medvedeva,Ирина Медведева,Open,29,F,67.5,65.3,,,,,,,,,,,,120,,,120,,120,Raw,D,2
Yuliya Makarova,Юлия Макарова,Master 40-49,47,F,67.5,66.1,Russia,,,,,,,,,,,135,140,145,145,,145,Raw,D,1
Natalya Larina,Наталья Ларина,Master 50-59,52,F,67.5,67.5,Russia,,,,,,,,,,,-100,110,117.5,117.5,,117.5,Raw,D,1
Galina Parfyonova,Галина Парфёнова,Sub Junior 17-19,17,F,75,73.8,Kazakhstan,,,,,,,,,,,125,,,125,,125,Raw,D,1
Dinara Musaeva,Динара Мусаева,Open,36,F,75,74.1,Russia,,,,,,,,,,,125,-135,135,135,,135,Raw,D,1
Dinislam Gataev,Динислам Гатаев,Junior,20,M,56,56,Russia,,,,,,,,,,,175,,,175,,175,Raw,D,1
Dinislam Gataev,Динислам Гатаев,Open,20,M,56,56,Russia,,,,,,,,,,,175,,,175,,175,Raw,D,1
Kirill Korsakov,Кирилл Корсаков,Sub Junior 17-19,18,M,67.5,67.4,Russia,,,,,,,,,,,140,150,-160,150,,150,Raw,D,1
Andrey Kim,Андрей Ким,Open,30,M,67.5,61.7,Kazakhstan,,,,,,,,,,,235,,,235,,235,Raw,D,1
Pavel Vlasov,Павел Власов,Open,29,M,67.5,66.8,Russia,,,,,,,,,,,215,-225,-225,215,,215,Raw,D,2
Maksim Sukhobok,Максим Сухобок,Master 50-59,51,M,67.5,65.7,Russia,,,,,,,,,,,212.5,225,230,230,,230,Raw,D,1
Nikita Tremaskin,Никита Тремаскин,Sub Junior 17-19,17,M,75,71.8,Russia,,,,,,,,,,,177.5,187.5,195,195,,195,Raw,D,1
Oleg Stepanov,Олег Степанов,Open,26,M,75,74.8,Russia,,,,,,,,,,,225,,,225,,225,Raw,D,1
Aleksey Stepanets,Алексей Степанец,Open,25,M,75,74.5,Russia,,,,,,,,,,,220,-235,-235,220,,220,Raw,D,2
Ruslan Khilimonchik,Руслан Хилимончик,Master 40-49,40,M,75,74.4,Belarus,,,,,,,,,,,210,220,-225,220,,220,Raw,D,1
Sergey Nikitin,Сергей Никитин,Master 50-59,52,M,75,72.4,Russia,,,,,,,,,,,220,235,242.5,242.5,,242.5,Raw,D,1
Sergey Alampiev,Сергей Алампиев,Master 50-59,59,M,75,72.4,Russia,,,,,,,,,,,210,,,210,,210,Raw,D,2
Vadim Murich,Вадим Мурыч,Sub Junior 17-19,18,M,82.5,78,Russia,,,,,,,,,,,195,-205,-205,195,,195,Raw,D,1
Kirill Sazonov,Кирилл Сазонов,Junior,22,M,82.5,80.5,Russia,,,,,,,,,,,205,215,225,225,,225,Raw,D,1
Luvsandanzan Myanganbaatar,,Junior,23,M,82.5,82.3,Mongolia,,,,,,,,,,,192.5,,,192.5,,192.5,Raw,D,2
Aleksandr Zhigulin,Александр Жигулин,Open,29,M,82.5,82.5,Russia,,,,,,,,,,,260,270,280,280,,280,Raw,D,1
Mikhail Antoch,Михаил Анточ,Open,24,M,82.5,79.1,Russia,,,,,,,,,,,260,,,260,,260,Raw,D,2
Romav Zavyalov,Роман Завьялов,Open,36,M,82.5,78.1,Russia,,,,,,,,,,,245,257.5,-260,257.5,,257.5,Raw,D,3
Sergey Lovyagin,Сергей Ловягин,Open,32,M,82.5,81.5,Russia,,,,,,,,,,,-245,255,-260,255,,255,Raw,D,4
Sergey Evseev,Сергей Евсеев,Open,26,M,82.5,77.9,Russia,,,,,,,,,,,230,-255,-255,230,,230,Raw,D,5
Aleksandr Losuchenko,Александр Лосученко,Master 60-69,60,M,82.5,82,Russia,,,,,,,,,,,210,225,,225,,225,Raw,D,1
Viktor Fedotov,Виктор Федотов,Sub Junior 14-16,14,M,90,87.8,Russia,,,,,,,,,,,140,150,160,160,,160,Raw,D,1
Denis Goncharov,Денис Гончаров,Sub Junior 17-19,19,M,90,89.3,Russia,,,,,,,,,,,242.5,,,242.5,,242.5,Raw,D,1
Oleg Fedorets,Олег Федорец,Junior,23,M,90,89.9,Russia,,,,,,,,,,,255,,,255,,255,Raw,D,1
Petr Kireev,Петр Киреев,Junior,20,M,90,85.6,Russia,,,,,,,,,,,230,242.5,-252.5,242.5,,242.5,Raw,D,2
Pavel Protsenko,Павел Проценко,Junior,22,M,90,84.5,Russia,,,,,,,,,,,230,240,-250,240,,240,Raw,D,3
Anton Ilyasov,Антон Илясов,Open,27,M,90,89.3,Russia,,,,,,,,,,,-300,305,320,320,,320,Raw,D,1
Maksim Matveyev,Максим Матвеев,Open,35,M,90,85.8,Russia,,,,,,,,,,,270,290,-305,290,,290,Raw,D,2
Vitaliy Zheludev,Виталий Желудев,Open,31,M,90,87.1,Russia,,,,,,,,,,,-270,-270,270,270,,270,Raw,D,3
Taivantumur Amarzaya,,Open,29,M,90,89,Mongolia,,,,,,,,,,,-257.5,257.5,-262.5,257.5,,257.5,Raw,D,4
Sharavdorj Ariunbaatar,,Open,34,M,90,88.8,Mongolia,,,,,,,,,,,255,,,255,,255,Raw,D,5
Igor Kryat,Игорь Крят,Open,28,M,90,86.3,Russia,,,,,,,,,,,240,245,-250,245,,245,Raw,D,6
Andrey Bizov,Андрей Бызов,Open,34,M,90,88.5,Russia,,,,,,,,,,,235,245,-255,245,,245,Raw,D,7
Kirill Kabashov,Кирилл Кабашов,Open,26,M,90,86.9,Russia,,,,,,,,,,,220,240,-250,240,,240,Raw,D,8
Aleksandr Nemchinov,Александр Немчинов,Master 60-69,65,M,90,89.5,Russia,,,,,,,,,,,200,220,230,230,,230,Raw,D,1
Artūrs Ūdris,Артурс Удрис,Open,28,M,100,98.2,Latvia,,,,,,,,,,,270,291,300,300,,300,Raw,D,1
Pavel Popandopulo,Павел Попандопуло,Open,31,M,100,96.1,Russia,,,,,,,,,,,275,,,275,,275,Raw,D,2
Sergey Myakishev,Сергей Мякишев,Open,39,M,100,98.6,Russia,,,,,,,,,,,250,262.5,267.5,267.5,,267.5,Raw,D,3
Ruslan Timurziev,Руслан Тимурзиев,Open,31,M,100,97,Russia,,,,,,,,,,,212.5,242.5,252.5,252.5,,252.5,Raw,D,4
Stanislav Novikov,Станислав Новиков,Open,23,M,100,100,Russia,,,,,,,,,,,,,,,,,Raw,D,DQ
Pavel Bichkov,Павел Бычков,Master 40-49,41,M,100,96.3,Russia,,,,,,,,,,,240,250,-255,250,,250,Raw,D,1
Valeriy Akentyev,Валерий Акентьев,Master 50-59,58,M,100,99.1,Russia,,,,,,,,,,,200,210,220,220,,220,Raw,D,1
Murat Dzhaytabarov,Мурат Джайтабаров,Master 50-59,52,M,100,99.8,Kazakhstan,,,,,,,,,,,200,,,200,,200,Raw,D,2
Nikolai Bugaenko,Николай Бугаенко,Sub Junior 17-19,19,M,110,100.4,Russia,,,,,,,,,,,-150,-150,160,160,,160,Raw,D,1
Artyom Reshetnikov,Артём Решетников,Open,27,M,110,106.8,Russia,,,,,,,,,,,280,,,280,,280,Raw,D,1
David Sichinava,Давид Сичинава,Open,25,M,110,105.5,Russia,,,,,,,,,,,235,,,235,,235,Raw,D,2
Rustem Nigmatullin,Рустем Нигматуллин,Master 40-49,41,M,110,100.2,Russia,,,,,,,,,,,210,,,210,,210,Raw,D,1
Andrey Shishkin,Андрей Шишкин,Master 50-59,54,M,110,109.3,Russia,,,,,,,,,,,262.5,,,262.5,,262.5,Raw,D,1
Marat Dzhaylaubaev,Марат Джайлаубаев,Master 60-69,60,M,110,101.9,Kazakhstan,,,,,,,,,,,140,-160,170,170,,170,Raw,D,1
Georgiy Bebiashvili,Георгий Бебиашвили,Sub Junior 17-19,19,M,125,116.4,Russia,,,,,,,,,,,250,-260,-260,250,,250,Raw,D,1
Ivan Regulyarniy,Иван Регулярный,Open,31,M,125,121.1,Russia,,,,,,,,,,,275,295,-305,295,,295,Raw,D,1
Mikhail Naftulovich,Михаил Нафтулович,Open,24,M,125,112.3,Russia,,,,,,,,,,,260,275,-300,275,,275,Raw,D,2
Aleksandr Kirichenko,Александр Кириченко,Open,29,M,125,114.7,Russia,,,,,,,,,,,-250,-250,260,260,,260,Raw,D,3
Artyom Vorontsov,Артем Воронцов,Master 40-49,40,M,125,113.5,Russia,,,,,,,,,,,250,,,250,,250,Raw,D,1
Vladimir Polivanov,Владимир Поливанов,Master 50-59,53,M,125,122.5,Russia,,,,,,,,,,,257.5,,,257.5,,257.5,Raw,D,1
Aleksey Shoniya,Алексей Шония,Master 40-49,46,M,140,129.4,Russia,,,,,,,,,,,220,245,252.5,252.5,,252.5,Raw,D,1
