Place,Name,State,WeightClassKg,BodyweightKg,Age,Best3SquatKg,Best3BenchKg,Best3DeadliftKg,TotalKg,Sex,Division,Equipment,Event
1,Kathryn Lim,FL,52,51.40,22,75.00,45.00,135.00,255.00,F,Junior 20-23,Raw,SBD
1,Cassidy Cintron,FL,56,55.30,19,95.00,57.50,120.00,272.50,F,Junior 18-19,Raw,SBD
1,Krista Messier,FL,56,54.50,21,95.00,50.00,122.50,267.50,F,Junior 20-23,Raw,SBD
DQ,Stefanie Cohen,FL,56,55.70,23,142.50,-75.00,160.00,,F,Junior 20-23,Raw,SBD
1,Garbiela Espaillat,FL,60,58.20,22,70.00,47.50,135.00,252.50,F,Junior 20-23,Raw,SBD
1,Mariel Navarette,FL,67.5,65.20,22,107.50,57.50,145.00,310.00,F,Junior 20-23,Raw,SBD
2,Ily Nolen,FL,67.5,66.80,23,87.50,62.50,110.00,260.00,F,Junior 20-23,Raw,SBD
1,Payal Ghosh,FL,48,47.30,30,100.00,50.00,163.00,313.00,F,Open,Raw,SBD
2,Elizabeth Vigistain,FL,48,47.70,27,77.50,40.00,85.00,202.50,F,Open,Raw,SBD
1,Blanca Villoch,FL,52,51.60,32,125.00,75.00,145.00,345.00,F,Open,Raw,SBD
2,Kimberly Daorek,FL,52,51.40,29,102.50,47.50,125.00,275.00,F,Open,Raw,SBD
1,Andrea Charles,FL,56,55.00,29,130.00,72.50,125.00,327.50,F,Open,Raw,SBD
2,Celeste Vallejo,FL,56,52.30,24,92.50,65.00,120.00,277.50,F,Open,Raw,SBD
3,Cassidy Cintron,FL,56,55.30,19,95.00,57.50,120.00,272.50,F,Open,Raw,SBD
1,Amy Chatfield,FL,60,60.00,37,132.50,80.00,182.50,395.00,F,Open,Raw,SBD
1,Heidi Bower,FL,67.5,65.30,51,122.50,80.00,130.00,332.50,F,Open,Raw,SBD
2,Kelly Culbertson,FL,67.5,64.90,24,107.50,77.50,145.00,330.00,F,Open,Raw,SBD
3,Vanessa Fernandez,FL,67.5,63.90,32,110.00,57.50,127.50,295.00,F,Open,Raw,SBD
4,Erin Foley,FL,67.5,67.10,32,85.00,57.50,105.00,247.50,F,Open,Raw,SBD
1,Juliana Carvalho,FL,67.5,66.10,38,115.00,77.50,137.50,330.00,F,Submaster 35-39,Raw,SBD
1,Jennifer Castillo,FL,75,74.10,35,95.00,65.00,130.00,290.00,F,Submaster 35-39,Raw,SBD
1,Morgan Wray,FL,90,88.50,35,75.00,47.50,120.00,242.50,F,Submaster 35-39,Raw,SBD
1,Stacy Hardwicke,FL,52,51.40,41,92.50,63.00,110.00,265.50,F,Master 40-44,Raw,SBD
1,Marie Vega,FL,56,54.90,42,87.50,52.50,132.50,272.50,F,Master 40-44,Raw,SBD
1,Dana McFarlane,FL,56,52.40,49,60.00,55.00,110.00,225.00,F,Master 45-49,Raw,SBD
1,Lisa Foxwell-Jaffe,FL,60,59.90,51,95.00,70.00,110.00,275.00,F,Master 50-54,Raw,SBD
1,Heidi Bower,FL,67.5,65.30,51,122.50,80.00,130.00,332.50,F,Master 50-54,Raw,SBD
1,Gustavo Teixeira,FL,56,55.50,18,137.50,80.00,192.50,410.00,M,Junior 18-19,Raw,SBD
1,Joseph Porcelli,FL,67.5,65.80,21,192.50,105.00,210.00,507.50,M,Junior 20-23,Raw,SBD
1,Paul Donahue,FL,75,74.80,15,117.50,90.00,140.00,347.50,M,Junior 13-15,Raw,SBD
1,Matthew Keech,FL,75,70.60,17,145.00,75.00,185.00,405.00,M,Junior 16-17,Raw,SBD
1,Matthew Juber,FL,75,74.70,20,195.00,135.00,230.00,560.00,M,Junior 20-23,Raw,SBD
2,William Gibbons,FL,75,73.80,22,135.00,107.50,217.50,460.00,M,Junior 20-23,Raw,SBD
1,Curtis Colasurdo,FL,82.5,80.80,17,150.00,87.50,185.00,422.50,M,Junior 16-17,Raw,SBD
1,Robert Hutchinson,FL,82.5,78.40,19,170.00,165.00,167.50,502.50,M,Junior 18-19,Raw,SBD
1,Marco Galindo,FL,82.5,81.50,22,242.50,157.50,297.50,697.50,M,Junior 20-23,Raw,SBD
2,Adir Noriega,FL,82.5,81.50,22,210.00,142.50,242.50,595.00,M,Junior 20-23,Raw,SBD
3,Andrew Valdez,FL,82.5,80.80,22,182.50,120.00,240.00,542.50,M,Junior 20-23,Raw,SBD
4,Hector Paez,FL,82.5,81.40,21,187.50,120.00,225.00,532.50,M,Junior 20-23,Raw,SBD
DQ,Angelo Camelo,FL,82.5,76.00,23,-202.50,120.00,222.50,,M,Junior 20-23,Raw,SBD
1,Kai Chin,FL,90,89.50,21,192.50,147.50,267.50,607.50,M,Junior 20-23,Raw,SBD
2,Kevin Chou,FL,90,87.00,22,222.50,145.00,237.50,605.00,M,Junior 20-23,Raw,SBD
1,David Montoya,FL,110,108.40,17,195.00,135.00,237.50,567.50,M,Junior 16-17,Raw,SBD
1,Brett Benedix,FL,67.5,67.20,19,237.50,117.50,242.50,597.50,M,Open,Raw,SBD
2,Andres Montenegro,FL,67.5,66.80,27,175.00,137.50,202.50,515.00,M,Open,Raw,SBD
1,Jonathan Vazquez,FL,75,74.10,33,207.50,125.00,217.50,550.00,M,Open,Raw,SBD
2,Kevin Burger,FL,75,75.00,31,190.00,120.00,230.00,540.00,M,Open,Raw,SBD
1,Marco Galindo,FL,82.5,81.50,22,242.50,157.50,297.50,697.50,M,Open,Raw,SBD
2,Eric Blanco,FL,82.5,81.60,26,227.50,162.50,275.00,665.00,M,Open,Raw,SBD
3,Nicholas Bevelock,FL,82.5,81.80,24,202.50,142.50,235.00,580.00,M,Open,Raw,SBD
4,Jonathan Feil,FL,82.5,79.90,28,200.00,130.00,237.50,567.50,M,Open,Raw,SBD
DQ,Andrew Nolen,FL,82.5,80.10,27,-145.00,,,,M,Open,Raw,SBD
1,Trevor Jaffe,FL,90,88.70,36,270.00,167.50,320.00,757.50,M,Open,Raw,SBD
2,Jared Skinner,FL,90,90.00,28,250.00,170.00,300.00,720.00,M,Open,Raw,SBD
3,Garrett Johnson,FL,90,87.40,27,230.00,135.00,262.50,627.50,M,Open,Raw,SBD
4,Joshua Harmon,FL,90,86.50,27,207.50,135.00,235.00,577.50,M,Open,Raw,SBD
5,Juan Casares,FL,90,88.70,24,190.00,140.00,235.00,565.00,M,Open,Raw,SBD
6,Felipe Montoya,FL,90,88.80,27,137.50,120.00,192.50,450.00,M,Open,Raw,SBD
1,John Holler,FL,100,99.40,28,250.00,172.50,250.00,672.50,M,Open,Raw,SBD
2,Daniel Cheshire,FL,100,98.50,20,220.00,160.00,270.00,650.00,M,Open,Raw,SBD
3,Michael Ahlers,FL,100,96.50,29,182.50,137.50,227.50,547.50,M,Open,Raw,SBD
1,Mike Fidanza,FL,110,105.10,29,257.50,197.50,257.50,712.50,M,Open,Raw,SBD
2,Matt Kalkbrenner,FL,110,110.00,28,230.00,195.00,267.50,692.50,M,Open,Raw,SBD
3,Luis Perez,FL,110,109.90,26,250.00,105.00,257.20,612.20,M,Open,Raw,SBD
4,Joshua Carmichael,FL,110,107.70,27,205.00,127.50,245.00,577.50,M,Open,Raw,SBD
1,Michael Leithner,FL,125,122.60,26,205.00,165.00,247.50,617.50,M,Open,Raw,SBD
1,Frank Medina,FL,140+,148.10,26,280.00,175.00,285.00,740.00,M,Open,Raw,SBD
1,Sergio Garcia,FL,75,74.70,35,172.50,105.00,227.50,505.00,M,Submaster 35-39,Raw,SBD
2,Alfred Villoch,FL,75,73.90,38,155.00,115.00,217.50,487.50,M,Submaster 35-39,Raw,SBD
1,Robert Melgar,FL,100,97.70,36,177.50,162.50,225.00,565.00,M,Submaster 35-39,Raw,SBD
1,Gilbert Adams,FL,110,107.80,35,215.00,140.00,247.50,602.50,M,Submaster 35-39,Raw,SBD
1,Ron Fellows,FL,75,74.40,50,155.00,112.50,207.50,475.00,M,Master 50-54,Raw,SBD
1,Steven Mickenberg,FL,82.5,80.20,54,175.00,125.00,195.00,495.00,M,Master 50-54,Raw,SBD
1,Jon Riggs,FL,110,107.60,44,145.00,122.50,197.50,465.00,M,Master 40-44,Raw,SBD
1,Skyler Leaphart,FL,52,52.00,16,85.00,42.50,115.00,242.50,F,Junior 16-17,Wraps,SBD
1,Destiny Grissom,FL,67.5,61.50,18,97.50,45.00,110.00,252.50,F,Junior 18-19,Wraps,SBD
DQ,Austin Whiteman,FL,67.5,65.90,18,105.00,70.00,-115.00,,M,Junior 18-19,Wraps,SBD
DQ,Angelo Camelo,FL,82.5,76.00,23,-202.50,120.00,222.50,,M,Junior 20-23,Wraps,SBD
1,Bobby Pettis,FL,125,124.80,23,317.50,182.50,335.50,835.50,M,Junior 20-23,Wraps,SBD
1,Vashon Perryman,FL,82.5,80.60,29,267.50,145.00,300.00,712.50,M,Open,Wraps,SBD
2,Eddy Ryckman,FL,82.5,82.10,23,265.00,152.50,272.50,690.00,M,Open,Wraps,SBD
1,Peter Tsao,FL,90,89.90,26,287.50,157.50,300.00,745.00,M,Open,Wraps,SBD
1,Geoffrey Shaffer,FL,125,121.80,34,282.50,170.00,292.50,745.00,M,Open,Wraps,SBD
1,Hugo Ruiz,FL,82.5,82.20,35,230.00,137.50,227.50,595.00,M,Submaster 35-39,Wraps,SBD
1,Jake Benedix,FL,67.5,67.30,21,237.50,150.00,215.00,602.50,M,Junior 20-23,Single-ply,SBD
1,Andrew Williamson,FL,82.5,81.30,19,242.50,122.50,205.00,570.00,M,Junior 18-19,Single-ply,SBD
1,Alejandro Ferret,FL,90,89.50,25,,190.00,,190.00,M,Open,Raw,B
1,Jeremy Hoornstra,FL,110,109.60,34,,287.50,,287.50,M,Open,Raw,B
1,Brock Pasteur,FL,125,124.70,31,,240.00,,240.00,M,Open,Raw,B
1,Steven Mickenberg,FL,82.5,80.20,54,,125.00,,125.00,M,Master 50-54,Raw,B
1,Rick Bretz,FL,110,106.60,67,,170.00,,170.00,M,Master 65-69,Raw,B
1,Wayne Mayberry,FL,140+,150.40,45,,217.50,,217.50,M,Master 45-49,Raw,B
1,Steven Mickenberg,FL,82.5,80.20,54,,,195.00,195.00,M,Master 50-54,Raw,D
