Event,Sex,Name,State,BodyweightKg,WeightClassKg,Division,Best3BenchKg,TotalKg,Equipment,Place
B,M,Denis Cyr,QU,95.5,100,Master 1,145,145,Single-ply,1
B,M,Richard Lapointe,QU,86.5,90,Master 2,150,150,Single-ply,1
B,M,Donald Cyr,QU,85,90,Junior,107.5,107.5,Single-ply,1
B,M,Stephane Vallieres,QU,80.5,82.5,Junior,122.5,122.5,Single-ply,1
B,M,Dominique Cyr,QU,80,82.5,Junior,80,80,Single-ply,2
B,M,Nicolas Goulet,QU,71.5,75,Junior,90,90,Single-ply,2
B,M,Martin Huppe,QU,74.5,75,Junior,122.5,122.5,Single-ply,1
B,M,Pierre-Luc Brunel,QU,36.5,52,Junior,32.5,32.5,Single-ply,2
B,M,Alexandre Cyr,QU,47.8,52,Junior,40,40,Single-ply,1
