Division,Name,Sex,Country,BirthYear,WeightClassKg,BodyweightKg,Squat1Kg,Squat2Kg,Squat3Kg,Best3SquatKg,Bench1Kg,Bench2Kg,Bench3Kg,Best3BenchKg,Deadlift1Kg,Deadlift2Kg,Deadlift3Kg,Best3DeadliftKg,TotalKg,Event,Equipment,Place
Sub-Juniors,Wei-Jou Chen,F,Taiwan,1991,44,41.9,110,120,125,125,55,60,62.5,62.5,120,127.5,132.5,132.5,320,SBD,Single-ply,1
Juniors,Elena Tsoy,F,Uzbekistan,1988,44,44,-55,55,60,60,20,-25,-25,20,65,70,75,75,155,SBD,Single-ply,1
Sub-Juniors,Wen Hsuan Pang,F,Taiwan,1993,48,45.15,100,105,107.5,107.5,55,60,62.5,62.5,125,-127.5,-127.5,125,295,SBD,Single-ply,1
Sub-Juniors,Das Tania,F,India,1990,48,46.6,90,100,115,115,45,55,-60,55,90,105,-127.5,105,275,SBD,Single-ply,2
Sub-Juniors,Svetlana Kamaeva,F,Uzbekistan,1992,48,45.5,50,65,-70,65,25,30,32.5,32.5,60,65,70,70,167.5,SBD,Single-ply,3
Open,Anastassiya Kolesnikova,F,Kazakhstan,1987,48,47.55,120,130,135,135,55,60,65,65,130,140,-150,140,340,SBD,Single-ply,1
Open,Santos Jessica,F,Philippines,1974,48,45.1,105,-112.5,-112.5,105,42.5,47.5,-55,47.5,122.5,130,135,135,287.5,SBD,Single-ply,2
Open,Thakur Dhanvantri,F,India,1969,48,46.95,30,40,45,45,20,25,30,30,-50,-50,55,55,130,SBD,Single-ply,3
Sub-Juniors,Inna Vedyushkina,F,Kazakhstan,1990,52,50.75,110,117.5,125,125,62.5,72.5,77.5,77.5,100,115,122.5,122.5,325,SBD,Single-ply,1
Sub-Juniors,Alena Somova,F,Uzbekistan,1992,52,51.5,90,100,-115,100,35,40,45,45,90,110,120,120,265,SBD,Single-ply,2
Juniors,Chia-Yu Lee,F,Taiwan,1987,52,50.9,135,140,145,145,85,90,100,100,160,170,178.5,178.5,423.5,SBD,Single-ply,1
Juniors,Damira Habibullina,F,Turkmenistan,1988,52,51.5,-120,125,135,135,60,-65,65,65,100,122.5,125,125,325,SBD,Single-ply,2
Juniors,Viktoriya Mashtakova,F,Kazakhstan,1988,52,51.7,120,130,-135,130,55,57.5,-62.5,57.5,120,125,-135,125,312.5,SBD,Single-ply,3
Open,Yi-Ju Chou,F,Taiwan,1980,52,50.45,-155,155,160,160,70,77.5,80,80,170,180,191,191,431,SBD,Single-ply,1
Open,Marina Burik,F,Kazakhstan,1993,52,51,-135,135,140,140,55,60,-65,60,120,130,140,140,340,SBD,Single-ply,2
Open,Muhtaram Alieva,F,Uzbekistan,1973,52,51.95,60,70,80,80,25,35,45,45,70,80,90,90,215,SBD,Single-ply,3
Sub-Juniors,Kristina Hanko,F,Turkmenistan,1990,56,54.95,105,-120,120,120,-45,50,-60,50,107.5,117.5,122.5,122.5,292.5,SBD,Single-ply,1
Juniors,Acharya Rekha,F,India,1987,56,53.25,110,117.5,125,125,60,-65,65,65,-110,115,125,125,315,SBD,Single-ply,1
Juniors,Lee Sy Charlle,F,Philippines,1985,56,52.05,92.5,110,120,120,-62.5,62.5,67.5,67.5,115,117.5,-125,117.5,305,SBD,Single-ply,2
Juniors,Anna Vasina,F,Uzbekistan,1985,56,53.85,90,110,120,120,40,50,52.5,52.5,100,115,-125,115,287.5,SBD,Single-ply,3
Masters 1,Medina Merlina,F,Philippines,1968,56,52.6,-135,135,-143.5,135,87.5,-93.5,-93.5,87.5,115,-130,-130,115,337.5,SBD,Single-ply,1
Open,Vasquez Rosemarie,F,Philippines,1970,56,55.75,130,-140,-140,130,-92.5,-92.5,92.5,92.5,130,140,145,145,367.5,SBD,Single-ply,1
Open,Uryupova-eniya,F,Kazakhstan,1987,56,55.6,130,-135,-135,130,72.5,-80,80,80,135,-142.5,142.5,142.5,352.5,SBD,Single-ply,2
Open,Kumari Sudha,F,India,1979,56,52.35,115,-130,137.5,137.5,70,80,,80,115,125,-135,125,342.5,SBD,Single-ply,3
Sub-Juniors,Elymira Ramileva,F,Uzbekistan,1990,60,56.15,120,127.5,-130,127.5,50,-55,-55,50,120,125,-127.5,125,302.5,SBD,Single-ply,1
Sub-Juniors,Jeren Tuyliyeva,F,Turkmenistan,1991,60,57.4,100,115,120,120,50,-57.5,57.5,57.5,100,110,-115,110,287.5,SBD,Single-ply,2
Sub-Juniors,M. Mamasalyieva,F,Uzbekistan,1991,60,59.75,90,100,110,110,40,-45,45,45,100,110,115,115,270,SBD,Single-ply,3
Sub-Juniors,Khan Ashma,F,India,1991,60,56.8,70,80,-85,80,40,45,-50,45,90,-95,,90,215,SBD,Single-ply,4
Juniors,Yekaterina Poplavskaya,F,Kazakhstan,1988,60,60,155,-167.5,177.5,177.5,75,85,-87.5,85,125,-152.5,-152.5,125,387.5,SBD,Single-ply,1
Juniors,Monica Ang Cardenas,F,Philippines,1988,60,57.3,110,-115,-120,110,55,-62.5,62.5,62.5,100,115,-122.5,115,287.5,SBD,Single-ply,2
Juniors,Rama,F,India,1985,60,56.05,40,,,40,30,,,30,50,,,50,120,SBD,Single-ply,3
Open,Anastasiya Gusseva,F,Kazakhstan,1989,60,59.2,140,-150,150,150,85,95,-100,95,130,140,150,150,395,SBD,Single-ply,1
Sub-Juniors,Suria Prebha Ganpathy,F,India,1991,67.5,65.65,140,-150,-150,140,55,62.5,-65,62.5,130,140,-145,140,342.5,SBD,Single-ply,1
Sub-Juniors,Gulmirahon Ergasheva,F,Uzbekistan,1992,67.5,64.05,80,-90,90,90,30,-40,-40,30,-90,90,100,100,220,SBD,Single-ply,2
Juniors,Wei-Jung Tseng,F,Taiwan,1985,67.5,66.95,170,185,190,190,80,90,95,95,180,-187.5,187.5,187.5,472.5,SBD,Single-ply,1
Juniors,Nafisahon Askarova,F,Uzbekistan,1986,67.5,63.2,85,90,-95,90,40,45,50,50,100,110,115,115,255,SBD,Single-ply,2
Open,Hsiao-Li Hsu,F,Taiwan,1981,67.5,66.3,-185,185,192.5,192.5,97.5,105,110,110,190,197.5,-218.5,197.5,500,SBD,Single-ply,1
Open,Yekaterina Kryukova,F,Kazakhstan,1985,67.5,67.05,175,185,-190,185,100,105,110,110,170,-180,-180,170,465,SBD,Single-ply,2
Juniors,Gokilavani P.,F,India,1985,75,74.05,165,-175,180,180,65,75,-77.5,75,155,165,172.5,172.5,427.5,SBD,Single-ply,1
Masters 2,C.D.Ratanmani Roy,F,India,1955,75,69.6,100,120,126,126,50,60,63.5,63.5,100,120,133.5,133.5,323,SBD,Single-ply,1
Open,Valida Iskandarova,F,Kazakhstan,1974,75,70.2,220,-230,-230,220,-130,-132.5,132.5,132.5,210,220,-227.5,220,572.5,SBD,Single-ply,1
Open,Gope Seema,F,India,1984,75,67.65,130,140,150,150,80,90,-95,90,140,150,-155,150,390,SBD,Single-ply,2
Sub-Juniors,You-Chia Chen,F,Taiwan,1990,82.5,77.65,150,160,167.5,167.5,85,91,-95,91,160,175,-180,175,433.5,SBD,Single-ply,1
Juniors,Ting Wang,F,Taiwan,1988,82.5,80.5,160,167.5,175,175,85,95,-97.5,95,170,185,192.5,192.5,462.5,SBD,Single-ply,1
Open,Min-Chu Hung,F,Taiwan,1983,82.5,79.65,180,182.5,-200,182.5,150,158.5,160,160,150,-190,-190,150,492.5,SBD,Single-ply,1
Open,Sunita,F,India,1974,82.5,77.6,130,140,150,150,55,62.5,67.5,67.5,125,135,142.5,142.5,360,SBD,Single-ply,2
Juniors,Kaur Manjeet,F,India,1988,90,86.05,-140,150,170,170,95,100,105,105,-140,140,150,150,425,SBD,Single-ply,1
Masters 1,Pecante Erlina,F,Philippines,1964,90,84.4,180,-211,-211,180,105,-121,125,125,180,200,,200,505,SBD,Single-ply,1
Masters 1,Natalya Zaharova,F,Uzbekistan,1965,90,82.75,60,75,,75,40,45,,45,80,100,,100,220,SBD,Single-ply,2
Open,Ya-Wen Chang,F,Taiwan,1984,90,85.65,231,240,250,250,120,127.5,130,130,205,215,-225,215,595,SBD,Single-ply,1
Open,Kulkarni Deepali,F,India,1979,90,87.55,140,150,155,155,60,65,-70,65,140,147.5,152.5,152.5,372.5,SBD,Single-ply,2
Open,Yuliya Stesenko,F,Uzbekistan,1984,90+,90.2,150,165,,165,80,-110,110,110,150,165,,165,440,SBD,Single-ply,1
Sub-Juniors,Chun-Lin Wang,M,Taiwan,1990,52,51.45,165,172.5,188.5,188.5,90,100,-106,100,170,-185,195,195,483.5,SBD,Single-ply,1
Sub-Juniors,Artur Kazaryan,M,Uzbekistan,1990,52,51.3,130,-135,-135,130,55,62.5,70,70,130,142.5,-150,142.5,342.5,SBD,Single-ply,2
Sub-Juniors,Yuriy Antonov,M,Uzbekistan,1991,52,51.75,110,120,125,125,70,77.5,-85,77.5,110,120,-125,120,322.5,SBD,Single-ply,3
Sub-Juniors,Zafar Ahmedov,M,Uzbekistan,1990,56,55.8,165,180,185,185,102.5,110,-115,110,155,167.5,-172.5,167.5,462.5,SBD,Single-ply,1
Sub-Juniors,Chao-Sheng Yang,M,Taiwan,1991,56,55.85,145,157.5,-165,157.5,95,100,102.5,102.5,185,-205,-205,185,445,SBD,Single-ply,2
Sub-Juniors,Darkhan Mukhametzhanov,M,Kazakhstan,1990,56,55.4,-160,-160,-160,,90,95,-97.5,95,165,175,,175,,SBD,Single-ply,DQ
Juniors,Bayrammurad Amanmuradov,M,Turkmenistan,1985,56,55.85,160,175,185,185,120,130,-140,130,-180,-180,180,180,495,SBD,Single-ply,1
Juniors,Vashudv Sarswat,M,India,1986,56,56,130,140,145,145,80,90,95,95,165,185,-192.5,185,425,SBD,Single-ply,2
Juniors,Jamal Nasser Turki,M,Oman,1990,56,55.85,170,-180,180,180,50,60,,60,-160,160,-185,160,400,SBD,Single-ply,3
Juniors,Umid Eshtaylakov,M,Uzbekistan,1987,56,53.7,110,130,-145,130,75,85,-95,85,120,135,145,145,360,SBD,Single-ply,4
Masters 2,Taguibao Antonio,M,Philippines,1958,56,55.3,175,,,175,82.5,,,82.5,100,172.5,,172.5,430,SBD,Single-ply,1
Masters 3,Viktor Ronzhin,M,Kazakhstan,1947,56,55.2,90,110,-117.5,110,60,67.5,-72.5,67.5,-100,100,120,120,297.5,SBD,Single-ply,1
Masters 3,Mazdestan M. Ebrhim,M,Uzbekistan,1946,56,53.75,55,70,80,80,45,55,57.5,57.5,80,100,102.5,102.5,240,SBD,Single-ply,2
Open,Tan Paul,M,Philippines,1983,56,55.45,-160,160,170,170,130,135,142.5,142.5,185,192.5,205,205,517.5,SBD,Single-ply,1
Open,Ilkhomiddin Buriev,M,Uzbekistan,1982,56,53,180,190,192.5,192.5,90,97.5,102.5,102.5,-180,180,-187.5,180,475,SBD,Single-ply,2
Open,M. Patade Satish,M,India,1963,56,56,130,137.5,142.5,142.5,80,-95,95,95,130,140,150,150,387.5,SBD,Single-ply,3
Sub-Juniors,Pavel Marda,M,Kazakhstan,1990,60,58.45,170,180,190,190,110,120,-122.5,120,-200,200,-220,200,510,SBD,Single-ply,1
Sub-Juniors,Bauypzhan Kapyshev,M,Kazakhstan,1991,60,59.15,160,-180,180,180,100,105,110,110,150,155,160,160,450,SBD,Single-ply,2
Sub-Juniors,U. Dilmurotov,M,Uzbekistan,1990,60,57.55,135,147.5,-155,147.5,80,90,92.5,92.5,145,-157.5,-157.5,145,385,SBD,Single-ply,3
Sub-Juniors,Anvar Akrami,M,Tajikistan,1992,60,59.75,-80,100,115,115,40,50,60,60,80,-100,100,100,275,SBD,Single-ply,4
Juniors,Aman Kapyshev,M,Kazakhstan,1987,60,59.75,195,205,210,210,-135,135,140,140,180,185,-190,185,535,SBD,Single-ply,1
Juniors,K. Patra Pardip,M,India,1989,60,59.6,180,-195,-195,180,105,112.5,120,120,210,-225,-225,210,510,SBD,Single-ply,2
Juniors,Darwish Awlad Thani Jalal,M,Oman,1989,60,60,165,177.5,182.5,182.5,70,80,-82.5,80,170,182.5,-190,182.5,445,SBD,Single-ply,3
Juniors,Ruslan Kadirov,M,Uzbekistan,1988,60,59.4,-140,140,150,150,80,-85,-85,80,180,187.5,190,190,420,SBD,Single-ply,4
Juniors,Akilbek Kushmanov,M,Uzbekistan,1988,60,59.65,120,135,142.5,142.5,70,77.5,82.5,82.5,110,130,-150,130,355,SBD,Single-ply,5
Masters 1,A Sattarov,M,Uzbekistan,1961,60,56.9,90,100,105,105,50,55,-60,55,120,130,135,135,295,SBD,Single-ply,1
Masters 1,Ralif Khuzin,M,Uzbekistan,1963,60,59.4,70,90,-100,90,50,60,-65,60,70,100,110,110,260,SBD,Single-ply,2
Masters 2,Purna Chandra Bidika,M,India,1957,60,57.8,130,145,150,150,50,-65,-65,50,140,150,155,155,355,SBD,Single-ply,1
Masters 3,Nikolay Nekrasov,M,Kazakhstan,1939,60,59.3,130,135,140,140,67.5,-72.5,72.5,72.5,130,145,-155,145,357.5,SBD,Single-ply,1
Masters 3,A Dilymuradov,M,Uzbekistan,1938,60,59.05,-80,80,90,90,-40,40,-50,40,90,100,105,105,235,SBD,Single-ply,2
Open,Tsung-Ting Hsieh,M,Taiwan,1982,60,59.65,250,260,270,270,-180,180,-194,180,250,270,-286,270,720,SBD,Single-ply,1
Open,Pedamkar Mahesh,M,India,1978,60,59.75,225,235,240,240,127.5,135,-140,135,-215,215,-225,215,590,SBD,Single-ply,2
Open,M. Nigmatullin,M,Uzbekistan,1979,60,59.1,170,180,-185,180,110,120,125,125,170,-187.5,195,195,500,SBD,Single-ply,3
Open,D. Singh Diwan,M,India,1979,60,59.15,175,185,-192.5,185,105,115,-122.5,115,175,190,-195,190,490,SBD,Single-ply,4
Sub-Juniors,Farruhbek Daliev,M,Uzbekistan,1990,67.5,63.5,150,165,-170,165,85,95,-100,95,160,-170,-170,160,420,SBD,Single-ply,1
Masters 1,James Joseph,M,India,1966,67.5,65.9,175,185,-190,185,105,110,-112.5,110,170,180,-190,180,475,SBD,Single-ply,1
Masters 1,Alisher. Normurzayev,M,Uzbekistan,1965,67.5,67.25,130,140,-150,140,80,85,90,90,140,150,-155,150,380,SBD,Single-ply,2
Masters 1,Hiroyuki Terakado,M,Japan,1960,67.5,66.3,-190,-200,-200,,105,-132.5,-132.5,105,215,-220,,215,,SBD,Single-ply,DQ
Masters 2,Yoshinori Hara,M,Japan,1958,67.5,65.4,160,180,-185,180,85,95,-97.5,95,220,-230,-230,220,495,SBD,Single-ply,1
Masters 2,Yuriy Tsoyi,M,Uzbekistan,1952,67.5,66.4,110,125,-130,125,100,110,115,115,120,130,140,140,380,SBD,Single-ply,2
Masters 3,Toru Magome,M,Japan,1943,67.5,67.15,145,155,-162.5,155,165,169.5,-172.5,169.5,130,145,-155,145,469.5,SBD,Single-ply,1
Masters 3,Kharis Izmaylov,M,Uzbekistan,1939,67.5,63.5,115,135,-145,135,70,75,-77.5,75,140,160,180,180,390,SBD,Single-ply,2
Masters 3,Petr Shubin,M,Kazakhstan,1937,67.5,66.1,-70,70,80,80,60,-70,-75,60,100,115,120,120,260,SBD,Single-ply,3
Juniors,Alexandr Vaskov,M,Kazakhstan,1986,67.5,66.35,230,240,250,250,160,165,-170,165,210,-220,220,220,635,SBD,Single-ply,1
Juniors,Vladimir Folman,M,Kazakhstan,1986,67.5,66.7,225,235,242.5,242.5,130,137.5,-140,137.5,230,-235,-237.5,230,610,SBD,Single-ply,2
Juniors,Kirill Shapovalov,M,Uzbekistan,1987,67.5,65.8,210,-225,225,225,135,145,-150,145,-230,230,-245,230,600,SBD,Single-ply,3
Juniors,Nasser Al Tamimi Saleh,M,Oman,1985,67.5,66.15,180,-205,-217.5,180,115,-125,-125,115,205,217.5,220,220,515,SBD,Single-ply,5
Juniors,Shirur Ragimov,M,Uzbekistan,1985,67.5,64.9,205,-215,-215,205,125,-140,140,140,200,210,215,215,560,SBD,Single-ply,4
Juniors,Kumar C. Ravi,M,India,1987,67.5,67,175,185,-200,185,110,120,127.5,127.5,-175,175,185,185,497.5,SBD,Single-ply,6
Juniors,Kucheriavykh Peter,M,Kyrgyzstan,1988,67.5,64,-190,-205,205,205,-110,110,-120,110,,,,,,SBD,Single-ply,DQ
Open,Ming-Hui Lin,M,Taiwan,1983,67.5,66.65,250,255,260,260,175,180,182.5,182.5,230,240,250,250,692.5,SBD,Single-ply,1
Open,Assyilzhan Almerdenov,M,Kazakhstan,1985,67.5,67.05,240,250,255,255,140,-150,-150,140,240,250,255,255,650,SBD,Single-ply,2
Open,Eldar Gadyrmamedov,M,Turkmenistan,1982,67.5,66.2,-180,180,-190,180,110,115,-117.5,115,220,-230,230,230,525,SBD,Single-ply,3
Open,Murod Aliev,M,Tajikistan,1979,67.5,67.5,150,-170,-170,150,100,-115,-115,100,180,-200,,180,430,SBD,Single-ply,4
Open,Domitriy Kozba,M,Kazakhstan,1986,67.5,66.3,240,250,255,255,-180,-180,-180,,-230,,,,,SBD,Single-ply,DQ
Masters 1,Makoto Yamaguchi,M,Japan,1963,75,74.6,-235,235,245,245,140,-145,145,145,210,230,-240,230,620,SBD,Single-ply,1
Masters 1,Rahimov Alym,M,Kyrgyzstan,1966,75,74.55,-190,190,210,210,120,130,-135,130,210,225,250,250,590,SBD,Single-ply,2
Masters 1,Jafari Reza,M,Iran,1960,75,74.95,210,-225,225,225,130,-140,145,145,185,200,-225,200,570,SBD,Single-ply,3
Masters 1,Ferdaus Rezavanov,M,Uzbekistan,1965,75,69.55,150,165,-175,165,80,90,-97.5,90,170,185,-200,185,440,SBD,Single-ply,4
Masters 1,Ka-Po Gable Wang,M,Hong Kong,1959,75,71.7,-120,120,-130,120,105,-110,-110,105,130,150,162.5,162.5,387.5,SBD,Single-ply,5
Masters 2,Habibillo Kadirov,M,Uzbekistan,1955,75,73.25,-150,150,190,190,100,115,-122.5,115,170,180,190,190,495,SBD,Single-ply,1
Masters 2,Husanboy Nazirov,M,Uzbekistan,1955,75,75,-150,-150,150,150,60,70,-80,70,140,-150,150,150,370,SBD,Single-ply,2
Masters 3,Mitsuru Osawa,M,Japan,1941,75,74.45,170,182.5,190,190,115,-120,-120,115,180,190,197.5,197.5,502.5,SBD,Single-ply,1
Masters 3,Talipbek Alzhanov,M,Kazakhstan,1942,75,70.55,120,135,145,145,90,95,100,100,140,155,160,160,405,SBD,Single-ply,2
Masters 3,Georgiy Petrosov,M,Uzbekistan,1934,75,67.9,100,110,120,120,60,70,-72.5,70,110,140,-150,140,330,SBD,Single-ply,3
Sub-Juniors,Barati Karim,M,Iran,1991,75,73.7,180,205,225,225,100,120,127.5,127.5,180,-207.5,207.5,207.5,560,SBD,Single-ply,1
Sub-Juniors,Andrey Cheremissin,M,Kazakhstan,1990,75,74.45,-185,190,-207.5,190,105,115,122.5,122.5,180,195,-200,195,507.5,SBD,Single-ply,2
Sub-Juniors,Alisher Shodiev,M,Uzbekistan,1990,75,73.7,170,190,-205,190,95,102.5,-107.5,102.5,190,205,-210,205,497.5,SBD,Single-ply,3
Sub-Juniors,Faridun Pulatov,M,Tajikistan,1993,75,68.7,50,62.5,-72.5,62.5,40,50,60,60,-60,60,,60,182.5,SBD,Single-ply,4
Juniors,Denis Ivkov,M,Kazakhstan,1988,75,74,275,285,292.5,292.5,170,-180,-180,170,250,262.5,265,265,727.5,SBD,Single-ply,1
Juniors,Hmadi Milani Ali Babaa,M,Iran,1985,75,74.6,260,270,-285,270,160,172.5,180,180,235,255,-280,255,705,SBD,Single-ply,2
Juniors,Vadim Zyabkin,M,Kazakhstan,1988,75,74.4,250,260,270,270,170,-180,-180,170,230,-240,240,240,680,SBD,Single-ply,3
Juniors,Chin-Kuo Tsai,M,Taiwan,1987,75,70.8,240,250,-260,250,130,135,137.5,137.5,245,-255,255,255,642.5,SBD,Single-ply,4
Juniors,Mohammad Reza Sadeghali,M,Iran,1989,75,74.65,185,200,-215,200,120,150,160,160,180,200,210,210,570,SBD,Single-ply,5
Juniors,Bakhromjon Majidov,M,Uzbekistan,1989,75,68.15,180,-200,200,200,90,-92.5,-107.5,90,130,200,220,220,510,SBD,Single-ply,6
Juniors,Elydor Saydaliev,M,Uzbekistan,1989,75,69.7,-240,-240,-240,,100,110,-120,110,220,230,,230,,SBD,Single-ply,DQ
Open,Lung-Hsin Huang,M,Taiwan,1981,75,74.6,250,272.5,282.5,282.5,200,-210,210,210,280,285,300,300,792.5,SBD,Single-ply,1
Open,Akbarileilami Soleiman,M,Iran,1981,75,73.4,250,260,275,275,180,190,-195,190,250,270,282.5,282.5,747.5,SBD,Single-ply,2
Open,Andrey Prokopenko,M,Kazakhstan,1988,75,74.4,280,290,-295,290,170,-177.5,-177.5,170,270,277.5,-290,277.5,737.5,SBD,Single-ply,3
Open,Khoshnoud Kelishomi Amin,M,Iran,1980,75,74.2,260,280,-285,280,170,-185,-185,170,-260,270,-287.5,270,720,SBD,Single-ply,4
Open,Andrey Smirnov,M,Kazakhstan,1983,75,74.45,270,282.5,290,290,150,157.5,-160,157.5,-270,270,-277.5,270,717.5,SBD,Single-ply,5
Open,K. Sharma Ramesh,M,India,,75,75,230,240,250,250,-162.5,-162.5,162.5,162.5,240,262.5,-275,262.5,675,SBD,Single-ply,6
Open,Dalvi Samir,M,India,1979,75,73.65,240,-255,255,255,142.5,152.5,157.5,157.5,215,230,240,240,652.5,SBD,Single-ply,7
Open,Ruslan Ibineev,M,Uzbekistan,1982,75,73.4,-200,200,225,225,160,170,-175,170,230,245,255,255,650,SBD,Single-ply,8
Open,Merdan Nursahatov,M,Turkmenistan,1976,75,71.3,200,215,230,230,172.5,180,-185,180,220,-230,-230,220,630,SBD,Single-ply,9
Open,Askerov Ruslan,M,Kyrgyzstan,1980,75,74.1,240,-250,-250,240,140,-170,-170,140,220,240,-255,240,620,SBD,Single-ply,10
Open,Ariunbaatar Sharavdorj,M,Mongolia,1982,75,74.25,230,250,-270,250,115,-122.5,,115,250,-265,-272.5,250,615,SBD,Single-ply,11
Open,Bakhtiyr Kubanov,M,Tajikistan,,75,74.8,140,160,190,190,135,-145,-145,135,150,,,150,475,SBD,Single-ply,12
Open,Said Al Hasni Yousuf,M,Oman,1984,75,74.15,215,230,240,240,-145,-145,-145,,-235,-235,,,,SBD,Single-ply,DQ
Masters 1,Armoon Hossein,M,Iran,1968,82.5,81.95,-230,230,250,250,120,150,160,160,240,260,270,270,680,SBD,Single-ply,1
Masters 1,Koichi Taniguchi,M,Japan,1960,82.5,75.35,-205,205,215,215,150,157.5,162.5,162.5,215,230,-245,230,607.5,SBD,Single-ply,2
Masters 2,Fotovat Esmaeil,M,Iran,1955,82.5,80.5,150,-170,-170,150,130,-140,-140,130,-150,150,-182.5,150,430,SBD,Single-ply,1
Masters 2,Saedei Sohrab,M,Iran,1955,82.5,77.5,120,140,-147.5,140,80,-95,-95,80,160,175,180,180,400,SBD,Single-ply,2
Masters 3,Toshio Kitano,M,Japan,1946,82.5,82.05,-220,-225,225,225,-165,-165,165,165,220,-235,-235,220,610,SBD,Single-ply,1
Masters 3,Rafail Abdurakhmanov,M,Kazakhstan,1939,82.5,75.3,-120,-120,-120,,75,-80,-90,75,160,170,,170,,SBD,Single-ply,DQ
Sub-Juniors,Denis Kozba,M,Kazakhstan,1990,82.5,81.15,240,-250,250,250,160,165,167.5,167.5,240,-282.5,-282.5,240,657.5,SBD,Single-ply,1
Sub-Juniors,K. Vorobyev,M,Uzbekistan,1991,82.5,75.55,120,130,140,140,60,70,77.5,77.5,130,150,157.5,157.5,375,SBD,Single-ply,2
Juniors,Salmani Mehdi,M,Iran,1985,82.5,81.9,260,280,295,295,150,165,-170,165,275,290,-300,290,750,SBD,Single-ply,1
Juniors,Ruslan Sadykov,M,Kazakhstan,1986,82.5,82.1,235,245,255,255,-165,170,182.5,182.5,240,260,-270,260,697.5,SBD,Single-ply,2
Juniors,Robert Syavkaev,M,Kazakhstan,1985,82.5,76.65,260,270,-280,270,155,162.5,167.5,167.5,245,-260,-260,245,682.5,SBD,Single-ply,3
Juniors,Llyziz Ramilev,M,Uzbekistan,1989,82.5,81.75,190,205,215,215,100,112.5,117.5,117.5,210,230,247.5,247.5,580,SBD,Single-ply,4
Juniors,Tapan Ulhas Worlikar,M,India,1989,82.5,81.9,210,220,225,225,-110,115,-120,115,210,225,-232.5,225,565,SBD,Single-ply,5
Juniors,Abdullah K. Aulad Imad Thani,M,Oman,1988,82.5,80,180,200,-210,200,110,125,130,130,180,-210,210,210,540,SBD,Single-ply,6
Juniors,Dehbozorgi Amin,M,Iran,1985,82.5,79.65,-260,-260,-260,,150,160,170,170,-265,-265,,,,SBD,Single-ply,DQ
Open,Kirill Pavlenko,M,Kazakhstan,1988,82.5,81.35,300,315,325,325,180,190,-197.5,190,-290,290,313,313,828,SBD,Single-ply,1
Open,Soltani Farshid,M,Iran,1969,82.5,82.4,275,290,302.5,302.5,187.5,-192.5,-192.5,187.5,270,282.5,292.5,292.5,782.5,SBD,Single-ply,2
Open,Denis Korshunov,M,Uzbekistan,1982,82.5,81.25,230,250,270,270,180,192.5,200,200,240,255,262.5,262.5,732.5,SBD,Single-ply,3
Open,Munkh-Erdene Davaatseren,M,Mongolia,1975,82.5,82,265,275,-282.5,275,185,192.5,-197.5,192.5,230,240,265,265,732.5,SBD,Single-ply,4
Open,Rosales Richie,M,Philippines,1976,82.5,78.55,250,-260,260,260,220,-229,229,229,230,-260,-260,230,719,SBD,Single-ply,5
Open,Setoodeh Farzad,M,Iran,1989,82.5,79,-230,230,255,255,160,175,-182.5,175,230,250,-260,250,680,SBD,Single-ply,6
Open,Keiichi Yokoi,M,Japan,1968,82.5,79.7,-240,240,-250,240,170,180,-182.5,180,240,255,-260,255,675,SBD,Single-ply,7
Open,Taro Tsutsumi,M,Japan,1976,82.5,82.25,245,260,267.5,267.5,-142.5,-142.5,-150,,260,-277.5,-277.5,260,,SBD,Single-ply,DQ
Open,Paje Allan,M,Philippines,1970,82.5,79.75,200,,,200,-185,-185,-200,,,,,,,SBD,Single-ply,DQ
Open,Sergey Fotiev,M,Uzbekistan,1979,82.5,82.5,270,290,300,300,170,180,187.5,187.5,260,-272.5,272.5,272.5,,SBD,Single-ply,DD
Sub-Juniors,Amiria Boalverdi Hassan,M,Iran,1992,90,88.5,140,200,-220,200,100,150,165,165,140,205,215,215,580,SBD,Single-ply,1
Juniors,Sergey Gass,M,Uzbekistan,1987,90,88.15,-250,270,300,300,155,165,,165,270,285,,285,750,SBD,Single-ply,1
Juniors,Irandousttari Amin,M,Iran,1988,90,83.9,-230,230,245,245,140,155,160,160,225,245,255,255,660,SBD,Single-ply,2
Juniors,Atamyrat Charyyev,M,Turkmenistan,1989,90,87.3,-240,240,-262.5,240,140,145,150,150,230,245,-260,245,635,SBD,Single-ply,3
Juniors,Enkhbold Kh.,M,Mongolia,1985,90,88.25,230,-245,-250,230,150,160,170,170,230,-240,-247.5,230,630,SBD,Single-ply,4
Juniors,Mubarak Al Hasni Issa,M,Oman,1988,90,84,210,230,240,240,145,157.5,-162.5,157.5,-220,220,-240,220,617.5,SBD,Single-ply,5
Masters 1,Konstantian Khardin,M,Uzbekistan,1968,90,88.05,260,-275,-275,260,140,150,,150,240,-260,260,260,670,SBD,Single-ply,1
Masters 1,Dominic Anthony Cabalza,M,Philippines,1967,90,89.35,210,220,227.5,227.5,150,155,160,160,220,225,-232.5,225,612.5,SBD,Single-ply,2
Masters 1,Alexander Sidorchuk,M,Iran,1967,90,87.55,190,220,230,230,115,130,140,140,210,220,-242.5,220,590,SBD,Single-ply,3
Masters 2,Evgeniy Nazarov,M,Uzbekistan,1957,90,82.6,150,160,170,170,90,100,,100,160,180,190,190,460,SBD,Single-ply,1
Open,Dmitriy Zinovyev,M,Kazakhstan,1984,90,89.6,295,307.5,315,315,220,-230,-230,220,-290,290,-310,290,825,SBD,Single-ply,1
Open,Singh Ramshankar,M,India,1971,90,85.15,220,-250,260,260,130,-145,-145,130,210,230,245,245,635,SBD,Single-ply,2
Open,Wai Shun Woo,M,Hong Kong,1973,90,83.05,155,165,175,175,115,120,125,125,185,195,202.5,202.5,502.5,SBD,Single-ply,3
Juniors,Setayeshpoor Omid,M,Iran,1988,100,97.25,270,282.5,290,290,170,180,182.5,182.5,270,290,-300,290,762.5,SBD,Single-ply,1
Juniors,Wei-Wen Hsiao,M,Taiwan,1989,100,99.4,290,300,312.5,312.5,160,175,182.5,182.5,230,252.5,262.5,262.5,757.5,SBD,Single-ply,2
Juniors,Darvishpoor Faragheh Alireza,M,Iran,1985,100,97.35,290,300,310,310,150,165,175,175,255,270,-272.5,270,755,SBD,Single-ply,3
Juniors,Ervin Gafarov,M,Uzbekistan,1989,100,90.05,200,-220,220,220,130,142.5,-145,142.5,200,210,-212.5,210,572.5,SBD,Single-ply,4
Juniors,Arun,M,India,1988,100,95,-160,160,165,165,90,-92.5,92.5,92.5,140,150,160,160,417.5,SBD,Single-ply,5
Juniors,Andin Denis,M,Kyrgyzstan,1987,100,98.95,-275,-275,-280,,-160,-215,-215,,270,-292.5,,270,,SBD,Single-ply,DQ
Juniors,Alexander Kim,M,Kazakhstan,1985,100,98.9,255,272.5,280,280,-130,130,-145,130,-265,-265,-265,,,SBD,Single-ply,DQ
Masters 1,Mirshekari Hooshang,M,Iran,1965,100,98.45,80,120,-160,120,70,90,110,110,100,140,170,170,400,SBD,Single-ply,1
Masters 2,Alexander Luzanov,M,Uzbekistan,1952,100,91.45,200,220,250,250,150,170,180,180,200,240,280,280,710,SBD,Single-ply,1
Masters 2,Singh Kadyan Puran,M,India,1951,100,93,130,145,155,155,90,102.5,110,110,150,170,-180,170,435,SBD,Single-ply,2
Masters 2,D. Wagh B.,M,India,1953,100,92.95,145,160,175,175,-90,90,-110,90,145,-165,165,165,430,SBD,Single-ply,3
Masters 3,Sattarzadeh Maghsood,M,Iran,1942,100,98.9,160,190,210,210,110,-140,140,140,170,200,220,220,570,SBD,Single-ply,1
Open,Edward Torres Peter,M,Philippines,1965,100,98.3,307.5,325,330,330,170,180,-182.5,180,310,325,-336,325,835,SBD,Single-ply,1
Open,Pavel Bryndin,M,Uzbekistan,1981,100,92.95,270,310,325,325,185,200,-212.5,200,270,290,295,295,820,SBD,Single-ply,2
Open,Golionko Aleksei,M,Kyrgyzstan,1979,100,97.85,310,-330,-340,310,-230,-230,230,230,-265,265,-280,265,805,SBD,Single-ply,3
Open,Artur Kasparov,M,Turkmenistan,1982,100,95.15,270,290,-300,290,187.5,192.5,-195,192.5,260,270,-297.5,270,752.5,SBD,Single-ply,4
Open,Alomari Rashed,M,UAE,1970,100,99.55,270,-290,-300,270,210,-235,235,235,220,240,,240,745,SBD,Single-ply,5
Open,Hamza Primov,M,Uzbekistan,1978,100,97.9,-250,250,280,280,170,190,-210,190,250,270,-292.5,270,740,SBD,Single-ply,6
Open,Salim Al-Hasni Ahmed,M,Oman,1984,100,99.15,220,240,250,250,125,135,-140,135,220,235,-240,235,620,SBD,Single-ply,7
Open,Davronzhon Nabiev,M,Tajikistan,,100,95.2,120,,,120,135,142.5,,142.5,125,,,125,387.5,SBD,Single-ply,8
Sub-Juniors,Zareei Yousef,M,Iran,1991,110,107.7,220,250,270,270,100,,,100,210,275,,275,645,SBD,Single-ply,1
Juniors,Nazemroaya Milad,M,Iran,1986,110,109.2,280,315,-320,315,100,150,-160,150,290,312.5,-320,312.5,777.5,SBD,Single-ply,1
Juniors,Bayirzhan Kadirbekov,M,Kazakhstan,1987,110,102.2,-240,240,280,280,165,175,-180,175,240,-270,-270,240,695,SBD,Single-ply,2
Juniors,Kumar Darmender,M,India,1985,110,104.85,180,200,210,210,90,105,115,115,180,-200,215,215,540,SBD,Single-ply,3
Masters 1,Amirsalari Yaghoob,M,Iran,1962,110,100.6,200,302.5,,302.5,150,190,-195,190,240,-280,-280,240,732.5,SBD,Single-ply,1
Masters 2,Khureltsooj Yondon,M,Mongolia,1957,110,105.95,160,180,200,200,80,110,-115,110,160,180,217.5,217.5,527.5,SBD,Single-ply,1
Masters 2,Prakash Sathya,M,India,1958,110,100.4,190,210,-220,210,100,110,117.5,117.5,170,190,-210,190,517.5,SBD,Single-ply,2
Open,Kairat Aliev,M,Kazakhstan,1972,110,105.35,-335,-337.5,337.5,337.5,170,182.5,190,190,305,325,330,330,857.5,SBD,Single-ply,1
Open,Wladimir Golubev,M,Kazakhstan,1986,110,105.55,335,347.5,-357.5,347.5,210,-217.5,-217.5,210,300,-310,-310,300,857.5,SBD,Single-ply,2
Open,Homayoun Ahmad,M,Iran,1974,110,105,320,345,352.5,352.5,210,217.5,222.5,222.5,272.5,-290,-290,272.5,847.5,SBD,Single-ply,3
Open,Battulga Dash,M,Mongolia,1977,110,108.3,285,-295,300,300,-175,182.5,-192.5,182.5,250,260,-272.5,260,742.5,SBD,Single-ply,4
Open,Mirgafur Khaydarov,M,Uzbekistan,1974,110,101.65,190,210,-230,210,160,170,-175,170,190,210,-215,210,590,SBD,Single-ply,5
Sub-Juniors,Ehsan Gholizadeh Mohammad,M,Iran,1990,125,116.1,150,,,150,100,-120,,100,200,242.5,-260,242.5,492.5,SBD,Single-ply,1
Juniors,Rahimi Kazerooni Hossein,M,Iran,1986,125,121.15,332.5,345,352.5,352.5,220,235,245,245,255,285,302.5,302.5,900,SBD,Single-ply,1
Juniors,Dhind Mohit,M,India,1987,125,112.8,270,-285,290,290,195,-202.5,205,205,210,225,240,240,735,SBD,Single-ply,2
Juniors,Said Al Saadi Asad,M,Oman,1986,125,118.9,272.5,287.5,292.5,292.5,115,125,130,130,212.5,-227.5,227.5,227.5,650,SBD,Single-ply,3
Juniors,Singh Gurpreet,M,India,1985,125,116.7,210,230,-240,230,150,160,-165,160,210,230,-260,230,620,SBD,Single-ply,4
Masters 1,Mahmoud Dehghanian Seyed,M,Iran,1965,125,111.7,240,260,270,270,130,170,177.5,177.5,220,235,240,240,687.5,SBD,Single-ply,1
Masters 1,Zufar Bibarcev,M,Uzbekistan,1962,125,110.2,250,-270,270,270,120,130,135,135,220,235,250,250,655,SBD,Single-ply,2
Masters 1,Grigoriy Hlopin,M,Uzbekistan,1962,125,110.1,170,185,200,200,120,130,-135,130,170,185,190,190,520,SBD,Single-ply,3
Masters 1,Fard Mehran Assadi,M,Iran,1964,125,110.9,120,-170,-170,120,100,-130,-140,100,150,200,-222.5,200,420,SBD,Single-ply,4
Masters 2,Thosare Manik,M,India,1958,125,115.4,210,225,235,235,135,147.5,160,160,210,225,-240,225,620,SBD,Single-ply,1
Open,Shirvani Hossein,M,Iran,1981,125,123.05,310,325,-330,325,220,225,232.5,232.5,310,315,-342.5,315,872.5,SBD,Single-ply,1
Open,Zareie Jafar,M,Iran,1973,125,123.65,-330,-330,330,330,220,225,-230,225,300,315,-320,315,870,SBD,Single-ply,2
Open,Rinat Ahmetakov,M,Kazakhstan,1979,125,117.6,310,315,-322.5,315,-200,200,-210,200,250,260,-270,260,775,SBD,Single-ply,3
Juniors,Papizadeh Morteza,M,Iran,1985,125+,126.3,320,340,350,350,220,-235,242.5,242.5,270,290,297.5,297.5,890,SBD,Single-ply,1
Juniors,Hamidi Savoji Saeid,M,Iran,1985,125+,125.1,-330,330,342.5,342.5,200,215,-220,215,320,-330,-332.5,320,877.5,SBD,Single-ply,2
Juniors,Yevgeniy Prudnikov,M,Kazakhstan,1985,125+,126.05,290,310,320,320,190,200,210,210,300,310,-320,310,840,SBD,Single-ply,3
Juniors,Singh Amanpreet,M,India,1987,125+,125.5,310,325,-330,325,165,170,-175,170,-300,300,310,310,805,SBD,Single-ply,4
Masters 1,Abdupatta Yuldashev,M,Uzbekistan,1965,125+,160.6,140,150,160,160,100,110,120,120,140,150,,150,430,SBD,Single-ply,1
Masters 1,Ilyhom Sultanov,M,Uzbekistan,1964,125+,125.1,60,,,60,40,,,40,70,,,70,170,SBD,Single-ply,2
Open,Mojtaba Maleki,M,Iran,1983,125+,141.45,360,-370,-370,360,200,255,265,265,310,335,340,340,965,SBD,Single-ply,1
Open,Rahmati Hamid,M,Iran,1976,125+,126.55,300,310,,310,270,280,287.5,287.5,270,290,305,305,902.5,SBD,Single-ply,2
Open,Sergey Trubitsin,M,Uzbekistan,1975,125+,154.05,302.5,320,-345,320,240,-277.5,-280,240,280,305,-340,305,865,SBD,Single-ply,3
Open,Dilshodbek Abdurakhimov,M,Uzbekistan,1980,125+,133.25,260,-280,-280,260,175,187.5,-195,187.5,250,270,-285,270,717.5,SBD,Single-ply,4
Open,Aidh Ali Mahfoodh Al Mandhari,M,Oman,1985,125+,128.9,285,-302.5,-302.5,285,140,150,160,160,220,250,-255,250,695,SBD,Single-ply,5
Open,Abdul Jabar Adman Muhammad,M,Pakistan,1983,125+,125.1,-200,200,220,220,-150,150,160,160,190,-210,,190,570,SBD,Single-ply,6
Open,Ruslan Atayev,M,Turkmenistan,1979,125+,139.3,180,,,180,230,240,-250,240,150,,,150,570,SBD,Single-ply,7
Open,Malik Pardeep,M,India,1982,125+,136.35,-332.5,332.5,,332.5,215,220,-225,220,262.5,275,285,285,,SBD,Single-ply,DD
