Division,WeightClassKg,Place,Name,Team,BodyweightKg,Best3SquatKg,Best3BenchKg,Best3DeadliftKg,TotalKg,Equipment,Event,Sex
Boys,52,1,Angel Barroso,Tyler Chapel Hill,51.71,92.99,70.31,163.29,326.59,Single-ply,SBD,M
Boys,52,2,Coleman Hardin,Frankston,51.07,102.06,56.7,115.67,274.42,Single-ply,SBD,M
Boys,52,3,Daniel Wilde,Jacksonville,50.44,97.52,52.16,90.72,240.4,Single-ply,SBD,M
Boys,56,1,Eric Reaper,Tyler Chapel Hill,54.79,145.15,88.45,147.42,381.02,Single-ply,SBD,M
Boys,56,2,Cameron Helpenstill,Big Sandy Harmony,55.34,99.79,54.43,113.4,267.62,Single-ply,SBD,M
Boys,60,1,Bobby Jackson,Jacksonville,57.52,117.93,58.97,136.08,312.98,Single-ply,SBD,M
Boys,60,2,Carter Winegeart,Tyler Lee,56.25,106.59,63.5,117.93,288.03,Single-ply,SBD,M
Boys,60,3,Tavis Abercombie,Marshall,58.51,,,113.4,113.4,Single-ply,D,M
Boys,67.5,1,Kristopher Cooper,Longview,65.77,142.88,83.91,167.83,394.63,Single-ply,SBD,M
Boys,67.5,2,Drew McNeel,Big Sandy Harmony,66.68,138.35,97.52,122.47,358.34,Single-ply,SBD,M
Boys,67.5,3,Christian Fincannon,Marshall,61.23,113.4,81.65,124.74,319.78,Single-ply,SBD,M
Boys,67.5,4,Gustavo Hilario,Tyler Lee,64.41,111.13,74.84,129.27,315.25,Single-ply,SBD,M
Boys,67.5,5,Brayden Bayer,Jacksonville,63.59,104.33,68.04,117.93,290.3,Single-ply,SBD,M
Boys,75,1,Dcrayvan Polk,Longview,70.76,183.7,108.86,213.19,505.76,Single-ply,SBD,M
Boys,75,2,Terry Floyd,Longview,73.48,167.83,104.33,222.26,494.42,Single-ply,SBD,M
Boys,75,3,Cameron Watson,Tyler Lee,73.48,183.7,92.99,188.24,464.93,Single-ply,SBD,M
Boys,75,4,Jamal Cuba,Tyler,74.84,165.56,108.86,188.24,462.66,Single-ply,SBD,M
Boys,75,5,Jason Roundtree,Longview,72.12,161.03,86.18,181.44,428.64,Single-ply,SBD,M
Boys,75,6,LA Bradford,Frankston,68.04,156.49,92.99,172.37,421.84,Single-ply,SBD,M
Boys,75,7,Joseph Oxford,Frankston,72.57,151.95,102.06,158.76,412.77,Single-ply,SBD,M
Boys,75,8,Michael Givens,Tyler,69.4,136.08,81.65,154.22,371.95,Single-ply,SBD,M
Boys,75,9,Traylin Lewis,Marshall,70.76,124.74,70.31,136.08,331.12,Single-ply,SBD,M
Boys,75,10,Tollett ZA,Big Sandy Harmony,71.21,129.27,61.23,136.08,326.59,Single-ply,SBD,M
Boys,75,11,Montreal Stoker,Marshall,68.49,99.79,72.57,117.93,290.3,Single-ply,SBD,M
Boys,75,12,Caden Swink,Big Sandy Harmony,70.85,90.72,88.45,108.86,288.03,Single-ply,SBD,M
Boys,75,13,David Lucio,Marshall,68.49,127.01,,129.27,256.28,Single-ply,SD,M
Boys,82.5,1,Drew Lewis,Frankston,81.01,188.24,106.59,197.31,492.15,Single-ply,SBD,M
Boys,82.5,2,Steven Skinner,Longview,79.83,192.78,92.99,204.12,489.88,Single-ply,SBD,M
Boys,82.5,3,Brysien Cross,Tyler Chapel Hill,77.93,154.22,102.06,219.99,476.27,Single-ply,SBD,M
Boys,82.5,4,Tremel Preston,Frankston,78.65,158.76,92.99,204.12,455.86,Single-ply,SBD,M
Boys,82.5,5,Tyler Wilder,Longview,75.75,174.63,90.72,185.97,451.32,Single-ply,SBD,M
Boys,82.5,6,Darnell Reid,Tyler Lee,79.74,176.9,83.91,181.44,442.25,Single-ply,SBD,M
Boys,82.5,7,Kristian Little,Tyler,79.83,172.37,92.99,176.9,442.25,Single-ply,SBD,M
Boys,82.5,8,Erik Arreaga,Big Sandy Harmony,81.65,136.08,99.79,181.44,417.3,Single-ply,SBD,M
Boys,82.5,9,Micah Beale,Jacksonville,76.2,145.15,90.72,161.03,396.89,Single-ply,SBD,M
Boys,82.5,10,Carson Carlisle,Marshall,81.65,136.08,61.23,140.61,337.93,Single-ply,SBD,M
Boys,82.5,11,Bradley Rugger,Big Sandy Harmony,80.74,111.13,74.84,106.59,292.57,Single-ply,SBD,M
Boys,82.5,12,Juan Castillo,Big Sandy Harmony,77.11,113.4,,,113.4,Single-ply,S,M
Boys,90,1,Decorian Horton,Tyler Chapel Hill,89.54,233.6,136.08,233.6,603.28,Single-ply,SBD,M
Boys,90,2,Daiston Keeton,Tyler,86.64,174.63,102.06,181.44,458.13,Single-ply,SBD,M
Boys,90,3,Jesse Owen,Frankston,89.27,158.76,88.45,154.22,401.43,Single-ply,SBD,M
Boys,90,4,Angel Aguillon,Big Sandy Harmony,88,136.08,90.72,161.03,387.82,Single-ply,SBD,M
Boys,90,5,James McAllister,Marshall,84.37,129.27,,,129.27,Single-ply,S,M
Boys,100,1,Nathan Boutin,Henderson,97.16,226.8,133.81,229.06,589.67,Single-ply,SBD,M
Boys,100,2,Parker Musslewhite,Tyler Lee,97.07,226.8,102.06,215.46,544.31,Single-ply,SBD,M
Boys,100,3,Joshua Moon,Longview,94.35,190.51,111.13,208.65,510.29,Single-ply,SBD,M
Boys,100,4,Clayton Courson,Tyler Lee,90.72,188.24,108.86,204.12,501.22,Single-ply,SBD,M
Boys,100,5,Henry Hernandez,Jacksonville,98.79,192.78,117.93,185.97,496.68,Single-ply,SBD,M
Boys,100,6,Flavio Hernandez,Jacksonville,94.35,163.29,117.93,192.78,474,Single-ply,SBD,M
Boys,100,7,Jesus Maldonado,Big Sandy Harmony,97.98,204.12,88.45,165.56,458.13,Single-ply,SBD,M
Boys,100,8,Clayton Conrad,Henderson,94.8,142.88,70.31,156.49,369.68,Single-ply,SBD,M
Boys,100,9,Ty Pilcher,Big Sandy Harmony,90.72,142.88,92.99,129.27,365.14,Single-ply,SBD,M
Boys,100,10,Kylin Jackson,Marshall,92.53,136.08,79.38,147.42,362.87,Single-ply,SBD,M
Boys,110,1,Wilfredo Valladares,Tyler,101.15,256.28,151.95,226.8,635.03,Single-ply,SBD,M
Boys,110,2,Zardrick Morrow,Jacksonville,108.05,165.56,120.2,197.31,483.08,Single-ply,SBD,M
Boys,110,3,Samuel Meneses,Tyler,107.5,181.44,83.91,181.44,446.79,Single-ply,SBD,M
Boys,110,4,Ben Nguyen,Longview,100.7,161.03,90.72,185.97,437.72,Single-ply,SBD,M
Boys,110,5,Keyonta Cooper,Marshall,109.77,215.46,,174.63,390.09,Single-ply,SD,M
Boys,110,6,Brenden Kinder,Frankston,104.51,90.72,79.38,138.35,308.44,Single-ply,SBD,M
Boys,110,7,Max Prior,Henderson,101.79,,88.45,204.12,292.57,Single-ply,BD,M
Boys,125,1,Antonio Washington,Marshall,121.11,267.62,142.88,272.16,682.66,Single-ply,SBD,M
Boys,125,2,Cory Green,Tyler Lee,121.56,238.14,136.08,251.74,625.96,Single-ply,SBD,M
Boys,125,3,Jerry Villela,Tyler Lee,121.11,224.53,145.15,251.74,621.42,Single-ply,SBD,M
Boys,125,4,Josh Porter,Frankston,117.03,235.87,131.54,251.74,619.15,Single-ply,SBD,M
Boys,125,5,Xavion Gardner,Tyler Lee,122.02,213.19,127.01,215.46,555.65,Single-ply,SBD,M
Boys,125,6,Weston Thomas,Henderson,114.31,226.8,124.74,183.7,535.24,Single-ply,SBD,M
Boys,125,7,TreJon Blake,Tyler,115.67,210.92,115.67,206.38,532.97,Single-ply,SBD,M
Boys,125,8,Trenton Thomas,Henderson,117.48,213.19,111.13,197.31,521.63,Single-ply,SBD,M
Boys,125,9,Greg Hood,Marshall,120.66,219.99,113.4,188.24,521.63,Single-ply,SBD,M
Boys,125,10,Sergio Cabrera,Jacksonville,118.84,197.31,131.54,183.7,512.56,Single-ply,SBD,M
Boys,125,11,Jose Arreguin,Tyler Chapel Hill,123.29,201.85,138.35,170.1,510.29,Single-ply,SBD,M
Boys,125,12,Justin Crowe,Jacksonville,116.57,179.17,115.67,199.58,494.42,Single-ply,SBD,M
Boys,125,13,Tra Minter,Tyler,114.31,183.7,113.4,183.7,480.81,Single-ply,SBD,M
Boys,125,14,Marion Walker,Tyler,113.4,142.88,136.08,179.17,458.13,Single-ply,SBD,M
Boys,125,15,Kaylon Douglas,Tyler,115.67,183.7,108.86,151.95,444.52,Single-ply,SBD,M
Boys,125,16,Josh Phipps,Henderson,123.83,151.95,92.99,167.83,412.77,Single-ply,SBD,M
Boys,125,17,Dakota Guin,Big Sandy Harmony,114.76,142.88,70.31,147.42,360.61,Single-ply,SBD,M
Boys,125,18,Mario Salas,Henderson,112.94,165.56,83.91,,249.48,Single-ply,SB,M
Boys,125+,1,Marcus Polk,Longview,130.63,249.48,131.54,276.69,657.71,Single-ply,SBD,M
Boys,125+,2,Kolby Harris,Tyler,147.87,249.48,145.15,204.12,598.74,Single-ply,SBD,M
Boys,125+,3,Ahmad Farrier,Longview,147.87,206.38,129.27,226.8,562.45,Single-ply,SBD,M
Boys,125+,4,Kendall Starling,Longview,143.79,213.19,111.13,217.72,542.04,Single-ply,SBD,M
Boys,125+,5,Adrian Harris,Tyler,130.63,199.58,136.08,204.12,539.77,Single-ply,SBD,M
Boys,125+,6,Jordan Jones,Tyler Lee,161.93,226.8,108.86,204.12,539.77,Single-ply,SBD,M
Boys,125+,7,Carlos Davila,Henderson,131.09,170.1,106.59,161.03,437.72,Single-ply,SBD,M
Boys,125+,8,Alex Bridges,Tyler,133.81,158.76,102.06,165.56,426.38,Single-ply,SBD,M
Boys,125+,9,Daron Ellis,Tyler,126.1,188.24,72.57,154.22,415.04,Single-ply,SBD,M
