State,WeightClassKg,Division,Sex,Equipment,Name,Best3SquatKg,Best3BenchKg,Best3DeadliftKg,TotalKg,Place,Event
PA,52,Juniors,F,Wraps,Kylie Waugh,88.45,49.9,124.74,263.08,1,SBD
VA,56,Juniors,F,Wraps,Elena Avila,88.45,40.82,104.33,233.6,1,SBD
VA,56,Open,F,Wraps,Li Cavanaugh,111.13,52.16,113.4,276.69,1,SBD
VA,60,Teenage 18-19,F,Wraps,Jordan Dunlap,83.91,52.16,115.67,251.74,1,SBD
VA,60,Open,F,Wraps,Jenna Sollner,111.13,63.5,122.47,297.1,1,SBD
VA,60,Open,F,Wraps,Jaclyn Cseh,88.45,,,,DQ,SBD
VA,67.5,Juniors,F,Wraps,Emmy Kehoe,120.2,56.7,142.88,319.78,1,SBD
VA,67.5,Open,F,Wraps,Ansley Elias,,,,,DQ,SBD
VA,75,Open,F,Wraps,Jennie Radovsky,83.91,52.16,124.74,260.82,1,SBD
VA,82.5,Masters 50-54,F,Wraps,Melissa Baumann,86.18,43.09,111.13,240.4,1,SBD
VA,82.5,Open,F,Wraps,Liz Cartwright,145.15,92.99,161.03,399.16,1,SBD
VA,90,Open,F,Wraps,Danielle Thompson,124.74,65.77,151.95,342.46,1,SBD
VA,100,Juniors,F,Wraps,Kali Nuckols,90.72,52.16,111.13,254.01,1,SBD
VA,67.5,Teenage 18-19,M,Wraps,Daniel Clements,181.44,133.81,242.67,557.92,1,SBD
VA,75,Teenage 18-19,M,Wraps,Adrian Joco,145.15,106.59,188.24,439.98,1,SBD
VA,75,Juniors,M,Wraps,Tim Holden,165.56,99.79,190.51,455.86,2,SBD
VA,75,Juniors,M,Wraps,Jamal Anderson,174.63,77.11,188.24,439.98,3,SBD
VA,75,Juniors,M,Wraps,Robert Saunders,165.56,97.52,206.38,469.47,1,SBD
VA,82.5,Juniors,M,Wraps,Quince McCurley,242.67,124.74,274.42,641.83,1,SBD
VA,82.5,Juniors,M,Wraps,Joey Reid #1,215.46,133.81,235.87,585.13,2,SBD
VA,82.5,Masters 40-44,M,Wraps,Ian Brown,215.46,147.42,251.74,614.62,1,SBD
VA,82.5,Masters 45-49,M,Wraps,Jay Hutson,142.88,,,,DQ,SBD
VA,82.5,Open,M,Wraps,Kyle Day,185.97,124.74,233.6,544.31,1,SBD
VA,90,Open,M,Wraps,Chris Neff,231.33,122.47,240.4,594.21,1,SBD
VA,90,Juniors,M,Wraps,Rex Reguindin,204.12,136.08,238.14,578.33,1,SBD
VA,100,Juniors,M,Wraps,Ross Ellenberger,215.46,129.27,288.03,632.76,1,SBD
VA,100,Open,M,Wraps,Dan Shelton,147.42,113.4,183.7,444.52,4,SBD
VA,100,Open,M,Wraps,Kevin Dickhut,301.64,190.51,317.51,809.66,1,SBD
VA,100,Open,M,Wraps,Zechariach Pociatek,,,,,DQ,SBD
VA,100,Open,M,Wraps,Chad Fuller,208.65,133.81,247.21,589.67,2,SBD
VA,100,Open,M,Wraps,Frank Ferchland,151.95,129.27,176.9,458.13,3,SBD
VA,100,Masters 45-49,M,Wraps,Frank Ferchland,151.95,129.27,176.9,458.13,1,SBD
VA,100,Sub-Masters,M,Wraps,Craig White,120.2,97.52,183.7,401.43,1,SBD
VA,110,Masters 40-44,M,Wraps,Matt Ferguson,197.31,161.03,256.28,614.62,1,SBD
VA,110,Open,M,Wraps,Matt Foti,249.48,174.63,249.48,673.58,1,SBD
VA,110,Open,M,Wraps,Joseph Tugwell,210.92,156.49,247.21,614.62,3,SBD
VA,110,Open,M,Wraps,Andrew Spellman,226.8,142.88,254.01,623.69,2,SBD
VA,110,Open,M,Wraps,Patrick Retallack,224.53,142.88,215.46,582.87,4,SBD
VA,118,Teenage 18-19,M,Wraps,Bennett Bowers,201.85,115.67,231.33,548.85,1,SBD
VA,118,Masters 50-54,M,Wraps,Rob Curran,170.1,156.49,206.38,532.97,1,SBD
VA,118,Masters 40-44,M,Wraps,Matt Gawlik,192.78,120.2,258.55,571.53,1,SBD
VA,125,Open,M,Wraps,Karl Kumm,226.8,174.63,249.48,650.91,1,SBD
VA,52,Open,F,Raw,Tisha Paredes,,52.16,124.74,176.9,1,BD
VA,100,Open,M,Raw,Jay Jones,,113.4,,113.4,1,B
VA,110,Sub-Masters,M,Raw,Robby Barker,,210.92,,210.92,1,B
VA,110,Open,M,Raw,Robby Barker,,210.92,,210.92,1,B
