Division,WeightClassKg,Place,Name,Team,BodyweightKg,Best3SquatKg,Best3BenchKg,Best3DeadliftKg,TotalKg,Equipment,Event,Sex
Boys,52,1,Alex Berrones,Brownsville Lopez,51.26,167.83,97.52,213.19,478.54,Single-ply,SBD,M
Boys,52,2,LA Gonzalez,Alice,51.62,192.78,97.52,183.7,474,Single-ply,SBD,M
Boys,52,3,Michael Mitchell,San Antonio Southside,50.89,172.37,92.99,188.24,453.59,Single-ply,SBD,M
Boys,52,4,Robert Gonzalez,Laredo Cigarroa,50.98,183.7,92.99,176.9,453.59,Single-ply,SBD,M
Boys,52,5,Benny Lara,Victoria West,50.98,181.44,79.38,174.63,435.45,Single-ply,SBD,M
Boys,52,6,Anthony Garcia,Weslaco,50.8,151.95,99.79,176.9,428.64,Single-ply,SBD,M
Boys,52,7,Leo Alaniz,Brownsville Lopez,51.53,149.69,95.25,170.1,415.04,Single-ply,SBD,M
Boys,52,8,Cody Juarez,Alice,50.17,154.22,99.79,151.95,405.97,Single-ply,SBD,M
Boys,52,9,Tyler Salazar,Donna,51.07,138.35,90.72,156.49,385.55,Single-ply,SBD,M
Boys,52,10,Ramiro Trevino,Laredo Nixon,48.9,138.35,70.31,142.88,351.53,Single-ply,SBD,M
Boys,52,11,Bradley Salinas,Brownsville Porter,50.98,124.74,68.04,140.61,333.39,Single-ply,SBD,M
Boys,56,1,Jose Trevino,San Antonio Southside,55.79,233.6,104.33,195.04,532.97,Single-ply,SBD,M
Boys,56,2,Mauro Vargas,La Joya Juarez-Lincoln,55.43,190.51,111.13,206.38,508.02,Single-ply,SBD,M
Boys,56,3,Mario Saldivar Jr,Laredo Alexander,55.79,181.44,102.06,195.04,478.54,Single-ply,SBD,M
Boys,56,4,Joel Sanchez,Brownsville Veterans Memorial,55.07,188.24,92.99,195.04,476.27,Single-ply,SBD,M
Boys,56,5,JJ Ortiz,Los Fresnos,55.52,183.7,113.4,172.37,469.47,Single-ply,SBD,M
Boys,56,6,Misael Marquez,Brownsville Pace,55.52,188.24,113.4,163.29,464.93,Single-ply,SBD,M
Boys,56,7,Francisco Guevara,Edinburg Vela,54.61,161.03,97.52,174.63,433.18,Single-ply,SBD,M
Boys,56,8,Angel Flores,Mercedes,55.52,163.29,97.52,170.1,430.91,Single-ply,SBD,M
Boys,56,9,Joseph Serino,Brownsville Hanna,55.7,154.22,90.72,165.56,410.5,Single-ply,SBD,M
Boys,56,10,Michael Casillas,Victoria West,55.52,154.22,92.99,161.03,408.23,Single-ply,SBD,M
Boys,56,DQ,Christian Vega,Edinburg Vela,55.61,151.95,,,,Single-ply,SBD,M
Boys,56,DQ,Jose Quintero,Brownsville Lopez,54.61,,,,,Single-ply,SBD,M
Boys,60,1,Jose Alvarado,Brownsville Lopez,58.97,226.8,127.01,199.58,553.38,Single-ply,SBD,M
Boys,60,2,Elijah Gonzalez,San Antonio East Central,58.24,197.31,124.74,204.12,526.17,Single-ply,SBD,M
Boys,60,3,Moc Moo,Port Lavaca Calhoun,57.97,195.04,108.86,195.04,498.95,Single-ply,SBD,M
Boys,60,4,Alex Gonzalez,PSJA North,58.97,190.51,111.13,197.31,498.95,Single-ply,SBD,M
Boys,60,5,Mike Gonzalez,Weslaco East,59.6,172.37,102.06,188.24,462.66,Single-ply,SBD,M
Boys,60,6,Ricky Cuellar,Brownsville Pace,58.88,188.24,120.2,151.95,460.4,Single-ply,SBD,M
Boys,60,7,Abraham Zermeno,Donna North,58.69,172.37,113.4,167.83,453.59,Single-ply,SBD,M
Boys,60,8,Abraham Hernandez,La Joya Palmview,59.78,170.1,88.45,188.24,446.79,Single-ply,SBD,M
Boys,60,9,Damien Palomo,Weslaco,59.42,163.29,83.91,188.24,435.45,Single-ply,SBD,M
Boys,60,10,Jacob Esquivel,Seguin,58.88,188.24,113.4,,301.64,Single-ply,SB,M
Boys,60,DQ,Vicente Hernandez,Pharr Valley View,59.69,,,,,Single-ply,SBD,M
Boys,67.5,1,Danny Diaz,Brownsville Lopez,67.13,240.4,147.42,247.21,635.03,Single-ply,SBD,M
Boys,67.5,2,Eric Tong,Brownsville Hanna,65.59,249.48,117.93,256.28,623.69,Single-ply,SBD,M
Boys,67.5,3,Hugo Salas,Brownsville Lopez,64.23,254.01,129.27,222.26,605.55,Single-ply,SBD,M
Boys,67.5,4,Josue Tobias,Laredo Nixon,66.13,226.8,129.27,244.94,601.01,Single-ply,SBD,M
Boys,67.5,5,Oscar Monjaraz,Pharr Valley View,66.32,233.6,122.47,229.06,585.13,Single-ply,SBD,M
Boys,67.5,6,Alex Gonzalez,Alice,67.04,240.4,113.4,226.8,580.6,Single-ply,SBD,M
Boys,67.5,7,Yayo Segura,Brownsville Pace,66.68,215.46,124.74,208.65,548.85,Single-ply,SBD,M
Boys,67.5,8,Jonathan Zelaya,Victoria East,65.14,219.99,120.2,204.12,544.31,Single-ply,SBD,M
Boys,67.5,9,Brandon Palomares,Seguin,66.22,215.46,113.4,215.46,544.31,Single-ply,SBD,M
Boys,67.5,10,Camarillo Oscar,Alice,66.5,217.72,117.93,208.65,544.31,Single-ply,SBD,M
Boys,67.5,11,Oscar Galvan,Laredo United South,66.86,188.24,133.81,222.26,544.31,Single-ply,SBD,M
Boys,67.5,DQ,Domingo Zapata,Somerset,64.5,204.12,,,,Single-ply,SBD,M
Boys,75,1,Chayce Grevey,Victoria West,74.12,249.48,156.49,263.08,669.05,Single-ply,SBD,M
Boys,75,2,Rogelio Pulido,Brownsville Lopez,73.57,254.01,136.08,265.35,655.44,Single-ply,SBD,M
Boys,75,3,Jacob Gracia,Weslaco,74.39,249.48,142.88,256.28,648.64,Single-ply,SBD,M
Boys,75,4,Eliseo Garzoria,Los Fresnos,74.57,240.4,108.86,283.5,632.76,Single-ply,SBD,M
Boys,75,5,Joe Rodriguez,PSJA Southwest,74.21,247.21,154.22,229.06,630.49,Single-ply,SBD,M
Boys,75,6,Matthew Collier,San Antonio Southside,73.12,249.48,136.08,242.67,628.23,Single-ply,SBD,M
Boys,75,7,Gabe Cantu,Corpus Christi Calallen,72.48,222.26,122.47,267.62,612.35,Single-ply,SBD,M
Boys,75,8,Arturo Mancias,Brownsville Hanna,73.03,238.14,136.08,229.06,603.28,Single-ply,SBD,M
Boys,75,9,Mark Saldana,San Antonio East Central,73.21,224.53,140.61,235.87,601.01,Single-ply,SBD,M
Boys,75,10,Daniel Leita,Port Lavaca Calhoun,71.85,217.72,131.54,240.4,589.67,Single-ply,SBD,M
Boys,75,11,Jesse Rodriguez,PSJA Memorial,74.21,226.8,136.08,226.8,589.67,Single-ply,SBD,M
Boys,75,12,Gilbert Guajardo,Pharr Valley View,73.84,219.99,124.74,217.72,562.45,Single-ply,SBD,M
Boys,75,DQ,Hunter Dollery,Victoria West,72.76,235.87,,,,Single-ply,SBD,M
Boys,82.5,1,Roy Pedraza,Weslaco East,80.29,258.55,156.49,288.03,703.07,Single-ply,SBD,M
Boys,82.5,2,Rigo Ayala,Edcouch-Elsa,80.83,272.16,163.29,263.08,698.53,Single-ply,SBD,M
Boys,82.5,3,Fabian Rodriguez,Los Fresnos,81.1,267.62,158.76,263.08,689.46,Single-ply,SBD,M
Boys,82.5,4,Daniel Rodriguez #6,Port Lavaca Calhoun,82.1,290.3,145.15,242.67,678.12,Single-ply,SBD,M
Boys,82.5,5,Robert Hernandez,La Joya Juarez-Lincoln,80.83,265.35,149.69,254.01,669.05,Single-ply,SBD,M
Boys,82.5,6,Brandon Atnipp,Del Rio,79.47,235.87,170.1,256.28,662.24,Single-ply,SBD,M
Boys,82.5,7,Pablo Garza,Brownsville Pace,81.56,240.4,165.56,249.48,655.44,Single-ply,SBD,M
Boys,82.5,8,Salvador Castillo,Mission Sharyland,80.92,249.48,127.01,265.35,641.83,Single-ply,SBD,M
Boys,82.5,9,Ashton Williams,San Antonio East Central,81.19,254.01,147.42,222.26,623.69,Single-ply,SBD,M
Boys,82.5,10,Isaiah Garza,Somerset,80.47,233.6,142.88,244.94,621.42,Single-ply,SBD,M
Boys,82.5,11,Brandon Martinez,Brownsville Veterans Memorial,81.19,238.14,131.54,242.67,612.35,Single-ply,SBD,M
Boys,82.5,12,Ramon Delgado,Brownsville Hanna,82.01,256.28,136.08,219.99,612.35,Single-ply,SBD,M
Boys,82.5,DQ,Robert Garza,Donna,79.65,,,,,Single-ply,SBD,M
Boys,82.5,DQ,Elias Munoz,Edcouch-Elsa,80.29,,,,,Single-ply,SBD,M
Boys,90,1,Seth Garcia,Edcouch-Elsa,87.91,294.84,154.22,290.3,739.36,Single-ply,SBD,M
Boys,90,2,Danny Ramos,Brownsville Lopez,89.81,278.96,179.17,247.21,705.34,Single-ply,SBD,M
Boys,90,3,David Luna,Laredo Johnson,88,272.16,158.76,260.82,691.73,Single-ply,SBD,M
Boys,90,4,Luis Salinas,Sharyland Pioneer,86.82,260.82,161.03,260.82,682.66,Single-ply,SBD,M
Boys,90,5,Julio Garcia,La Joya Juarez-Lincoln,87.63,251.74,151.95,242.67,646.37,Single-ply,SBD,M
Boys,90,6,Jose Nicoleau,Sharyland Pioneer,88.54,251.74,172.37,222.26,646.37,Single-ply,SBD,M
Boys,90,7,Omar Galan,Laredo Alexander,88.36,249.48,156.49,235.87,641.83,Single-ply,SBD,M
Boys,90,8,Daniel Yanez,Donna,87.63,254.01,158.76,226.8,639.57,Single-ply,SBD,M
Boys,90,9,Nathan Silva,Brownsville Hanna,86.73,256.28,133.81,247.21,637.3,Single-ply,SBD,M
Boys,90,10,Alexis Olalde,Brownsville Lopez,87,251.74,133.81,249.48,635.03,Single-ply,SBD,M
Boys,90,11,Fernando Hernandez,La Joya Juarez-Lincoln,88.9,242.67,151.95,240.4,635.03,Single-ply,SBD,M
Boys,90,12,Rene Osornia,Port Lavaca Calhoun,89.18,256.28,142.88,235.87,635.03,Single-ply,SBD,M
Boys,90,13,Obed Hernandez,Sharyland Pioneer,87.91,249.48,147.42,231.33,628.23,Single-ply,SBD,M
Boys,90,DQ,Adam Garcia,San Antonio Southside,89.18,260.82,,,,Single-ply,SBD,M
Boys,100,1,Eddie Garcia,Port Lavaca Calhoun,99.06,288.03,172.37,283.5,743.89,Single-ply,SBD,M
Boys,100,2,Israel Alfaro,Weslaco East,98.61,283.5,190.51,263.08,737.09,Single-ply,SBD,M
Boys,100,3,Fernando Gonzalez,La Joya Palmview,97.16,294.84,165.56,249.48,709.87,Single-ply,SBD,M
Boys,100,4,Elijah Sanchez,Edcouch-Elsa,96.98,281.23,170.1,240.4,691.73,Single-ply,SBD,M
Boys,100,5,Leo Gonzalez,Brownsville Hanna,95.44,265.35,151.95,265.35,682.66,Single-ply,SBD,M
Boys,100,6,Dallin Hack,San Antonio Southwest,94.53,256.28,183.7,231.33,671.32,Single-ply,SBD,M
Boys,100,7,Rafa Pena,Brownsville Hanna,99.34,283.5,140.61,247.21,671.32,Single-ply,SBD,M
Boys,100,8,Zevaughn Shelton,Victoria West,97.16,274.42,140.61,251.74,666.78,Single-ply,SBD,M
Boys,100,9,Eric Luck,Victoria East,95.89,274.42,174.63,215.46,664.51,Single-ply,SBD,M
Boys,100,10,Frankie Lopez,Corpus Christi Tuloso-Midway,94.08,260.82,176.9,219.99,657.71,Single-ply,SBD,M
Boys,100,11,Mark Sustaita,Castroville Medina Valley,95.25,263.08,156.49,238.14,657.71,Single-ply,SBD,M
Boys,100,12,Ricky Arreola,Brownsville Hanna,96.8,272.16,170.1,215.46,657.71,Single-ply,SBD,M
Boys,100,13,Juan Aguirre,San Benito,95.71,233.6,163.29,226.8,623.69,Single-ply,SBD,M
Boys,110,1,Eddie Gomez,Edcouch-Elsa,107.86,294.84,163.29,274.42,732.55,Single-ply,SBD,M
Boys,110,2,Juan Martinez,Donna North,106.14,294.84,163.29,272.16,730.28,Single-ply,SBD,M
Boys,110,3,Jonathan Grimaldo,Donna,108.5,308.44,167.83,254.01,730.28,Single-ply,SBD,M
Boys,110,4,Isahi Cardenas,Victoria West,108.05,322.05,145.15,231.33,698.53,Single-ply,SBD,M
Boys,110,5,Matt Frazier,Port Lavaca Calhoun,108.86,294.84,172.37,231.33,698.53,Single-ply,SBD,M
Boys,110,6,Freddy Martinez,Los Fresnos,108.41,263.08,190.51,233.6,687.19,Single-ply,SBD,M
Boys,110,7,Andres Enriquez,PSJA,106.05,276.69,170.1,233.6,680.39,Single-ply,SBD,M
Boys,110,8,Eddie Moreno,Somerset,107.95,267.62,167.83,244.94,680.39,Single-ply,SBD,M
Boys,110,9,Teodoro Garcia,McAllen Memorial,109.04,260.82,188.24,231.33,680.39,Single-ply,SBD,M
Boys,110,10,Adrian Arredondo,Brownsville Hanna,107.77,272.16,158.76,233.6,664.51,Single-ply,SBD,M
Boys,110,11,Sam Rodriguez,La Joya,104.96,272.16,163.29,226.8,662.24,Single-ply,SBD,M
Boys,110,DQ,Sammy De Leon,Brownsville Veterans Memorial,108.95,,,,,Single-ply,SBD,M
Boys,110,DQ,Mark Cisneros,Donna,106.68,,,,,Single-ply,SBD,M
Boys,125,1,Jacob Rodriguez,Corpus Christi Tuloso-Midway,122.92,322.05,181.44,272.16,775.64,Single-ply,SBD,M
Boys,125,2,Johnathan Banda,Weslaco East,124.1,288.03,163.29,294.84,746.16,Single-ply,SBD,M
Boys,125,3,Pablo Trevino,Edinburg Vela,117.03,274.42,174.63,260.82,709.87,Single-ply,SBD,M
Boys,125,4,Fabian Castillo,Edinburg Economedes,118.39,269.89,172.37,260.82,703.07,Single-ply,SBD,M
Boys,125,5,Andre Gonzalez,Brownsville Hanna,121.83,285.76,158.76,258.55,703.07,Single-ply,SBD,M
Boys,125,6,Jason Suniga,Victoria West,115.85,319.78,158.76,201.85,680.39,Single-ply,SBD,M
Boys,125,7,Roger Benavidez,Rio Grande City,118.3,263.08,167.83,249.48,680.39,Single-ply,SBD,M
Boys,125,8,Virgil Munoz,Los Fresnos,119.84,283.5,151.95,215.46,650.91,Single-ply,SBD,M
Boys,125,9,Ricky Estimbo,Edcouch-Elsa,114.31,267.62,156.49,217.72,641.83,Single-ply,SBD,M
Boys,125,10,Ramiro Reza,San Benito,123.29,254.01,170.1,215.46,639.57,Single-ply,SBD,M
Boys,125,DQ,James Woods,Somerset,120.47,,,,,Single-ply,SBD,M
Boys,125,DQ,Francisco Torrecilla,Laredo Nixon,117.66,285.76,145.15,,,Single-ply,SBD,M
Boys,125+,1,Carlos Sanchez,Laredo United South,127.82,351.53,183.7,308.44,843.68,Single-ply,SBD,M
Boys,125+,2,Julio Contreras,Edcouch-Elsa,125.19,356.07,176.9,308.44,841.41,Single-ply,SBD,M
Boys,125+,3,Josh Trevino,Brownsville Lopez,140.34,317.51,181.44,269.89,768.84,Single-ply,SBD,M
Boys,125+,4,Eli Olivo,Donna North,138.98,308.44,199.58,249.48,757.5,Single-ply,SBD,M
Boys,125+,5,Brandon Perez,Weslaco,159.66,306.17,165.56,254.01,725.75,Single-ply,SBD,M
Boys,125+,6,Christian Castro,Brownsville Pace,136.8,303.91,147.42,238.14,689.46,Single-ply,SBD,M
Boys,125+,7,Michael Vega,McAllen Rowe,128,281.23,181.44,204.12,666.78,Single-ply,SBD,M
Boys,125,8,Andres Hernandez,La Joya Palmview,124.83,260.82,172.37,224.53,657.71,Single-ply,SBD,M
Boys,125+,9,Aaron Rivera,McAllen Rowe,163.93,233.6,167.83,244.94,646.37,Single-ply,SBD,M
Boys,125+,10,Javier De Leon,Somerset,147.42,312.98,127.01,167.83,607.81,Single-ply,SBD,M
Boys,125+,DQ,Jimmy De Leon,Brownsville Veterans Memorial,174.81,,,,,Single-ply,SBD,M
