Division,WeightClassKg,Place,Name,Team,BodyweightKg,Best3SquatKg,Best3BenchKg,Best3DeadliftKg,TotalKg,Equipment,Event,Sex
Boys,52,1,Charles Rogers,Crowley,51.71,115.67,61.23,113.4,290.3,Single-ply,SBD,M
Boys,56,1,Brandon Balderama,Saginaw,55.79,120.2,63.5,136.08,319.78,Single-ply,SBD,M
Boys,56,2,Zunair Waseem,Saginaw,55.34,74.84,40.82,86.18,201.85,Single-ply,SBD,M
Boys,60,1,Preston Whaley,Fort Worth Chisholm Trail,59.42,149.69,86.18,149.69,385.55,Single-ply,SBD,M
Boys,60,2,Koltin Bear,White Settlement Brewer,59.87,124.74,77.11,131.54,333.39,Single-ply,SBD,M
Boys,67.5,1,Isaac Erich,Fort Worth Chisholm Trail,64.41,145.15,95.25,149.69,390.09,Single-ply,SBD,M
Boys,67.5,2,Shawn Holton,Fort Worth Chisholm Trail,66.68,133.81,77.11,147.42,358.34,Single-ply,SBD,M
Boys,67.5,3,Michael Jones-Bradley,Saginaw,64.41,122.47,54.43,136.08,312.98,Single-ply,SBD,M
Boys,67.5,4,Gavin Johnson,Saginaw,64.86,113.4,68.04,127.01,308.44,Single-ply,SBD,M
Boys,75,1,Kyle Dodson,White Settlement Brewer,73.03,163.29,99.79,181.44,444.52,Single-ply,SBD,M
Boys,75,2,Jaelyn Herod,White Settlement Brewer,74.84,163.29,86.18,192.78,442.25,Single-ply,SBD,M
Boys,75,3,Justin Davis,White Settlement Brewer,72.85,142.88,97.52,149.69,390.09,Single-ply,SBD,M
Boys,75,4,Jeshaun Patton,White Settlement Brewer,70.31,151.95,79.38,149.69,381.02,Single-ply,SBD,M
Boys,75,5,Tavish McCain,White Settlement Brewer,72.57,133.81,95.25,147.42,376.48,Single-ply,SBD,M
Boys,75,6,Desmond Lewis,Saginaw,74.39,136.08,83.91,156.49,376.48,Single-ply,SBD,M
Boys,75,7,Paul Eppright,Fort Worth Chisholm Trail,68.49,145.15,79.38,149.69,374.21,Single-ply,SBD,M
Boys,75,8,Cody Mayberry,Fort Worth Chisholm Trail,68.49,115.67,74.84,120.2,310.71,Single-ply,SBD,M
Boys,82.5,1,Richedi Tshitoko,Saginaw,81.19,204.12,104.33,226.8,535.24,Single-ply,SBD,M
Boys,82.5,2,Dom Orozco,Saginaw,82.1,181.44,113.4,217.72,512.56,Single-ply,SBD,M
Boys,82.5,3,Ezekiel Plata,Saginaw,82.1,172.37,115.67,190.51,478.54,Single-ply,SBD,M
Boys,82.5,4,Collin Reyes,Fort Worth Chisholm Trail,82.1,158.76,113.4,201.85,474,Single-ply,SBD,M
Boys,82.5,5,Frank Chew,Fort Worth Chisholm Trail,78.93,181.44,90.72,197.31,469.47,Single-ply,SBD,M
Boys,82.5,6,Christian Martin,Fort Worth Chisholm Trail,81.19,158.76,113.4,176.9,449.06,Single-ply,SBD,M
Boys,82.5,7,JayQuan Jamerson,Fort Worth Chisholm Trail,79.38,156.49,111.13,170.1,437.72,Single-ply,SBD,M
Boys,82.5,8,Kenneth Manzano-Perez,Saginaw,80.74,147.42,74.84,163.29,385.55,Single-ply,SBD,M
Boys,82.5,9,Nick LeBlanc,Crowley,82.1,142.88,97.52,136.08,376.48,Single-ply,SBD,M
Boys,82.5,10,Branson Dail,White Settlement Brewer,81.65,154.22,,158.76,312.98,Single-ply,SD,M
Boys,90,1,Blake Rains,White Settlement Brewer,89.81,215.46,142.88,233.6,591.94,Single-ply,SBD,M
Boys,90,2,Jameel Mainor,Fort Worth Chisholm Trail,89.36,208.65,127.01,217.72,553.38,Single-ply,SBD,M
Boys,90,3,Keyshawn Gbanqui,Fort Worth Chisholm Trail,88.45,197.31,124.74,222.26,544.31,Single-ply,SBD,M
Boys,90,4,Griffin Rhea,Saginaw,85.28,188.24,122.47,197.31,508.02,Single-ply,SBD,M
Boys,90,5,Patrick Hayes,Saginaw,88.9,183.7,113.4,204.12,501.22,Single-ply,SBD,M
Boys,90,6,Preston Young,White Settlement Brewer,89.81,176.9,102.06,183.7,462.66,Single-ply,SBD,M
Boys,90,7,Max Miller,Fort Worth Chisholm Trail,88.9,165.56,111.13,179.17,455.86,Single-ply,SBD,M
Boys,90,8,Seth Thompson,White Settlement Brewer,89.81,165.56,99.79,181.44,446.79,Single-ply,SBD,M
Boys,90,9,George Ross,Fort Worth Chisholm Trail,85.73,181.44,102.06,151.95,435.45,Single-ply,SBD,M
Boys,90,10,Keondre Vassar,Saginaw,87.09,158.76,90.72,174.63,424.11,Single-ply,SBD,M
Boys,100,1,Derrick Munoz,Saginaw,97.07,226.8,136.08,229.06,591.94,Single-ply,SBD,M
Boys,100,2,Travis Williams,Fort Worth Chisholm Trail,99.34,215.46,142.88,226.8,585.13,Single-ply,SBD,M
Boys,100,3,Ignacio Gonzalez,Saginaw,99.79,199.58,122.47,210.92,532.97,Single-ply,SBD,M
Boys,100,4,Landon Rhoades,Saginaw,97.52,197.31,90.72,192.78,480.81,Single-ply,SBD,M
Boys,100,5,Dejion Cash,Saginaw,99.34,181.44,129.27,158.76,469.47,Single-ply,SBD,M
Boys,100,6,Reid Steele,Crowley,99.79,170.1,102.06,174.63,446.79,Single-ply,SBD,M
Boys,100,7,Cole Chapman,White Settlement Brewer,99.79,167.83,97.52,167.83,433.18,Single-ply,SBD,M
Boys,100,8,Case Mason,Saginaw,97.98,113.4,68.04,147.42,328.85,Single-ply,SBD,M
Boys,100,DQ,Terrance Ware,Fort Worth Chisholm Trail,92.08,,,,,Single-ply,SBD,M
Boys,110,1,Coleton Reinhardt,Saginaw,109.77,215.46,122.47,215.46,553.38,Single-ply,SBD,M
Boys,110,2,Ryan Scruggs,White Settlement Brewer,109.32,195.04,111.13,201.85,508.02,Single-ply,SBD,M
Boys,110,3,Trey Glasker,Fort Worth Chisholm Trail,102.97,176.9,104.33,201.85,483.08,Single-ply,SBD,M
Boys,110,4,Keyvon White,White Settlement Brewer,106.37,158.76,95.25,185.97,439.98,Single-ply,SBD,M
Boys,110,5,Fernando Torres,Saginaw,102.97,163.29,106.59,167.83,437.72,Single-ply,SBD,M
Boys,110,6,Marvin Lopez,Fort Worth Chisholm Trail,109.32,149.69,97.52,176.9,424.11,Single-ply,SBD,M
Boys,110,7,Ricky Bribiesca,White Settlement Brewer,105.23,147.42,95.25,167.83,410.5,Single-ply,SBD,M
Boys,110,8,Gilbert Arroyo,Fort Worth Chisholm Trail,105.69,151.95,72.57,147.42,371.95,Single-ply,SBD,M
Boys,125,1,Gilbert Cortinas,Saginaw,123.38,181.44,113.4,204.12,498.95,Single-ply,SBD,M
Boys,125,2,Vincent Perez,Fort Worth Chisholm Trail,116.12,151.95,68.04,163.29,383.29,Single-ply,SBD,M
Boys,125,3,Sebastian Saucedo,Fort Worth Chisholm Trail,117.48,133.81,72.57,136.08,342.46,Single-ply,SBD,M
Boys,125+,1,Max Dunn,Fort Worth Chisholm Trail,128.37,197.31,131.54,188.24,517.1,Single-ply,SBD,M
Boys,125+,2,Joseph Olmos,Fort Worth Chisholm Trail,129.73,206.38,111.13,183.7,501.22,Single-ply,SBD,M
Boys,125+,3,Christian Ramirez,White Settlement Brewer,132.45,167.83,90.72,183.7,442.25,Single-ply,SBD,M
Boys,125+,DQ,Jacon Tinsley,White Settlement Brewer,132.9,,,,,Single-ply,SBD,M
Boys,125+,DQ,Cam Preston,Crowley,125.19,,,,,Single-ply,SBD,M
