Event,Sex,Name,State,BodyweightKg,WeightClassKg,Division,Best3SquatKg,Best3BenchKg,Best3DeadliftKg,TotalKg,Equipment,Place
SBD,M,Jamie Emberly,NF,81.75,82.5,Junior,235.0,150.0,255.0,640.0,Single-ply,1
SBD,M,Gabe Festing,BC,74.15,75,Junior,217.5,140.0,240.0,597.5,Single-ply,1
SBD,M,Chris Nguyen,MB,74.25,75,Junior,197.5,117.5,212.5,527.5,Single-ply,4
SBD,M,Brandon Summers,ON,72.15,75,Junior,195.0,120.0,227.5,542.5,Single-ply,2
SBD,M,Barry Benoit,NF,73.85,75,Junior,175.0,112.5,240.0,527.5,Single-ply,3
SBD,M,Marc Filiba,MB,66.9,67.5,Junior,187.5,127.5,210.0,525.0,Single-ply,1
SBD,M,Scott Erichsen,MB,158.8,125+,Junior,200.0,140.0,185.0,525.0,Single-ply,2
SBD,M,Clyde Deveau,NS,138.7,125+,Junior,217.5,147.5,212.5,577.5,Single-ply,1
SBD,M,Ian Diack,AB,106.6,110,Junior,200.0,142.5,247.5,590.0,Single-ply,1
