Name,Place,Division,Sex,Equipment,WeightClassKg,BodyweightKg,Age,Event,Best3SquatKg,Best3BenchKg,Best3DeadliftKg,TotalKg
Hally Killion,1,Open,F,Raw,75,72.21,34,SBD,115,75,160,350
Kimberly Martin,1,Open,F,Raw,90+,107.95,31,SBD,160,87.5,147.5,395
Cory Campbell,1,Junior 20-23,M,Raw,67.5,63.68,23,SBD,137.5,110,192.5,440
Cory Campbell,1,Open,M,Raw,67.5,63.68,23,SBD,137.5,110,192.5,440
Andrew Zook,1,Open,M,Raw,90,89.36,33,SBD,217.5,170,242.5,630
Shawn Gallagher,2,Open,M,Raw,90,89.99,26,SBD,200,137.5,232.5,570
Benjamin Kahl,3,Open,M,Raw,90,86.73,28,SBD,160,117.5,202.5,480
Mike Cannon,1,Open,M,Raw,110,108.32,38,SBD,267.5,187.5,287.5,742.5
Mike Cannon,1,Submaster 35-39,M,Raw,110,108.32,38,SBD,267.5,187.5,287.5,742.5
Justin Clifford,1,Open,M,Raw,125,117.48,25,SBD,230,120,275,625
Chris Lauck,DQ,Open,M,Raw,140+,145.78,26,SBD,-227.5,130,220,
Jeremy Koci,1,Open,M,Wraps,82.5,80.92,32,SBD,215,155,230,600
Dylan Tripp,1,Junior 16-17,M,Single-ply,100,99.97,16,SBD,235,160,207.5,602.5
Sean Olsen,DQ,Open,M,Single-ply,100,96.34,39,SBD,-275,,,
Sean Olsen,DQ,Submaster 35-39,M,Single-ply,100,96.34,39,SBD,-275,,,
Anthony Whytock,1,Open,M,Raw,75,74.93,25,B,,130,,130
Jeffery Tucker,1,Master 45-49,M,Raw,125,118.48,45,B,,200,,200
Marty Killion,1,Open,M,Raw,140,127.91,42,B,,217.5,,217.5
Marty Killion,1,Master 40-44,M,Raw,140,127.91,42,B,,217.5,,217.5
Paul Balyeat,DQ,Open,M,Single-ply,110,101.79,32,B,,-272.5,,
Kimberly Martin,1,Open,F,Raw,90+,107.95,31,D,,,147.5,147.5
Anthony Whytock,1,Open,M,Raw,75,74.93,25,D,,,205,205
Jake Rammell,1,Open,M,Raw,100,97.7,24,D,,,280,280
Justin Clifford,1,Open,M,Raw,125,117.48,25,D,,,275,275
Shasta Glotfelty,1,Open,F,Single-ply,75,72.12,30,D,,,165,165
Don Goldsworthy,1,Open,M,Single-ply,125,112.04,32,D,,,282.5,282.5
Hally Killion,1,Open,F,Raw,75,72.21,34,BD,,75,160,235
